http://www.amazon.fr/Tigex-Brassi%C3%A8re-dallaitement-Touch-Taille/dp/B004DZODGA/ref=sr_1_66/279-9647569-8606403?s=apparel&ie=UTF8&qid=1423704207&sr=1-66
http://www.amazon.fr/DN-TCB-4044-teal-Gr/dp/B00N7M0W9M/ref=sr_1_59/279-9647569-8606403?s=apparel&ie=UTF8&qid=1423704207&sr=1-59
http://www.amazon.fr/Vero-Moda-Ivar-Chemise-fabricant/dp/B00PE5F14G/ref=sr_1_51/279-9647569-8606403?s=apparel&ie=UTF8&qid=1423704207&sr=1-51
http://www.amazon.fr/Italian-Fashion-V%C3%AAtements-Maternit%C3%A9-Chemise/dp/B00S87OLWU/ref=sr_1_82/279-9647569-8606403?s=apparel&ie=UTF8&qid=1423704207&sr=1-82
http://www.amazon.fr/Italian-Fashion-V%C3%AAtements-Maternit%C3%A9-Framboise/dp/B00PK5YROK/ref=sr_1_89/279-9647569-8606403?s=apparel&ie=UTF8&qid=1423704207&sr=1-89
http://www.amazon.fr/Anita-Maternity-Soutien-gorge-maternit%C3%A9-Still-Bustier/dp/B00GUKQ1XO/ref=sr_1_81/279-9647569-8606403?s=apparel&ie=UTF8&qid=1423704207&sr=1-81
http://www.amazon.fr/Belly-Armor-Bandeau-grossesse-anti-ondes/dp/B005RT9KLY/ref=sr_1_71/279-9647569-8606403?s=apparel&ie=UTF8&qid=1423704207&sr=1-71
http://www.amazon.fr/Vero-Moda-Armida-Manches-fabricant/dp/B00L9Z1BHQ/ref=sr_1_79/279-9647569-8606403?s=apparel&ie=UTF8&qid=1423704207&sr=1-79
http://www.amazon.fr/Collants-Maternit%C3%A9-Grossesse-Gazele-36-40/dp/B00A232EKE/ref=sr_1_86/279-9647569-8606403?s=apparel&ie=UTF8&qid=1423704207&sr=1-86
http://www.amazon.fr/Roxy-Gary-capuche-Manches-fabricant/dp/B00KTWTDFM/ref=sr_1_96/279-9647569-8606403?s=apparel&ie=UTF8&qid=1423704207&sr=1-96
http://www.amazon.fr/Roxy-Gary-capuche-Manches-fabricant/dp/B00KTWWVLA/ref=sr_1_55/279-9647569-8606403?s=apparel&ie=UTF8&qid=1423704207&sr=1-55
http://www.amazon.fr/Alles-Soutien-Gorge-dallaitement-Maternit%C3%A9/dp/B00BKIY4BW/ref=sr_1_61/279-9647569-8606403?s=apparel&ie=UTF8&qid=1423704207&sr=1-61
http://www.amazon.fr/Roxy-Mauka-capuche-Imprim%C3%A9-fabricant/dp/B00KYLRKGC/ref=sr_1_68/279-9647569-8606403?s=apparel&ie=UTF8&qid=1423704207&sr=1-68
http://www.amazon.fr/Maternit%C3%A9-Grossesse-s%C3%A9duisantes-Octopus-1074H-f3289/dp/B00I8UBDF0/ref=sr_1_94/279-9647569-8606403?s=apparel&ie=UTF8&qid=1423704207&sr=1-94
http://www.amazon.fr/MEXX-Manches-longues-Taille-fabricant/dp/B00H960HL0/ref=sr_1_54/279-9647569-8606403?s=apparel&ie=UTF8&qid=1423704207&sr=1-54
http://www.amazon.fr/Ceinture-grossesse-Physiomat-Mod%C3%A8le-Tonic/dp/B00DOSTA06/ref=sr_1_73/279-9647569-8606403?s=apparel&ie=UTF8&qid=1423704207&sr=1-73
http://www.amazon.fr/ESPRIT-Maternity-roul%C3%A9-Manches-longues/dp/B00CN544DY/ref=sr_1_93/279-9647569-8606403?s=apparel&ie=UTF8&qid=1423704207&sr=1-93
http://www.amazon.fr/chemise-nuit-TM-4031-rose-Gr/dp/B00N0THAKQ/ref=sr_1_52/279-9647569-8606403?s=apparel&ie=UTF8&qid=1423704207&sr=1-52
http://www.amazon.fr/Bauchbandwebshop-Bandeaux-Grossesse-Mains-Bling/dp/B002YUMIUO/ref=sr_1_75/279-9647569-8606403?s=apparel&ie=UTF8&qid=1423704207&sr=1-75
http://www.amazon.fr/Janecrafts-Kigurumi-aimable-danimal-costume/dp/B00O2ZIXWG/ref=sr_1_78/279-9647569-8606403?s=apparel&ie=UTF8&qid=1423704207&sr=1-78
http://www.amazon.fr/Tampons-dencre-empreintes-Proudbody-danger/dp/B0018791CC/ref=sr_1_69/279-9647569-8606403?s=apparel&ie=UTF8&qid=1423704207&sr=1-69
http://www.amazon.fr/Belly-Armor-Bandeau-grossesse-anti-ondes/dp/B005RT9KXM/ref=sr_1_77/279-9647569-8606403?s=apparel&ie=UTF8&qid=1423704207&sr=1-77
http://www.amazon.fr/Happy-Mama-Grossesse-Maternit%C3%A9-Royaume-Uni/dp/B00NMEJ5PM/ref=sr_1_58/279-9647569-8606403?s=apparel&ie=UTF8&qid=1423704207&sr=1-58
http://www.amazon.fr/Glamour-Empire-Moulante-Royaume-Uni-Cappuccino/dp/B00G5PWM8M/ref=sr_1_67/279-9647569-8606403?s=apparel&ie=UTF8&qid=1423704207&sr=1-67
http://www.amazon.fr/Belly-Armor-Bandeau-grossesse-anti-ondes/dp/B005RT9KQO/ref=sr_1_70/279-9647569-8606403?s=apparel&ie=UTF8&qid=1423704207&sr=1-70
http://www.amazon.fr/Tebalou-959001-Manches-Longues-Taille/dp/B002XQ2T0S/ref=sr_1_95/279-9647569-8606403?s=apparel&ie=UTF8&qid=1423704207&sr=1-95
http://www.amazon.fr/Roxy-Gary-capuche-Manches-fabricant/dp/B00KYLNWRS/ref=sr_1_60/279-9647569-8606403?s=apparel&ie=UTF8&qid=1423704207&sr=1-60
http://www.amazon.fr/Vero-Moda-Ivar-Chemise-fabricant/dp/B00FU5OHJ0/ref=sr_1_83/279-9647569-8606403?s=apparel&ie=UTF8&qid=1423704207&sr=1-83
http://www.amazon.fr/Carriwell-Soutien-Gorge-dallaitement-Taille/dp/B004AHKSCY/ref=sr_1_53/279-9647569-8606403?s=apparel&ie=UTF8&qid=1423704207&sr=1-53
http://www.amazon.fr/Nuk-Brassi%C3%A8re-Grossesse-dAllaitement-Taille/dp/B00BD2GHRO/ref=sr_1_56/279-9647569-8606403?s=apparel&ie=UTF8&qid=1423704207&sr=1-56
http://www.amazon.fr/Amurleopard-soutien-gorge-grossesse-allaitement-tombant/dp/B00KBHFO26/ref=sr_1_63/279-9647569-8606403?s=apparel&ie=UTF8&qid=1423704207&sr=1-63
http://www.amazon.fr/Emma-Jane-Ceinture-Grossesse-Maternit%C3%A9/dp/B00009Z70N/ref=sr_1_87/279-9647569-8606403?s=apparel&ie=UTF8&qid=1423704207&sr=1-87
http://www.amazon.fr/Banana-Moon-Intimates-Gear-Queencreek/dp/B00L5D7F9K/ref=sr_1_74/279-9647569-8606403?s=apparel&ie=UTF8&qid=1423704207&sr=1-74
http://www.amazon.fr/Pendentif-Bijou-Argent-Grossesse-Arabesque/dp/B00OTQFTKC/ref=sr_1_57/279-9647569-8606403?s=apparel&ie=UTF8&qid=1423704207&sr=1-57
http://www.amazon.fr/SECRETDRESSING-soutien-gorge-allaitement-bonnet/dp/B00NY1F336/ref=sr_1_80/279-9647569-8606403?s=apparel&ie=UTF8&qid=1423704207&sr=1-80
http://www.amazon.fr/Carriwell-Ceintures-Extensive-%C3%89lastique-Ajustable/dp/B001TH9M98/ref=sr_1_50/279-9647569-8606403?s=apparel&ie=UTF8&qid=1423704207&sr=1-50
http://www.amazon.fr/Juicytrendz-Fourrure-Doublure-Capuchon-Manteaux/dp/B00QJ5VMCU/ref=sr_1_49/279-9647569-8606403?s=apparel&ie=UTF8&qid=1423704207&sr=1-49
http://www.amazon.fr/Pyjama-4030-bleu-spa-Gr/dp/B00N0TXY24/ref=sr_1_72/279-9647569-8606403?s=apparel&ie=UTF8&qid=1423704207&sr=1-72
http://www.amazon.fr/Anita-Maternity-Schwangerschaftsw%C3%A4sche-Sous-v%C3%AAtements-Cousu/dp/B000UVTTZ6/ref=sr_1_65/279-9647569-8606403?s=apparel&ie=UTF8&qid=1423704207&sr=1-65
http://www.amazon.fr/Gaastra-Femme-Doudoune-Ellington-Marron/dp/B00OYVA92K/ref=sr_1_88/279-9647569-8606403?s=apparel&ie=UTF8&qid=1423704207&sr=1-88
http://www.amazon.fr/Couture-ventre-Belly-Bandit-dentelle/dp/B002SWOOKA/ref=sr_1_76/279-9647569-8606403?s=apparel&ie=UTF8&qid=1423704207&sr=1-76
http://www.amazon.fr/Anita-Cherry-dallaitement-Bonnet-MELLOW/dp/B0044BBS8Y/ref=sr_1_64/279-9647569-8606403?s=apparel&ie=UTF8&qid=1423704207&sr=1-64
http://www.amazon.fr/Anita-Maternity-Soutien-gorge-maternit%C3%A9-fabricant/dp/B00470E6NG/ref=sr_1_85/279-9647569-8606403?s=apparel&ie=UTF8&qid=1423704207&sr=1-85
http://www.amazon.fr/Banana-Moon-Intimates-Burney-Pleasant/dp/B00L5D6R80/ref=sr_1_62/279-9647569-8606403?s=apparel&ie=UTF8&qid=1423704207&sr=1-62
http://www.amazon.fr/Happy-Mama-Grossesse-Maternit%C3%A9-Envelopper/dp/B00GJ06DL0/ref=sr_1_90/279-9647569-8606403?s=apparel&ie=UTF8&qid=1423704207&sr=1-90
http://www.amazon.fr/Speedo-Rippleb-Maillot-Femme-Noir/dp/B007QU3KUE/ref=sr_1_92/279-9647569-8606403?s=apparel&ie=UTF8&qid=1423704207&sr=1-92
