http://www.amazon.fr/R%C3%B6mer-2000001817-Classicline-Si%C3%A8ge-Billy/dp/B0049T1OS0/ref=sr_1_76/280-1355093-9231121?s=baby&ie=UTF8&qid=1423704139&sr=1-76
http://www.amazon.fr/Chicco-Si%C3%A8ge-Xpace-Groupe-Chococult/dp/B005M1SZ7C/ref=sr_1_7/280-1355093-9231121?s=baby&ie=UTF8&qid=1423704135&sr=1-7
http://www.amazon.fr/Caretero-Siege-auto-Ibiza-Rouge/dp/B009HPH7LE/ref=sr_1_66/280-1355093-9231121?s=baby&ie=UTF8&qid=1423704138&sr=1-66
http://www.amazon.fr/Cybex-513119007-Si%C3%A8ge-Juno-Fix-Rouge/dp/B0095TCB22/ref=sr_1_93/280-1355093-9231121?s=baby&ie=UTF8&qid=1423704139&sr=1-93
http://www.amazon.fr/Cybex-513111001-Si%C3%A8ge-Pallas-Violet/dp/B0095TCBT0/ref=sr_1_73/280-1355093-9231121?s=baby&ie=UTF8&qid=1423704139&sr=1-73
http://www.amazon.fr/CYBEX-Cybex-Autositz-Juno-Fix-Natural-khaki/dp/B009EQ26CG/ref=sr_1_106/280-1355093-9231121?s=baby&ie=UTF8&qid=1423704140&sr=1-106
http://www.amazon.fr/B%C3%A9b%C3%A9-Confort-Groupe-V%C3%A9g%C3%A9tal-Collection/dp/B002MZZ1G4/ref=sr_1_109/280-1355093-9231121?s=baby&ie=UTF8&qid=1423704140&sr=1-109
http://www.amazon.fr/B%C3%A9b%C3%A9-Confort-Groupe-Raspberry-Collection/dp/B00EWB1ZM0/ref=sr_1_112/280-1355093-9231121?s=baby&ie=UTF8&qid=1423704140&sr=1-112
http://www.amazon.fr/Chicco-Si%C3%A8ge-Auto-Xpace-Groupe/dp/B00EF06DTS/ref=sr_1_81/280-1355093-9231121?s=baby&ie=UTF8&qid=1423704139&sr=1-81
http://www.amazon.fr/Jane-Si%C3%A8ge-Auto-Groupe-Basic/dp/B00BY73U00/ref=sr_1_72/280-1355093-9231121?s=baby&ie=UTF8&qid=1423704138&sr=1-72
http://www.amazon.fr/R%C3%B6mer-2000008193-Plus-enfant-Groupe/dp/B009WYFRCG/ref=sr_1_124/280-1355093-9231121?s=baby&ie=UTF8&qid=1423704141&sr=1-124
http://www.amazon.fr/Cybex-Si%C3%A8ge-Auto-Juno-Noire/dp/B00NFW27V0/ref=sr_1_12/280-1355093-9231121?s=baby&ie=UTF8&qid=1423704135&sr=1-12
http://www.amazon.fr/BEBE-CONFORT-SIEGE-GROUPE-LIFESTYLE/dp/B004NV712C/ref=sr_1_114/280-1355093-9231121?s=baby&ie=UTF8&qid=1423704140&sr=1-114
http://www.amazon.fr/B%C3%A9b%C3%A9-Confort-Si%C3%A8ge-Groupe-Collection/dp/B003XMWJXS/ref=sr_1_108/280-1355093-9231121?s=baby&ie=UTF8&qid=1423704140&sr=1-108
http://www.amazon.fr/R%C3%B6mer-Si%C3%A8ge-Auto-Groupe-Eclipse/dp/B00A30ER3I/ref=sr_1_59/280-1355093-9231121?s=baby&ie=UTF8&qid=1423704138&sr=1-59
http://www.amazon.fr/KIDDY-Siege-energy-rumba-groupe/dp/B00443BHN8/ref=sr_1_143/280-1355093-9231121?s=baby&ie=UTF8&qid=1423704141&sr=1-143
http://www.amazon.fr/R%C3%B6mer-Si%C3%A8ge-Plus-enfant-Groupe/dp/B009WYFOX8/ref=sr_1_101/280-1355093-9231121?s=baby&ie=UTF8&qid=1423704140&sr=1-101
http://www.amazon.fr/KIDDY-Si%C3%A8ge-phoenixfix-apple-groupe/dp/B00FEIDY6U/ref=sr_1_17/280-1355093-9231121?s=baby&ie=UTF8&qid=1423704135&sr=1-17
http://www.amazon.fr/B%C3%A9b%C3%A9-Confort-Groupe-Raspberry-Collection/dp/B00EWB2880/ref=sr_1_1/280-1355093-9231121?s=baby&ie=UTF8&qid=1423704135&sr=1-1
http://www.amazon.fr/Kiddy-41440CP071-Comfort-Si%C3%A8ge-Groupe/dp/B001CQTIW2/ref=sr_1_142/280-1355093-9231121?s=baby&ie=UTF8&qid=1423704141&sr=1-142
http://www.amazon.fr/Kiddy-41430IP024-Infinity-Classe-partir/dp/B000SADE8M/ref=sr_1_111/280-1355093-9231121?s=baby&ie=UTF8&qid=1423704140&sr=1-111
http://www.amazon.fr/Chicco-Si%C3%A8ge-Groupe-Isofix-Paprika/dp/B005M1T0B2/ref=sr_1_117/280-1355093-9231121?s=baby&ie=UTF8&qid=1423704140&sr=1-117
http://www.amazon.fr/B%C3%A9b%C3%A9-Confort-Groupe-Lifestyle-Collection/dp/B002MZZ1EQ/ref=sr_1_103/280-1355093-9231121?s=baby&ie=UTF8&qid=1423704140&sr=1-103
http://www.amazon.fr/B%C3%A9b%C3%A9-Confort-Groupe-Walnut-collection/dp/B005OW6616/ref=sr_1_68/280-1355093-9231121?s=baby&ie=UTF8&qid=1423704138&sr=1-68
http://www.amazon.fr/R%C3%B6mer-Si%C3%A8ge-Auto-Groupe-Safefix/dp/B009O1IU80/ref=sr_1_40/280-1355093-9231121?s=baby&ie=UTF8&qid=1423704137&sr=1-40
http://www.amazon.fr/B%C3%A9b%C3%A9-Confort-Si%C3%A8ge-Groupe-Collection/dp/B003XMWJVK/ref=sr_1_63/280-1355093-9231121?s=baby&ie=UTF8&qid=1423704138&sr=1-63
http://www.amazon.fr/Recaro-Si%C3%A8ge-Auto-Groupe-Expert/dp/B009SS5UUK/ref=sr_1_27/280-1355093-9231121?s=baby&ie=UTF8&qid=1423704137&sr=1-27
http://www.amazon.fr/Cybex-513111003-Si%C3%A8ge-Pallas-2-Fix/dp/B0095TCBW2/ref=sr_1_99/280-1355093-9231121?s=baby&ie=UTF8&qid=1423704140&sr=1-99
http://www.amazon.fr/Cybex-Autositz-Juno-Fix-Violet-Spring-pink/dp/B009EQK2IQ/ref=sr_1_121/280-1355093-9231121?s=baby&ie=UTF8&qid=1423704141&sr=1-121
http://www.amazon.fr/B%C3%A9b%C3%A9-Confort-87624220-Groupe-Collection/dp/B003XMWJZG/ref=sr_1_137/280-1355093-9231121?s=baby&ie=UTF8&qid=1423704141&sr=1-137
http://www.amazon.fr/Cybex-Si%C3%A8ge-auto-Juno-Fix-Bleu/dp/B0095TCAYQ/ref=sr_1_94/280-1355093-9231121?s=baby&ie=UTF8&qid=1423704139&sr=1-94
http://www.amazon.fr/Britax-Safefix-groupe-Isofix-coloris/dp/B002TUTU1E/ref=sr_1_135/280-1355093-9231121?s=baby&ie=UTF8&qid=1423704141&sr=1-135
http://www.amazon.fr/Chicco-Si%C3%A8ge-Oasys-Isofix-Groupe/dp/B00CAP7GMI/ref=sr_1_88/280-1355093-9231121?s=baby&ie=UTF8&qid=1423704139&sr=1-88
http://www.amazon.fr/Cybex-513111005-Si%C3%A8ge-Pallas-Noisette/dp/B0095TCCVW/ref=sr_1_110/280-1355093-9231121?s=baby&ie=UTF8&qid=1423704140&sr=1-110
http://www.amazon.fr/Cybex-Juno-Si%C3%A8ge-Auto-Dune/dp/B00FAO6E4W/ref=sr_1_38/280-1355093-9231121?s=baby&ie=UTF8&qid=1423704137&sr=1-38
http://www.amazon.fr/R%C3%B6mer-Si%C3%A8ge-Auto-Groupe-Plus/dp/B009HHQKV0/ref=sr_1_47/280-1355093-9231121?s=baby&ie=UTF8&qid=1423704137&sr=1-47
http://www.amazon.fr/R%C3%B6mer-Si%C3%A8ge-Auto-Groupe-Plus/dp/B009HHQMCC/ref=sr_1_102/280-1355093-9231121?s=baby&ie=UTF8&qid=1423704140&sr=1-102
http://www.amazon.fr/Cybex-Juno-Si%C3%A8ge-Auto-Autumn/dp/B00FAO6FY6/ref=sr_1_10/280-1355093-9231121?s=baby&ie=UTF8&qid=1423704135&sr=1-10
http://www.amazon.fr/R%C3%B6mer-Si%C3%A8ge-Auto-Groupe-Safefix/dp/B009O1IT0O/ref=sr_1_18/280-1355093-9231121?s=baby&ie=UTF8&qid=1423704135&sr=1-18
http://www.amazon.fr/Cybex-513119015-Si%C3%A8ge-auto-Juno-Fix/dp/B0095TCBSQ/ref=sr_1_74/280-1355093-9231121?s=baby&ie=UTF8&qid=1423704139&sr=1-74
http://www.amazon.fr/Cybex-Autositz-Juno-Fix-Poppy-Red-red/dp/B009EQ60RI/ref=sr_1_120/280-1355093-9231121?s=baby&ie=UTF8&qid=1423704140&sr=1-120
http://www.amazon.fr/Cybex-Si%C3%A8ge-Auto-Juno-Beauty/dp/B00NFW1X9M/ref=sr_1_15/280-1355093-9231121?s=baby&ie=UTF8&qid=1423704135&sr=1-15
http://www.amazon.fr/Romer-Si%C3%A8ge-groupe-Eclipse-Thunder/dp/B009WYFMJ4/ref=sr_1_123/280-1355093-9231121?s=baby&ie=UTF8&qid=1423704141&sr=1-123
http://www.amazon.fr/Recaro-Si%C3%A8ge-Auto-Groupe-Expert/dp/B009SS5Y74/ref=sr_1_50/280-1355093-9231121?s=baby&ie=UTF8&qid=1423704138&sr=1-50
http://www.amazon.fr/Chicco-Si%C3%A8ge-Auto-Oasys-1-Fire/dp/B00MAG9LK2/ref=sr_1_98/280-1355093-9231121?s=baby&ie=UTF8&qid=1423704140&sr=1-98
http://www.amazon.fr/Cybex-Si%C3%A8ge-Auto-Juno-Limestone/dp/B00NFW1XV0/ref=sr_1_39/280-1355093-9231121?s=baby&ie=UTF8&qid=1423704137&sr=1-39
http://www.amazon.fr/R%C3%B6mer-Si%C3%A8ge-Auto-Groupe-Plus/dp/B009HHQJHK/ref=sr_1_20/280-1355093-9231121?s=baby&ie=UTF8&qid=1423704135&sr=1-20
http://www.amazon.fr/Recaro-Siege-Auto-Polaric-Microfibre/dp/B003VQS4WQ/ref=sr_1_58/280-1355093-9231121?s=baby&ie=UTF8&qid=1423704138&sr=1-58
http://www.amazon.fr/Maxi-Cosi-Pearl-Si%C3%A8ge-auto-Raspberry/dp/B00HQC44RA/ref=sr_1_49/280-1355093-9231121?s=baby&ie=UTF8&qid=1423704138&sr=1-49
http://www.amazon.fr/Romer-TRIFIX-ROMER-BLACK-THUNDER/dp/B00AATKULA/ref=sr_1_85/280-1355093-9231121?s=baby&ie=UTF8&qid=1423704139&sr=1-85
http://www.amazon.fr/R%C3%B6mer-2000005529-Si%C3%A8ge-Auto-Groupe/dp/B005X4LTQC/ref=sr_1_131/280-1355093-9231121?s=baby&ie=UTF8&qid=1423704141&sr=1-131
http://www.amazon.fr/R%C3%B6mer-Si%C3%A8ge-Auto-Groupe-Safefix/dp/B009O1IRJC/ref=sr_1_48/280-1355093-9231121?s=baby&ie=UTF8&qid=1423704137&sr=1-48
http://www.amazon.fr/B%C3%A9b%C3%A9-Confort-Groupe-Playful-collection/dp/B005OW67BA/ref=sr_1_86/280-1355093-9231121?s=baby&ie=UTF8&qid=1423704139&sr=1-86
http://www.amazon.fr/Chicco-Si%C3%A8ge-Auto-Oasys-Isofix-Fire/dp/B00MAG9X2I/ref=sr_1_36/280-1355093-9231121?s=baby&ie=UTF8&qid=1423704137&sr=1-36
http://www.amazon.fr/Cybex-Juno-Si%C3%A8ge-Storm-cloud/dp/B00FAO6E3S/ref=sr_1_37/280-1355093-9231121?s=baby&ie=UTF8&qid=1423704137&sr=1-37
http://www.amazon.fr/Cybex-513111007-Si%C3%A8ge-Pallas-2-Fix/dp/B0095TCCUI/ref=sr_1_77/280-1355093-9231121?s=baby&ie=UTF8&qid=1423704139&sr=1-77
http://www.amazon.fr/Kiddy-Groupe-Phoenixfix-bouclier-Phantom/dp/B00CXNPLL0/ref=sr_1_19/280-1355093-9231121?s=baby&ie=UTF8&qid=1423704135&sr=1-19
http://www.amazon.fr/R%C3%B6mer-Si%C3%A8ge-Auto-Groupe-Safefix/dp/B009O1IW7E/ref=sr_1_46/280-1355093-9231121?s=baby&ie=UTF8&qid=1423704137&sr=1-46
http://www.amazon.fr/B%C3%A9b%C3%A9-Confort-Groupe-Lifestyle-Collection/dp/B002MZZ1DW/ref=sr_1_83/280-1355093-9231121?s=baby&ie=UTF8&qid=1423704139&sr=1-83
http://www.amazon.fr/B%C3%A9b%C3%A9-Confort-Groupe-Lifestyle-Collection/dp/B002MZZ1EG/ref=sr_1_80/280-1355093-9231121?s=baby&ie=UTF8&qid=1423704139&sr=1-80
http://www.amazon.fr/Cybex-Si%C3%A8ge-Auto-Juno-Grappe/dp/B00NFW285U/ref=sr_1_30/280-1355093-9231121?s=baby&ie=UTF8&qid=1423704137&sr=1-30
http://www.amazon.fr/Cybex-513111008-Si%C3%A8ge-Pallas-2-Fix/dp/B0095TCCTE/ref=sr_1_56/280-1355093-9231121?s=baby&ie=UTF8&qid=1423704138&sr=1-56
http://www.amazon.fr/AeroMoov-Layer-Si%C3%A8ge-Assise-Sable/dp/B008F8DTAC/ref=sr_1_54/280-1355093-9231121?s=baby&ie=UTF8&qid=1423704138&sr=1-54
http://www.amazon.fr/Cybex-Si%C3%A8ge-auto-Juno-Fix-Vert/dp/B0095TCA3W/ref=sr_1_84/280-1355093-9231121?s=baby&ie=UTF8&qid=1423704139&sr=1-84
http://www.amazon.fr/B%C3%A9b%C3%A9-Confort-Groupe-V%C3%A9g%C3%A9tal-Collection/dp/B002MZZ1F0/ref=sr_1_138/280-1355093-9231121?s=baby&ie=UTF8&qid=1423704141&sr=1-138
http://www.amazon.fr/B%C3%A9b%C3%A9-Confort-Groupe-Lifestyle-Collection/dp/B002MZZ1FU/ref=sr_1_95/280-1355093-9231121?s=baby&ie=UTF8&qid=1423704139&sr=1-95
http://www.amazon.fr/B%C3%A9b%C3%A9-Confort-Groupe-V%C3%A9g%C3%A9tal-Collection/dp/B002MZZ1FA/ref=sr_1_69/280-1355093-9231121?s=baby&ie=UTF8&qid=1423704138&sr=1-69
http://www.amazon.fr/R%C3%B6mer-Si%C3%A8ge-Auto-Groupe-Safefix/dp/B009O1IV70/ref=sr_1_51/280-1355093-9231121?s=baby&ie=UTF8&qid=1423704138&sr=1-51
http://www.amazon.fr/R%C3%B6mer-Si%C3%A8ge-Auto-Groupe-9-18/dp/B009WYFXM0/ref=sr_1_125/280-1355093-9231121?s=baby&ie=UTF8&qid=1423704141&sr=1-125
http://www.amazon.fr/B%C3%A9b%C3%A9-Confort-Si%C3%A8ge-Groupe-Collection/dp/B002MZZ1GO/ref=sr_1_127/280-1355093-9231121?s=baby&ie=UTF8&qid=1423704141&sr=1-127
http://www.amazon.fr/Kiddy-Comfort-Si%C3%A8ge-auto-Groupe/dp/B001TH1K6G/ref=sr_1_128/280-1355093-9231121?s=baby&ie=UTF8&qid=1423704141&sr=1-128
http://www.amazon.fr/B%C3%A9b%C3%A9-Confort-Groupe-Pearl-Collection/dp/B005OW5UUY/ref=sr_1_42/280-1355093-9231121?s=baby&ie=UTF8&qid=1423704137&sr=1-42
http://www.amazon.fr/Cybex-Juno-Si%C3%A8ge-Auto-Charcoal/dp/B00FANKGG0/ref=sr_1_6/280-1355093-9231121?s=baby&ie=UTF8&qid=1423704135&sr=1-6
http://www.amazon.fr/Cybex-Juno-Si%C3%A8ge-Auto-Ocean/dp/B00FAO6E38/ref=sr_1_13/280-1355093-9231121?s=baby&ie=UTF8&qid=1423704135&sr=1-13
http://www.amazon.fr/Kiwy-Si%C3%A8ge-Auto-pour-Enfants/dp/B0052IPK82/ref=sr_1_55/280-1355093-9231121?s=baby&ie=UTF8&qid=1423704138&sr=1-55
http://www.amazon.fr/Chicco-Si%C3%A8ge-Groupe-Xpace-Paprika/dp/B005M1SZ9U/ref=sr_1_105/280-1355093-9231121?s=baby&ie=UTF8&qid=1423704140&sr=1-105
http://www.amazon.fr/Cybex-Juno-Si%C3%A8ge-Auto-Lollipop/dp/B00FAO6E42/ref=sr_1_29/280-1355093-9231121?s=baby&ie=UTF8&qid=1423704137&sr=1-29
http://www.amazon.fr/B%C3%A9b%C3%A9-Confort-Si%C3%A8ge-Groupe-Collection/dp/B003XMWJX8/ref=sr_1_90/280-1355093-9231121?s=baby&ie=UTF8&qid=1423704139&sr=1-90
http://www.amazon.fr/R%C3%B6mer-Si%C3%A8ge-Plus-enfant-Groupe/dp/B009WYFPFK/ref=sr_1_100/280-1355093-9231121?s=baby&ie=UTF8&qid=1423704140&sr=1-100
http://www.amazon.fr/Cybex-Autositz-Juno-Fix-Graffiti-Green-green/dp/B009EQKFM4/ref=sr_1_134/280-1355093-9231121?s=baby&ie=UTF8&qid=1423704141&sr=1-134
http://www.amazon.fr/Casualplay-Si%C3%A8ge-Beatle-Groupe-106105/dp/B003YUNZ6O/ref=sr_1_61/280-1355093-9231121?s=baby&ie=UTF8&qid=1423704138&sr=1-61
http://www.amazon.fr/Si%C3%A8ge-Groupe-Enfants-Isofix-Coloris/dp/B00G227J9A/ref=sr_1_65/280-1355093-9231121?s=baby&ie=UTF8&qid=1423704138&sr=1-65
http://www.amazon.fr/Chicco-Pu%C3%A9riculture-Si%C3%A8ge-Groupe-Fuego/dp/B000YEGMDQ/ref=sr_1_116/280-1355093-9231121?s=baby&ie=UTF8&qid=1423704140&sr=1-116
http://www.amazon.fr/B%C3%A9b%C3%A9-Confort-Groupe-ISOFIX-Collection/dp/B003XMWJYW/ref=sr_1_31/280-1355093-9231121?s=baby&ie=UTF8&qid=1423704137&sr=1-31
http://www.amazon.fr/Graco-Si%C3%A8ge-Groupe-Coast-Chili/dp/B006Q618A8/ref=sr_1_82/280-1355093-9231121?s=baby&ie=UTF8&qid=1423704139&sr=1-82
http://www.amazon.fr/B%C3%A9b%C3%A9-Confort-Groupe-Intense-collection/dp/B005OW67AQ/ref=sr_1_64/280-1355093-9231121?s=baby&ie=UTF8&qid=1423704138&sr=1-64
http://www.amazon.fr/B%C3%A9b%C3%A9-Confort-Si%C3%A8ge-Groupe-Collection/dp/B00A2U85TQ/ref=sr_1_28/280-1355093-9231121?s=baby&ie=UTF8&qid=1423704137&sr=1-28
http://www.amazon.fr/B%C3%A9b%C3%A9-Confort-Si%C3%A8ge-Groupe-collection/dp/B005OW660C/ref=sr_1_79/280-1355093-9231121?s=baby&ie=UTF8&qid=1423704139&sr=1-79
http://www.amazon.fr/R%C3%B6mer-Si%C3%A8ge-Auto-Groupe-Eclipse/dp/B00A30ER2E/ref=sr_1_25/280-1355093-9231121?s=baby&ie=UTF8&qid=1423704137&sr=1-25
http://www.amazon.fr/Chicco-Si%C3%A8ge-Isofix-Groupe-Anthracite/dp/B00EF05WP4/ref=sr_1_5/280-1355093-9231121?s=baby&ie=UTF8&qid=1423704135&sr=1-5
http://www.amazon.fr/Chicco-Si%C3%A8ge-Oasys-Isofix-Groupe/dp/B00E5WQ0VM/ref=sr_1_2/280-1355093-9231121?s=baby&ie=UTF8&qid=1423704135&sr=1-2
http://www.amazon.fr/Peg-Perego-Si%C3%A8ge-Groupe-Viaggio/dp/B00BBPQYDA/ref=sr_1_57/280-1355093-9231121?s=baby&ie=UTF8&qid=1423704138&sr=1-57
http://www.amazon.fr/R%C3%B6mer-Si%C3%A8ge-Auto-Groupe-Eclipse/dp/B00A30ER2Y/ref=sr_1_26/280-1355093-9231121?s=baby&ie=UTF8&qid=1423704137&sr=1-26
http://www.amazon.fr/Chicco-Si%C3%A8ge-Groupe-Isofix-Chococult/dp/B005M1T0AI/ref=sr_1_91/280-1355093-9231121?s=baby&ie=UTF8&qid=1423704139&sr=1-91
http://www.amazon.fr/R%C3%B6mer-Si%C3%A8ge-Auto-Groupe-Safefix/dp/B00A472AZW/ref=sr_1_113/280-1355093-9231121?s=baby&ie=UTF8&qid=1423704140&sr=1-113
http://www.amazon.fr/Kiddy-Groupe-Phoenixfix-bouclier-Sunshine/dp/B00FDW88PO/ref=sr_1_34/280-1355093-9231121?s=baby&ie=UTF8&qid=1423704137&sr=1-34
http://www.amazon.fr/Britax-R%C3%B6mer-Si%C3%A8ge-Auto-Groupe/dp/B00IG3NVV8/ref=sr_1_32/280-1355093-9231121?s=baby&ie=UTF8&qid=1423704137&sr=1-32
http://www.amazon.fr/KIDDY-Si%C3%A8ge-auto-phoenixfix-groupe/dp/B00FDW77JM/ref=sr_1_62/280-1355093-9231121?s=baby&ie=UTF8&qid=1423704138&sr=1-62
http://www.amazon.fr/Cybex-Juno-Si%C3%A8ge-Auto-Strawberry/dp/B00FAO6E0G/ref=sr_1_97/280-1355093-9231121?s=baby&ie=UTF8&qid=1423704140&sr=1-97
http://www.amazon.fr/Kiddy-Groupe-Phoenixfix-bouclier-Racing/dp/B00CXNR2FI/ref=sr_1_9/280-1355093-9231121?s=baby&ie=UTF8&qid=1423704135&sr=1-9
http://www.amazon.fr/Chicco-Si%C3%A8ge-Auto-Groupe-Eletta/dp/B0093YCIGI/ref=sr_1_60/280-1355093-9231121?s=baby&ie=UTF8&qid=1423704138&sr=1-60
http://www.amazon.fr/B%C3%A9b%C3%A9-Confort-Groupe-CONFETTI-Collection/dp/B005OW5UTU/ref=sr_1_126/280-1355093-9231121?s=baby&ie=UTF8&qid=1423704141&sr=1-126
http://www.amazon.fr/B%C3%A9b%C3%A9-Confort-86093630-Lifestyle-Collection/dp/B002MZZ1FK/ref=sr_1_23/280-1355093-9231121?s=baby&ie=UTF8&qid=1423704135&sr=1-23
http://www.amazon.fr/Concord-Absorber-Xt-Int%C3%A9gr%C3%A9-Collection/dp/B00467PWV0/ref=sr_1_43/280-1355093-9231121?s=baby&ie=UTF8&qid=1423704137&sr=1-43
http://www.amazon.fr/KIDDY-Si%C3%A8ge-phoenixfix-oc%C3%A9an-groupe/dp/B00FEIFF58/ref=sr_1_35/280-1355093-9231121?s=baby&ie=UTF8&qid=1423704137&sr=1-35
http://www.amazon.fr/Maxi-Cosi-si%C3%A8ge-auto-Tobi-Intense/dp/B006W7LWP2/ref=sr_1_144/280-1355093-9231121?s=baby&ie=UTF8&qid=1423704141&sr=1-144
http://www.amazon.fr/B%C3%A9b%C3%A9-Confort-Si%C3%A8ge-Groupe-Collection/dp/B003XMWJXI/ref=sr_1_70/280-1355093-9231121?s=baby&ie=UTF8&qid=1423704138&sr=1-70
http://www.amazon.fr/Cybex-Si%C3%A8ge-auto-Juno-Fix-Gris/dp/B0095TCB0O/ref=sr_1_104/280-1355093-9231121?s=baby&ie=UTF8&qid=1423704140&sr=1-104
http://www.amazon.fr/B%C3%A9b%C3%A9-Confort-Groupe-Marble-Collection/dp/B003XMWJVA/ref=sr_1_115/280-1355093-9231121?s=baby&ie=UTF8&qid=1423704140&sr=1-115
http://www.amazon.fr/Recaro-6135-21109-66-groupe-Microfibre-Aquavit/dp/B000NJ2182/ref=sr_1_75/280-1355093-9231121?s=baby&ie=UTF8&qid=1423704139&sr=1-75
http://www.amazon.fr/Cybex-Autositz-Juno-Fix-Rocky-Mountain-grey/dp/B009EQMPU4/ref=sr_1_78/280-1355093-9231121?s=baby&ie=UTF8&qid=1423704139&sr=1-78
http://www.amazon.fr/B%C3%A9b%C3%A9confort-Si%C3%A8ge-Groupe-Axiss-Collection/dp/B00O5124ZY/ref=sr_1_3/280-1355093-9231121?s=baby&ie=UTF8&qid=1423704135&sr=1-3
http://www.amazon.fr/Recaro-6135-21086-66-groupe-Expert-Microfibre/dp/B000NJ215A/ref=sr_1_129/280-1355093-9231121?s=baby&ie=UTF8&qid=1423704141&sr=1-129
http://www.amazon.fr/Cybex-JunoFix-512119015-Si%C3%A8ge-Auto/dp/B006OV705W/ref=sr_1_96/280-1355093-9231121?s=baby&ie=UTF8&qid=1423704139&sr=1-96
http://www.amazon.fr/Kiddy-Siege-Groupe-Phoenixfix-bouclier/dp/B00CXNRS7K/ref=sr_1_33/280-1355093-9231121?s=baby&ie=UTF8&qid=1423704137&sr=1-33
http://www.amazon.fr/B%C3%A9b%C3%A9-Confort-Si%C3%A8ge-Groupe-collection/dp/B005OW679C/ref=sr_1_45/280-1355093-9231121?s=baby&ie=UTF8&qid=1423704137&sr=1-45
http://www.amazon.fr/R%C3%B6mer-Safefix-Trendline-Si%C3%A8ge-Isofix/dp/B005S6K1GO/ref=sr_1_92/280-1355093-9231121?s=baby&ie=UTF8&qid=1423704139&sr=1-92
http://www.amazon.fr/Recaro-S%C3%A9curit%C3%A9-Polaric-Microfibre-Aquavit/dp/B00161JSUA/ref=sr_1_130/280-1355093-9231121?s=baby&ie=UTF8&qid=1423704141&sr=1-130
http://www.amazon.fr/Cybex-Juno-Fix-512119007-Si%C3%A8ge-Rouge/dp/B006OV6ZAI/ref=sr_1_140/280-1355093-9231121?s=baby&ie=UTF8&qid=1423704141&sr=1-140
http://www.amazon.fr/R%C3%B6mer-Si%C3%A8ge-Auto-Groupe-Eclipse/dp/B00A30ER38/ref=sr_1_4/280-1355093-9231121?s=baby&ie=UTF8&qid=1423704135&sr=1-4
http://www.amazon.fr/B%C3%A9b%C3%A9-Confort-42540-Oxygen-Collection/dp/B001IZ35XU/ref=sr_1_136/280-1355093-9231121?s=baby&ie=UTF8&qid=1423704141&sr=1-136
http://www.amazon.fr/Peg-Perego-Si%C3%A8ge-Auto-Viaggio/dp/B004OR1E9G/ref=sr_1_44/280-1355093-9231121?s=baby&ie=UTF8&qid=1423704137&sr=1-44
http://www.amazon.fr/Cybex-Si%C3%A8ge-Auto-Juno-Spicy/dp/B00NFW1XAQ/ref=sr_1_122/280-1355093-9231121?s=baby&ie=UTF8&qid=1423704141&sr=1-122
http://www.amazon.fr/B%C3%A9b%C3%A9-Confort-Si%C3%A8ge-Groupe-Phantom/dp/B00F94RNMA/ref=sr_1_52/280-1355093-9231121?s=baby&ie=UTF8&qid=1423704138&sr=1-52
http://www.amazon.fr/R%C3%B6mer-Si%C3%A8ge-Auto-Groupe-Safefix/dp/B009O1IQFM/ref=sr_1_16/280-1355093-9231121?s=baby&ie=UTF8&qid=1423704135&sr=1-16
http://www.amazon.fr/Cybex-Si%C3%A8ge-Auto-Juno-True/dp/B00NFW26V6/ref=sr_1_14/280-1355093-9231121?s=baby&ie=UTF8&qid=1423704135&sr=1-14
http://www.amazon.fr/Chicco-Si%C3%A8ge-Groupe-Isofix-Liquorice/dp/B0093YCJ7Q/ref=sr_1_71/280-1355093-9231121?s=baby&ie=UTF8&qid=1423704138&sr=1-71
http://www.amazon.fr/Cybex-513111006-Si%C3%A8ge-Pallas-2-Fix/dp/B0095TCCSA/ref=sr_1_118/280-1355093-9231121?s=baby&ie=UTF8&qid=1423704140&sr=1-118
http://www.amazon.fr/R%C3%B6mer-Si%C3%A8ge-Auto-Groupe-Plus/dp/B009HHQI08/ref=sr_1_8/280-1355093-9231121?s=baby&ie=UTF8&qid=1423704135&sr=1-8
http://www.amazon.fr/Cybex-Juno-Si%C3%A8ge-Black-river/dp/B00FANKGCY/ref=sr_1_11/280-1355093-9231121?s=baby&ie=UTF8&qid=1423704135&sr=1-11
http://www.amazon.fr/Kiddy-Siege-Groupe-Phoenixfix-bouclier/dp/B00CXNSZ04/ref=sr_1_21/280-1355093-9231121?s=baby&ie=UTF8&qid=1423704135&sr=1-21
http://www.amazon.fr/Peg-Perego-IMDA000035DX13DP53-Groupe-Viaggio/dp/B004OR1E8M/ref=sr_1_53/280-1355093-9231121?s=baby&ie=UTF8&qid=1423704138&sr=1-53
http://www.amazon.fr/Chicco-Pu%C3%A9riculture-Si%C3%A8ge-Groupe-Romantic/dp/B001GGHONS/ref=sr_1_139/280-1355093-9231121?s=baby&ie=UTF8&qid=1423704141&sr=1-139
http://www.amazon.fr/R%C3%B6mer-2000005557-Trendline-Si%C3%A8ge-auto/dp/B005X4LYGC/ref=sr_1_132/280-1355093-9231121?s=baby&ie=UTF8&qid=1423704141&sr=1-132
http://www.amazon.fr/Kiddy-41430IP071-Infinity-Si%C3%A8ge-Groupe/dp/B000SABD76/ref=sr_1_141/280-1355093-9231121?s=baby&ie=UTF8&qid=1423704141&sr=1-141
http://www.amazon.fr/Chicco-Si%C3%A8ge-Auto-Oasys-Groupe/dp/B00MAG9LIO/ref=sr_1_41/280-1355093-9231121?s=baby&ie=UTF8&qid=1423704137&sr=1-41
http://www.amazon.fr/9-18Kg-Viaggio1-Duo-Fix-Peg-Perego/dp/B00E97XP66/ref=sr_1_133/280-1355093-9231121?s=baby&ie=UTF8&qid=1423704141&sr=1-133
http://www.amazon.fr/B%C3%A9b%C3%A9-Confort-Groupe-WALNUT-Collection/dp/B005OW5UU4/ref=sr_1_87/280-1355093-9231121?s=baby&ie=UTF8&qid=1423704139&sr=1-87
http://www.amazon.fr/Nania-Siege-Cosmos-ISOFIX-Agora/dp/B00KV0XFII/ref=sr_1_22/280-1355093-9231121?s=baby&ie=UTF8&qid=1423704135&sr=1-22
http://www.amazon.fr/Cybex-Autositz-Juno-Fix-Classic-Black-black/dp/B009EQJ4B2/ref=sr_1_89/280-1355093-9231121?s=baby&ie=UTF8&qid=1423704139&sr=1-89
http://www.amazon.fr/B%C3%A9b%C3%A9-Confort-86083860-Groupe-Intense/dp/B003XMWJVU/ref=sr_1_67/280-1355093-9231121?s=baby&ie=UTF8&qid=1423704138&sr=1-67
http://www.amazon.fr/R%C3%B6mer-Si%C3%A8ge-Auto-Groupe-Plus/dp/B009HHQLOG/ref=sr_1_24/280-1355093-9231121?s=baby&ie=UTF8&qid=1423704135&sr=1-24
http://www.amazon.fr/B%C3%A9b%C3%A9-Confort-Groupe-INTENSE-Collection/dp/B005OW5W66/ref=sr_1_107/280-1355093-9231121?s=baby&ie=UTF8&qid=1423704140&sr=1-107
http://www.amazon.fr/B%C3%A9b%C3%A9-Confort-Siege-Groupe-Collection/dp/B003XMWJ1A/ref=sr_1_119/280-1355093-9231121?s=baby&ie=UTF8&qid=1423704140&sr=1-119
