http://www.amazon.fr/Ludi-Mousse-Fond-Parc-Octogonal/dp/B008F7XJHQ/ref=sr_1_11/275-0842692-7684724?s=baby&ie=UTF8&qid=1423704197&sr=1-11
http://www.amazon.fr/Blackspur-mousse-enfants-lettres-chiffres/dp/B00CJEJPMO/ref=sr_1_12/275-0842692-7684724?s=baby&ie=UTF8&qid=1423704197&sr=1-12
http://www.amazon.fr/Monsieur-B%C3%A9b%C3%A9-Tapis-d%C3%A9veil-musical/dp/B004L4QXP2/ref=sr_1_6/275-0842692-7684724?s=baby&ie=UTF8&qid=1423704197&sr=1-6
http://www.amazon.fr/Ludi-1051-Mousse-Basic-Transport/dp/B00E1AOOC0/ref=sr_1_5/275-0842692-7684724?s=baby&ie=UTF8&qid=1423704197&sr=1-5
http://www.amazon.fr/Tapis-jeux-Trafic-Circuit-40m/dp/B00B5CU5IE/ref=sr_1_8/275-0842692-7684724?s=baby&ie=UTF8&qid=1423704197&sr=1-8
http://www.amazon.fr/Vtech-Eveil-Winnie-Arche-d%C3%A9veil/dp/B00303GCLA/ref=sr_1_13/275-0842692-7684724?s=baby&ie=UTF8&qid=1423704197&sr=1-13
http://www.amazon.fr/Tapis-jeux-Trafic-Circuit-95m/dp/B004PG2E5O/ref=sr_1_3/275-0842692-7684724?s=baby&ie=UTF8&qid=1423704197&sr=1-3
http://www.amazon.fr/Monsieur-B%C3%A9b%C3%A9-d%C3%A9veil-%C3%A9toile-musical/dp/B007A098AG/ref=sr_1_7/275-0842692-7684724?s=baby&ie=UTF8&qid=1423704197&sr=1-7
http://www.amazon.fr/Ludi-1052-Mousse-Basic-Fruits/dp/B00E1AOOY8/ref=sr_1_4/275-0842692-7684724?s=baby&ie=UTF8&qid=1423704197&sr=1-4
http://www.amazon.fr/Tapis-puzzle-nombres-alphabet-mousse/dp/B00H52ASA8/ref=sr_1_18/275-0842692-7684724?s=baby&ie=UTF8&qid=1423704197&sr=1-18
http://www.amazon.fr/Fisher-Price-K6070-Jumperoo-Jungle/dp/B000LXQVA4/ref=sr_1_9/275-0842692-7684724?s=baby&ie=UTF8&qid=1423704197&sr=1-9
http://www.amazon.fr/Tiny-Love-Tapis-d%C3%A9veil-Gymini/dp/B00068O1OC/ref=sr_1_23/275-0842692-7684724?s=baby&ie=UTF8&qid=1423704197&sr=1-23
http://www.amazon.fr/Fisher-Price-Tapis-de-La-Jungle/dp/B000FFL58Q/ref=sr_1_1/275-0842692-7684724?s=baby&ie=UTF8&qid=1423704197&sr=1-1
http://www.amazon.fr/Vulli-Coussin-Sophie-Girafe-Eveil/dp/B00JSZDWU8/ref=sr_1_20/275-0842692-7684724?s=baby&ie=UTF8&qid=1423704197&sr=1-20
http://www.amazon.fr/Dessin-Magique-Enfant-dApprentissage-29X19cm/dp/B00MIS8S7Y/ref=sr_1_21/275-0842692-7684724?s=baby&ie=UTF8&qid=1423704197&sr=1-21
http://www.amazon.fr/Tiny-Love-Tapis-Move-Play/dp/B0054WHTRG/ref=sr_1_16/275-0842692-7684724?s=baby&ie=UTF8&qid=1423704197&sr=1-16
http://www.amazon.fr/COUCOU-CEST-NOUS-LIVRES-JUMEAUX/dp/2753018936/ref=sr_1_22/275-0842692-7684724?s=baby&ie=UTF8&qid=1423704197&sr=1-22
http://www.amazon.fr/Ludi-1053-Mousse-Basic-Chiffres/dp/B00E1ATJ5W/ref=sr_1_19/275-0842692-7684724?s=baby&ie=UTF8&qid=1423704197&sr=1-19
http://www.amazon.fr/Buki-Tapis-Jeux-D%C3%A9veil-Touchers/dp/B000XDCQXS/ref=sr_1_15/275-0842692-7684724?s=baby&ie=UTF8&qid=1423704197&sr=1-15
http://www.amazon.fr/Ludi-2879-TAPIS-DEVEIL-Girafe/dp/B00BTWFW3I/ref=sr_1_24/275-0842692-7684724?s=baby&ie=UTF8&qid=1423704197&sr=1-24
http://www.amazon.fr/Tiny-Love-Transat-Balancelle-Rocker/dp/B008VU3A1C/ref=sr_1_14/275-0842692-7684724?s=baby&ie=UTF8&qid=1423704197&sr=1-14
http://www.amazon.fr/mousse-puzzle-enfant-Lettres-chiffres/dp/B009VJH7R0/ref=sr_1_10/275-0842692-7684724?s=baby&ie=UTF8&qid=1423704197&sr=1-10
http://www.amazon.fr/Vtech-Lumi-Tapis-Ptits-Copains/dp/B00CM2HG24/ref=sr_1_2/275-0842692-7684724?s=baby&ie=UTF8&qid=1423704197&sr=1-2
http://www.amazon.fr/Ludi-Aire-Jeu-Balles-Chouette/dp/B006RJE79S/ref=sr_1_17/275-0842692-7684724?s=baby&ie=UTF8&qid=1423704197&sr=1-17
