http://www.amazon.fr/Chicco-Poussette-Combin%C3%A9-Urban-Black/dp/B00EF079BE/ref=sr_1_29/276-7556919-9162024?s=baby&ie=UTF8&qid=1423704127&sr=1-29
http://www.amazon.fr/Poussette-combin%C3%A9-poussette-nacelle-Coloris/dp/B00F9WY3WU/ref=sr_1_62/276-7556919-9162024?s=baby&ie=UTF8&qid=1423704128&sr=1-62
http://www.amazon.fr/Bambikid-TS403B-Combin%C3%A9-Poussette-Citadine/dp/B00JL5CWFQ/ref=sr_1_36/276-7556919-9162024?s=baby&ie=UTF8&qid=1423704127&sr=1-36
http://www.amazon.fr/Concord-Poussette-Combin%C3%A9e-Travel-Set-Beige/dp/B00AHM2B7Q/ref=sr_1_49/276-7556919-9162024?s=baby&ie=UTF8&qid=1423704128&sr=1-49
http://www.amazon.fr/POUSSETTE-LANDAU-COMBI-BEEBOP-DESIGN/dp/B00PC96ZC6/ref=sr_1_74/276-7556919-9162024?s=baby&ie=UTF8&qid=1423704130&sr=1-74
http://www.amazon.fr/Baby-Sportive-pivotables-Poussette-protection/dp/B009OC2XJ6/ref=sr_1_76/276-7556919-9162024?s=baby&ie=UTF8&qid=1423704130&sr=1-76
http://www.amazon.fr/Baby-Sportive-Poussette-protection-PIVOTABLES/dp/B00A8REOP2/ref=sr_1_90/276-7556919-9162024?s=baby&ie=UTF8&qid=1423704130&sr=1-90
http://www.amazon.fr/Baby-Sportive-Poussette-protection-PIVOTABLES/dp/B0095WKPIG/ref=sr_1_63/276-7556919-9162024?s=baby&ie=UTF8&qid=1423704128&sr=1-63
http://www.amazon.fr/B%C3%A9b%C3%A9-Confort-Poussette-Confetti-Collection/dp/B005OW4W4O/ref=sr_1_83/276-7556919-9162024?s=baby&ie=UTF8&qid=1423704130&sr=1-83
http://www.amazon.fr/CHIC-BABY-Poussette-transformable-Fuchsia/dp/B002RT8WQQ/ref=sr_1_66/276-7556919-9162024?s=baby&ie=UTF8&qid=1423704128&sr=1-66
http://www.amazon.fr/Chicco-Poussette-Trio-Sprint-Ombra/dp/B00M436J6K/ref=sr_1_7/276-7556919-9162024?s=baby&ie=UTF8&qid=1423704126&sr=1-7
http://www.amazon.fr/Chicco-06079310220000-Poussette-Echo-Coal/dp/B0093YCYC6/ref=sr_1_2/276-7556919-9162024?s=baby&ie=UTF8&qid=1423704126&sr=1-2
http://www.amazon.fr/Hauck-Poussette-Combin%C3%A9-Viper-Tio/dp/B00F0LEFDC/ref=sr_1_14/276-7556919-9162024?s=baby&ie=UTF8&qid=1423704126&sr=1-14
http://www.amazon.fr/Baby-Sportive-Poussette-protection-PIVOTABLES/dp/B00980KTD6/ref=sr_1_95/276-7556919-9162024?s=baby&ie=UTF8&qid=1423704130&sr=1-95
http://www.amazon.fr/Baby-Jogger-Poussette-Combin%C3%A9e-Sarcelle/dp/B00GOCUX96/ref=sr_1_47/276-7556919-9162024?s=baby&ie=UTF8&qid=1423704127&sr=1-47
http://www.amazon.fr/Jane-Poussette-Rider-Matrix-Cream/dp/B00GBVF04S/ref=sr_1_72/276-7556919-9162024?s=baby&ie=UTF8&qid=1423704128&sr=1-72
http://www.amazon.fr/Jane-Poussette-Muum-Matrix-Granit/dp/B00GBVEV20/ref=sr_1_89/276-7556919-9162024?s=baby&ie=UTF8&qid=1423704130&sr=1-89
http://www.amazon.fr/Poussette-Combin%C3%A9e-Trio-Trendy-fonc%C3%A9/dp/B00NEIW81E/ref=sr_1_45/276-7556919-9162024?s=baby&ie=UTF8&qid=1423704127&sr=1-45
http://www.amazon.fr/B%C3%A9b%C3%A9confort-Nouvelle-Poussette-Combin%C3%A9-Collection/dp/B00EPC2LV0/ref=sr_1_58/276-7556919-9162024?s=baby&ie=UTF8&qid=1423704128&sr=1-58
http://www.amazon.fr/Poussette-combin%C3%A9e-couvre-Lorelli-daccesoire/dp/B00SZNAHAM/ref=sr_1_88/276-7556919-9162024?s=baby&ie=UTF8&qid=1423704130&sr=1-88
http://www.amazon.fr/Chicco-Poussette-Combin%C3%A9e-Trio-Love/dp/B00OBS28QQ/ref=sr_1_13/276-7556919-9162024?s=baby&ie=UTF8&qid=1423704126&sr=1-13
http://www.amazon.fr/Chilly-Kids-Matrix-Poussette-l%C3%A9opard/dp/B00AYXZTYK/ref=sr_1_48/276-7556919-9162024?s=baby&ie=UTF8&qid=1423704127&sr=1-48
http://www.amazon.fr/Baby-Sportive-pivotables-Poussette-protection/dp/B00A9Q4XUI/ref=sr_1_51/276-7556919-9162024?s=baby&ie=UTF8&qid=1423704128&sr=1-51
http://www.amazon.fr/Habillage-combin%C3%A9-poussettes-poussette-nacelle/dp/B005LDFEOI/ref=sr_1_17/276-7556919-9162024?s=baby&ie=UTF8&qid=1423704126&sr=1-17
http://www.amazon.fr/Chilly-Kids-Matrix-Poussette-Inclus/dp/B0094DGNUK/ref=sr_1_40/276-7556919-9162024?s=baby&ie=UTF8&qid=1423704127&sr=1-40
http://www.amazon.fr/Chicco-06079138210000-Poussette-Simplicity-Graphite/dp/B0093YD0KQ/ref=sr_1_57/276-7556919-9162024?s=baby&ie=UTF8&qid=1423704128&sr=1-57
http://www.amazon.fr/Baby-Sportive-pivotables-Poussette-protection/dp/B009OBUUTM/ref=sr_1_28/276-7556919-9162024?s=baby&ie=UTF8&qid=1423704127&sr=1-28
http://www.amazon.fr/Baby-Sportive-pivotables-Poussette-protection/dp/B00A9TBIJY/ref=sr_1_43/276-7556919-9162024?s=baby&ie=UTF8&qid=1423704127&sr=1-43
http://www.amazon.fr/Chicco-Poussette-Living-Smart-Charm/dp/B00EF07356/ref=sr_1_6/276-7556919-9162024?s=baby&ie=UTF8&qid=1423704126&sr=1-6
http://www.amazon.fr/TRAVEL-POUSSETTE-KOOGA-CRONOS-FISHER/dp/B00S6M3196/ref=sr_1_20/276-7556919-9162024?s=baby&ie=UTF8&qid=1423704126&sr=1-20
http://www.amazon.fr/Baby-Sportive-pivotables-Poussette-protection/dp/B00A9LHC3I/ref=sr_1_27/276-7556919-9162024?s=baby&ie=UTF8&qid=1423704127&sr=1-27
http://www.amazon.fr/TecTake-poussette-combinable-moustiquaire-habillage/dp/B00EC7D0E0/ref=sr_1_31/276-7556919-9162024?s=baby&ie=UTF8&qid=1423704127&sr=1-31
http://www.amazon.fr/Baby-Sportive-Poussette-protection-moustique/dp/B00B7PONLE/ref=sr_1_38/276-7556919-9162024?s=baby&ie=UTF8&qid=1423704127&sr=1-38
http://www.amazon.fr/Chicco-07079257300000-Poussette-Snappy-Scarlet/dp/B00EF087WO/ref=sr_1_50/276-7556919-9162024?s=baby&ie=UTF8&qid=1423704128&sr=1-50
http://www.amazon.fr/Poussette-combin%C3%A9e-Tschu-noir-beige-r%C3%A9versible/dp/B00AHBPM6O/ref=sr_1_22/276-7556919-9162024?s=baby&ie=UTF8&qid=1423704126&sr=1-22
http://www.amazon.fr/B%C3%A9b%C3%A9-Confort-Poussettes-Combin%C3%A9-Collection/dp/B009ETC27W/ref=sr_1_5/276-7556919-9162024?s=baby&ie=UTF8&qid=1423704126&sr=1-5
http://www.amazon.fr/Jane-Combin%C3%A9-Epic-Koos-Nano/dp/B00HHUUF06/ref=sr_1_42/276-7556919-9162024?s=baby&ie=UTF8&qid=1423704127&sr=1-42
http://www.amazon.fr/Looping-Poussette-Double-Enfants-Rapproch%C3%A9s/dp/B00A3957ZG/ref=sr_1_26/276-7556919-9162024?s=baby&ie=UTF8&qid=1423704127&sr=1-26
http://www.amazon.fr/Peg-P%C3%A9rego-Combin%C3%A9-Sportivo-Galaxy/dp/B00IF44WAC/ref=sr_1_44/276-7556919-9162024?s=baby&ie=UTF8&qid=1423704127&sr=1-44
http://www.amazon.fr/TRAVEL-POUSSETTE-KOOGA-SIEGE-HORIZON/dp/B00SR9W856/ref=sr_1_69/276-7556919-9162024?s=baby&ie=UTF8&qid=1423704128&sr=1-69
http://www.amazon.fr/Graco-Poussette-Mirage-Black-Zigzag/dp/B00G4NASBS/ref=sr_1_85/276-7556919-9162024?s=baby&ie=UTF8&qid=1423704130&sr=1-85
http://www.amazon.fr/Baby-Sportive-pivotables-Poussette-protection/dp/B00A9KNKMG/ref=sr_1_15/276-7556919-9162024?s=baby&ie=UTF8&qid=1423704126&sr=1-15
http://www.amazon.fr/Jane-Poussette-Muum-Matrix-Peacock/dp/B00GBVET6S/ref=sr_1_55/276-7556919-9162024?s=baby&ie=UTF8&qid=1423704128&sr=1-55
http://www.amazon.fr/b%C3%A9b%C3%A9confort-Hamac-pour-Loola-Noir/dp/B00P9D0GT8/ref=sr_1_82/276-7556919-9162024?s=baby&ie=UTF8&qid=1423704130&sr=1-82
http://www.amazon.fr/Graco-Poussette-Evo-Travel-System/dp/B009XA76BO/ref=sr_1_23/276-7556919-9162024?s=baby&ie=UTF8&qid=1423704126&sr=1-23
http://www.amazon.fr/Chicco-Poussette-Trio-Activ3-Anthracite/dp/B00EF06WEY/ref=sr_1_9/276-7556919-9162024?s=baby&ie=UTF8&qid=1423704126&sr=1-9
http://www.amazon.fr/Jane-Poussette-Muum-Koos-Stone/dp/B00GBVER10/ref=sr_1_39/276-7556919-9162024?s=baby&ie=UTF8&qid=1423704127&sr=1-39
http://www.amazon.fr/Poussette-combin%C3%A9e-Butterfly-i-Believe-options/dp/B00N4062W8/ref=sr_1_53/276-7556919-9162024?s=baby&ie=UTF8&qid=1423704128&sr=1-53
http://www.amazon.fr/3en1-Poussette-combin%C3%A9e-PASSO-Nacelle/dp/B00632YHWG/ref=sr_1_70/276-7556919-9162024?s=baby&ie=UTF8&qid=1423704128&sr=1-70
http://www.amazon.fr/b%C3%A9b%C3%A9confort-Poussette-Combin%C3%A9e-Loola-Collection/dp/B00O50YFCU/ref=sr_1_84/276-7556919-9162024?s=baby&ie=UTF8&qid=1423704130&sr=1-84
http://www.amazon.fr/Ensemble-Syst%C3%A8me-Poussette-CArrERA-3-en-1/dp/B0095K9D18/ref=sr_1_46/276-7556919-9162024?s=baby&ie=UTF8&qid=1423704127&sr=1-46
http://www.amazon.fr/Chilly-Kids-Matrix-Poussette-turquoise/dp/B0055RUB34/ref=sr_1_94/276-7556919-9162024?s=baby&ie=UTF8&qid=1423704130&sr=1-94
http://www.amazon.fr/Baby-Sportive-Poussette-protection-PIVOTABLES/dp/B009N1J062/ref=sr_1_24/276-7556919-9162024?s=baby&ie=UTF8&qid=1423704126&sr=1-24
http://www.amazon.fr/Mountain-Buggy-Poussette-Cosmopolitan-Jean/dp/B00BZO1O2S/ref=sr_1_37/276-7556919-9162024?s=baby&ie=UTF8&qid=1423704127&sr=1-37
http://www.amazon.fr/Poussette-Mirus-Joie-Blue-Bell/dp/B00JIN5NCK/ref=sr_1_65/276-7556919-9162024?s=baby&ie=UTF8&qid=1423704128&sr=1-65
http://www.amazon.fr/TecTake-poussette-combinable-moustiquaire-habillage/dp/B00KYLQT28/ref=sr_1_68/276-7556919-9162024?s=baby&ie=UTF8&qid=1423704128&sr=1-68
http://www.amazon.fr/b%C3%A9b%C3%A9confort-Poussette-Combin%C3%A9e-Streety-Collection/dp/B00O50Y854/ref=sr_1_12/276-7556919-9162024?s=baby&ie=UTF8&qid=1423704126&sr=1-12
http://www.amazon.fr/VIP-complet--Poussette-caoutchou-renforc%C3%A9-/dp/B0080GH50E/ref=sr_1_81/276-7556919-9162024?s=baby&ie=UTF8&qid=1423704130&sr=1-81
http://www.amazon.fr/Baby-Sportive-Poussette-protection-PIVOTABLES/dp/B00A8XUR1Q/ref=sr_1_67/276-7556919-9162024?s=baby&ie=UTF8&qid=1423704128&sr=1-67
http://www.amazon.fr/Hauck-Poussette-Combin%C3%A9-Shopper-Trio/dp/B009PH5X2Y/ref=sr_1_1/276-7556919-9162024?s=baby&ie=UTF8&qid=1423704126&sr=1-1
http://www.amazon.fr/B%C3%A9b%C3%A9-Confort-Poussette-Combin%C3%A9e-Collection/dp/B00EVR4WWU/ref=sr_1_59/276-7556919-9162024?s=baby&ie=UTF8&qid=1423704128&sr=1-59
http://www.amazon.fr/Mountain-Buggy-Poussette-Terrain-Anthracite/dp/B00A61DCBM/ref=sr_1_86/276-7556919-9162024?s=baby&ie=UTF8&qid=1423704130&sr=1-86
http://www.amazon.fr/Baby-Sportive-pivotables-Poussette-protection/dp/B009NWVP6O/ref=sr_1_3/276-7556919-9162024?s=baby&ie=UTF8&qid=1423704126&sr=1-3
http://www.amazon.fr/Chicco-Poussette-Trio-I-Move-Vert/dp/B005B6BSRC/ref=sr_1_33/276-7556919-9162024?s=baby&ie=UTF8&qid=1423704127&sr=1-33
http://www.amazon.fr/Mikado-Poussette-trio-Aston-Chilli/dp/B00DCYOGF6/ref=sr_1_56/276-7556919-9162024?s=baby&ie=UTF8&qid=1423704128&sr=1-56
http://www.amazon.fr/Chicco-7060887500000-Poussette-Liteway-Ombra/dp/B00EF07M2K/ref=sr_1_4/276-7556919-9162024?s=baby&ie=UTF8&qid=1423704126&sr=1-4
http://www.amazon.fr/B%C3%A9b%C3%A9-Confort-Poussette-Combin%C3%A9e-Collection/dp/B00EVR508U/ref=sr_1_19/276-7556919-9162024?s=baby&ie=UTF8&qid=1423704126&sr=1-19
http://www.amazon.fr/POUSSETTE-SUBWAY-ROUGE-NACELLE-LANDAU/dp/B00Q546QU8/ref=sr_1_34/276-7556919-9162024?s=baby&ie=UTF8&qid=1423704127&sr=1-34
http://www.amazon.fr/Chilly-Kids-Poussette-Parasol-carreaux/dp/B00NLBPQOU/ref=sr_1_91/276-7556919-9162024?s=baby&ie=UTF8&qid=1423704130&sr=1-91
http://www.amazon.fr/Baby-Sportive-pivotables-Poussette-protection/dp/B009OC4Z1A/ref=sr_1_10/276-7556919-9162024?s=baby&ie=UTF8&qid=1423704126&sr=1-10
http://www.amazon.fr/VIP-Poussette-caoutchou-renforc%C3%A9--19-Noir-Blanc/dp/B0080GF13C/ref=sr_1_35/276-7556919-9162024?s=baby&ie=UTF8&qid=1423704127&sr=1-35
http://www.amazon.fr/Baby-Jogger-Poussette-Combin%C3%A9e-Select/dp/B00GOCUOJA/ref=sr_1_60/276-7556919-9162024?s=baby&ie=UTF8&qid=1423704128&sr=1-60
http://www.amazon.fr/Poussette-Combin%C3%A9e-Trio-HiTreec-Rouge/dp/B00NEIWA7G/ref=sr_1_73/276-7556919-9162024?s=baby&ie=UTF8&qid=1423704130&sr=1-73
http://www.amazon.fr/Looping-Poussette-Jumelle-Compacte-Appollo/dp/B00GYTAX08/ref=sr_1_41/276-7556919-9162024?s=baby&ie=UTF8&qid=1423704127&sr=1-41
http://www.amazon.fr/Bambisol-TSP329-Poussette-Combin%C3%A9eCombine-IllicoPluton/dp/B00FLQ7DNA/ref=sr_1_21/276-7556919-9162024?s=baby&ie=UTF8&qid=1423704126&sr=1-21
http://www.amazon.fr/Phil-Teds-Second-Si%C3%A8ge-Classic/dp/B002X8CH4Y/ref=sr_1_92/276-7556919-9162024?s=baby&ie=UTF8&qid=1423704130&sr=1-92
http://www.amazon.fr/ByBUM-Protection-Universelle-Maxi-Cosi-Poussettes/dp/B00BVYXVUK/ref=sr_1_71/276-7556919-9162024?s=baby&ie=UTF8&qid=1423704128&sr=1-71
http://www.amazon.fr/Chicco-Pu%C3%A9riculture-Seconde-Poussette-Garnet/dp/B004ER4PQU/ref=sr_1_11/276-7556919-9162024?s=baby&ie=UTF8&qid=1423704126&sr=1-11
http://www.amazon.fr/Looping-Squiz-Trio-Poussette-Roues/dp/B00GYZT0GU/ref=sr_1_64/276-7556919-9162024?s=baby&ie=UTF8&qid=1423704128&sr=1-64
http://www.amazon.fr/Jane-Poussette-Rider-Strata-Transporteur/dp/B00GBVF09I/ref=sr_1_75/276-7556919-9162024?s=baby&ie=UTF8&qid=1423704130&sr=1-75
http://www.amazon.fr/Baby-Sportive-pivotables-Poussette-protection/dp/B00A9T30O0/ref=sr_1_25/276-7556919-9162024?s=baby&ie=UTF8&qid=1423704127&sr=1-25
http://www.amazon.fr/Graco-Poussette-Citisport-Lite-Pebble/dp/B00G4NB3LC/ref=sr_1_78/276-7556919-9162024?s=baby&ie=UTF8&qid=1423704130&sr=1-78
http://www.amazon.fr/Looping-Poussette-Combin%C3%A9e-Nacelle-Emotion/dp/B009W0YUIC/ref=sr_1_80/276-7556919-9162024?s=baby&ie=UTF8&qid=1423704130&sr=1-80
http://www.amazon.fr/TecTake-poussette-voiture-denfants-combinable/dp/B00IN103XW/ref=sr_1_18/276-7556919-9162024?s=baby&ie=UTF8&qid=1423704126&sr=1-18
http://www.amazon.fr/Hauck-142806-Poussette-combin%C3%A9e-nacelle/dp/B00NB17L66/ref=sr_1_77/276-7556919-9162024?s=baby&ie=UTF8&qid=1423704130&sr=1-77
http://www.amazon.fr/Combin%C3%A9-poussette-hamac-convertible-Groupe/dp/B00KH6XDZG/ref=sr_1_87/276-7556919-9162024?s=baby&ie=UTF8&qid=1423704130&sr=1-87
http://www.amazon.fr/Baby-Sportive-pivotables-Poussette-protection/dp/B009NX8QLK/ref=sr_1_30/276-7556919-9162024?s=baby&ie=UTF8&qid=1423704127&sr=1-30
http://www.amazon.fr/B%C3%A9b%C3%A9confort-Poussette-Combin%C3%A9e-Access-Collection/dp/B00O50Y5I4/ref=sr_1_8/276-7556919-9162024?s=baby&ie=UTF8&qid=1423704126&sr=1-8
http://www.amazon.fr/Coral-voyage-complet-Poussette--Noir-Blanc/dp/B008FDAP90/ref=sr_1_32/276-7556919-9162024?s=baby&ie=UTF8&qid=1423704127&sr=1-32
http://www.amazon.fr/Baby-Sportive-Poussette-protection-PIVOTABLES/dp/B009N1JL34/ref=sr_1_52/276-7556919-9162024?s=baby&ie=UTF8&qid=1423704128&sr=1-52
http://www.amazon.fr/B%C3%A9b%C3%A9-Confort-Poussette-Combin%C3%A9e-Collection/dp/B00FQCSZMW/ref=sr_1_61/276-7556919-9162024?s=baby&ie=UTF8&qid=1423704128&sr=1-61
http://www.amazon.fr/Poussette-combin%C3%A9-poussette-nacelle-landau/dp/B00EQ5PGM2/ref=sr_1_93/276-7556919-9162024?s=baby&ie=UTF8&qid=1423704130&sr=1-93
http://www.amazon.fr/Poussette-Combin%C3%A9e-Trio-Noire-Rouge/dp/B00OBXCBB8/ref=sr_1_54/276-7556919-9162024?s=baby&ie=UTF8&qid=1423704128&sr=1-54
http://www.amazon.fr/Hauck-151389-Poussette-Combin%C3%A9-Shopper/dp/B009PH5X88/ref=sr_1_16/276-7556919-9162024?s=baby&ie=UTF8&qid=1423704126&sr=1-16
http://www.amazon.fr/Chicco-06079083950930-poussette-Aujourdhui-complet/dp/B0098KPTSG/ref=sr_1_79/276-7556919-9162024?s=baby&ie=UTF8&qid=1423704130&sr=1-79
http://www.amazon.fr/Camarelo-Q-Sport-chrom-Poussette-combi/dp/B00HR2C43K/ref=sr_1_96/276-7556919-9162024?s=baby&ie=UTF8&qid=1423704130&sr=1-96
