http://www.amazon.fr/S%C3%A9curit%C3%A9-Serrures-Adh%C3%A9sives-Frigidaire-dAisances/dp/B00G8X0X32/ref=sr_1_1/277-6478510-9633626?s=baby&ie=UTF8&qid=1423704193&sr=1-1
http://www.amazon.fr/Baby-Dan-Protection-Cuisini%C3%A8re-Argent/dp/B001CLWL4E/ref=sr_1_33/277-6478510-9633626?s=baby&ie=UTF8&qid=1423704194&sr=1-33
http://www.amazon.fr/Olympia-Dispositif-Bloquage-S%C3%A9curit%C3%A9-Protection/dp/B001CKZFNY/ref=sr_1_41/277-6478510-9633626?s=baby&ie=UTF8&qid=1423704194&sr=1-41
http://www.amazon.fr/coince-doigts-pince-doigts-s%C3%A9curit%C3%A9-enfant/dp/B008OFHHV8/ref=sr_1_23/277-6478510-9633626?s=baby&ie=UTF8&qid=1423704193&sr=1-23
http://www.amazon.fr/Helly-Lot-Bloques-Tiroirs-Protection/dp/B001CL0U4C/ref=sr_1_28/277-6478510-9633626?s=baby&ie=UTF8&qid=1423704194&sr=1-28
http://www.amazon.fr/Lindam-Cache-prise-Guard-Socket-Covers/dp/B006MEKIFA/ref=sr_1_29/277-6478510-9633626?s=baby&ie=UTF8&qid=1423704194&sr=1-29
http://www.amazon.fr/Safety-1st-Bloque-Placard-Magnetique/dp/B005OW5Q9O/ref=sr_1_34/277-6478510-9633626?s=baby&ie=UTF8&qid=1423704194&sr=1-34
http://www.amazon.fr/Chicco-Accessoires-Casque-Protection-20/dp/B001C6HMPC/ref=sr_1_14/277-6478510-9633626?s=baby&ie=UTF8&qid=1423704193&sr=1-14
http://www.amazon.fr/Olympia-Protections-Coins-Angles-Transparent/dp/B001CL0U1U/ref=sr_1_9/277-6478510-9633626?s=baby&ie=UTF8&qid=1423704193&sr=1-9
http://www.amazon.fr/Chicco-S%C3%A9curit%C3%A9-Maison-Coins-Table/dp/B001C6HMOI/ref=sr_1_32/277-6478510-9633626?s=baby&ie=UTF8&qid=1423704194&sr=1-32
http://www.amazon.fr/Safety-1st-Bloque-Multifonctions-Blanc/dp/B0012PKYVC/ref=sr_1_3/277-6478510-9633626?s=baby&ie=UTF8&qid=1423704193&sr=1-3
http://www.amazon.fr/Babysun-Nursery-S%C3%A9curit%C3%A9-Domestique-Protection/dp/B002J9R9CW/ref=sr_1_11/277-6478510-9633626?s=baby&ie=UTF8&qid=1423704193&sr=1-11
http://www.amazon.fr/Xcellent-Global--Xcellent-Collision-protection/dp/B00KR8LZ5O/ref=sr_1_35/277-6478510-9633626?s=baby&ie=UTF8&qid=1423704194&sr=1-35
http://www.amazon.fr/Jamm-Door-Stop-Dark-Grey/dp/B0083S4GO2/ref=sr_1_30/277-6478510-9633626?s=baby&ie=UTF8&qid=1423704194&sr=1-30
http://www.amazon.fr/Safety-1st-Cache-Prises-Avec/dp/B0019LT8SY/ref=sr_1_5/277-6478510-9633626?s=baby&ie=UTF8&qid=1423704193&sr=1-5
http://www.amazon.fr/Tigex-Bloque-Porte-Multi-Usage/dp/B000NJLZ6G/ref=sr_1_22/277-6478510-9633626?s=baby&ie=UTF8&qid=1423704193&sr=1-22
http://www.amazon.fr/ISI-SAFE-Bloque-fen%C3%AAtre-emp%C3%AAcher-enfants/dp/B007ABL0L0/ref=sr_1_45/277-6478510-9633626?s=baby&ie=UTF8&qid=1423704194&sr=1-45
http://www.amazon.fr/Baby-Dan-Bloque-Placard-Battant/dp/B000NUT5PS/ref=sr_1_13/277-6478510-9633626?s=baby&ie=UTF8&qid=1423704193&sr=1-13
http://www.amazon.fr/Prince-Lionheart-Rouleau-Mousse-Antichoc/dp/B002SG7JSK/ref=sr_1_16/277-6478510-9633626?s=baby&ie=UTF8&qid=1423704193&sr=1-16
http://www.amazon.fr/Babysun-Nursery-Cache-prises-Cl%C3%A9s/dp/B0015IRJKU/ref=sr_1_7/277-6478510-9633626?s=baby&ie=UTF8&qid=1423704193&sr=1-7
http://www.amazon.fr/Lindam-verrou-multifonctions-double-fermetures/dp/B006MEKIFK/ref=sr_1_17/277-6478510-9633626?s=baby&ie=UTF8&qid=1423704193&sr=1-17
http://www.amazon.fr/Cheri-Lot-Amortisseur-Pincement-S%C3%A9curit%C3%A9-Protection/dp/B00FGL7G3M/ref=sr_1_2/277-6478510-9633626?s=baby&ie=UTF8&qid=1423704193&sr=1-2
http://www.amazon.fr/Tigex-300-10-Cache-Prises/dp/B002F4ANGA/ref=sr_1_6/277-6478510-9633626?s=baby&ie=UTF8&qid=1423704193&sr=1-6
http://www.amazon.fr/Jalo-7100-D%C3%A9tecteur-Fum%C3%A9e-Gris/dp/B00CEYEGV4/ref=sr_1_21/277-6478510-9633626?s=baby&ie=UTF8&qid=1423704193&sr=1-21
http://www.amazon.fr/Tigex-Prot%C3%A8ge-Coins-Protection-Universel/dp/B000NJWP74/ref=sr_1_24/277-6478510-9633626?s=baby&ie=UTF8&qid=1423704193&sr=1-24
http://www.amazon.fr/Olympia-Protections-Coins-Angles-Transparent/dp/B001CL2RN4/ref=sr_1_37/277-6478510-9633626?s=baby&ie=UTF8&qid=1423704194&sr=1-37
http://www.amazon.fr/Prince-Lionheart-Rouleau-Mousse-Bretagne/dp/B000056J1W/ref=sr_1_25/277-6478510-9633626?s=baby&ie=UTF8&qid=1423704194&sr=1-25
http://www.amazon.fr/Babysun-Loquet-Souple-Multi-Surface/dp/B0012DDEBG/ref=sr_1_20/277-6478510-9633626?s=baby&ie=UTF8&qid=1423704193&sr=1-20
http://www.amazon.fr/AKORD%C2%AE-Protections-Coin-Meubles-pour/dp/B007C227YQ/ref=sr_1_4/277-6478510-9633626?s=baby&ie=UTF8&qid=1423704193&sr=1-4
http://www.amazon.fr/HUGBABY-Prot%C3%A8ges-Antichocs-Protection-S%C3%A9curit%C3%A9/dp/B00G6E13GO/ref=sr_1_8/277-6478510-9633626?s=baby&ie=UTF8&qid=1423704193&sr=1-8
http://www.amazon.fr/Safety-1st-Amortisseurs-De-Porte/dp/B0012PJE5E/ref=sr_1_18/277-6478510-9633626?s=baby&ie=UTF8&qid=1423704193&sr=1-18
http://www.amazon.fr/HUGBABY-S%C3%A9curit%C3%A9-Serrures-Adh%C3%A9sives-Placards/dp/B00DGIR9CA/ref=sr_1_26/277-6478510-9633626?s=baby&ie=UTF8&qid=1423704194&sr=1-26
http://www.amazon.fr/Prince-Lionheart-Coins-Mousse-Antichoc/dp/B003TPXI3O/ref=sr_1_12/277-6478510-9633626?s=baby&ie=UTF8&qid=1423704193&sr=1-12
http://www.amazon.fr/Emmay-Care-Protections-Tables-Etag%C3%A8res/dp/B002EIZP24/ref=sr_1_46/277-6478510-9633626?s=baby&ie=UTF8&qid=1423704194&sr=1-46
http://www.amazon.fr/Clippasafe-Laisse-Poignet--Marine-Blanc/dp/B000FVXH6I/ref=sr_1_36/277-6478510-9633626?s=baby&ie=UTF8&qid=1423704194&sr=1-36
http://www.amazon.fr/Lindam-Loquet-Guard-Locking-Angle/dp/B006MEKJH2/ref=sr_1_47/277-6478510-9633626?s=baby&ie=UTF8&qid=1423704194&sr=1-47
http://www.amazon.fr/Helly-Lot-Bloques-Stop-Portes/dp/B001CKZFMA/ref=sr_1_44/277-6478510-9633626?s=baby&ie=UTF8&qid=1423704194&sr=1-44
http://www.amazon.fr/S%C3%A9curit%C3%A9-Serrures-Adh%C3%A9sives-Frigidaire-Placards/dp/B00G449V6U/ref=sr_1_31/277-6478510-9633626?s=baby&ie=UTF8&qid=1423704194&sr=1-31
http://www.amazon.fr/AKORD%C2%AE-Protections-Coin-Meubles-pour/dp/B007C249RE/ref=sr_1_39/277-6478510-9633626?s=baby&ie=UTF8&qid=1423704194&sr=1-39
http://www.amazon.fr/Badabulle-S%C3%A9curit%C3%A9-Domestique-Thermom%C3%A8tre-Hygrom%C3%A8tre/dp/B006J48PYY/ref=sr_1_40/277-6478510-9633626?s=baby&ie=UTF8&qid=1423704194&sr=1-40
http://www.amazon.fr/MIU-COLOR-Antichoc-S%C3%A9curit%C3%A9-Protection/dp/B00IG2B3UU/ref=sr_1_38/277-6478510-9633626?s=baby&ie=UTF8&qid=1423704194&sr=1-38
http://www.amazon.fr/Home-Connection-Lot-bloque-portes-mousse/dp/B004UL8KCA/ref=sr_1_48/277-6478510-9633626?s=baby&ie=UTF8&qid=1423704194&sr=1-48
http://www.amazon.fr/Nursery-Barri%C3%A8re-Porte-Fermeture-Automatique/dp/B0012DFIC4/ref=sr_1_19/277-6478510-9633626?s=baby&ie=UTF8&qid=1423704193&sr=1-19
http://www.amazon.fr/Prince-Lionheart-Coins-Mousse-Antichoc/dp/B002SG7JSU/ref=sr_1_10/277-6478510-9633626?s=baby&ie=UTF8&qid=1423704193&sr=1-10
http://www.amazon.fr/Safety-1st-Bloque-Placard-Glissiere/dp/B002FADWHQ/ref=sr_1_15/277-6478510-9633626?s=baby&ie=UTF8&qid=1423704193&sr=1-15
http://www.amazon.fr/AKORD%C2%AE-Protections-Coin-Meubles-pour/dp/B007C21BUW/ref=sr_1_27/277-6478510-9633626?s=baby&ie=UTF8&qid=1423704194&sr=1-27
http://www.amazon.fr/Beaba-Bloque-Porte-Collection-Design/dp/B004KSRDGC/ref=sr_1_42/277-6478510-9633626?s=baby&ie=UTF8&qid=1423704194&sr=1-42
http://www.amazon.fr/Beaba-Bloque-Placard-Collection-al%C3%A9atoire/dp/B004QM8CNK/ref=sr_1_43/277-6478510-9633626?s=baby&ie=UTF8&qid=1423704194&sr=1-43
