http://www.amazon.fr/Cadwell-Besace-Messenger-Mi-toile-Mi-cuir/dp/B00IMI1TXO/ref=sr_1_13/278-9553049-7630632?s=baby&ie=UTF8&qid=1423704132&sr=1-13
http://www.amazon.fr/B%C3%A9aba-940186-Beaba-Sac-Boston/dp/B00H3IT29C/ref=sr_1_20/278-9553049-7630632?s=baby&ie=UTF8&qid=1423704132&sr=1-20
http://www.amazon.fr/Babycalin-BBC602203-Sac-%C3%A0-Langer/dp/B007Z0AQXO/ref=sr_1_14/278-9553049-7630632?s=baby&ie=UTF8&qid=1423704132&sr=1-14
http://www.amazon.fr/Badabulle-Langer-Cama%C3%AFeu-Gris-Noir/dp/B006J48VLG/ref=sr_1_4/278-9553049-7630632?s=baby&ie=UTF8&qid=1423704132&sr=1-4
http://www.amazon.fr/BABY-WALZ-Sac-langer-sac-bleu/dp/B00I8NUTLG/ref=sr_1_23/278-9553049-7630632?s=baby&ie=UTF8&qid=1423704132&sr=1-23
http://www.amazon.fr/Beaba-Sac-Langer-Gen%C3%A8ve-Taupe/dp/B00G07M3O8/ref=sr_1_16/278-9553049-7630632?s=baby&ie=UTF8&qid=1423704132&sr=1-16
http://www.amazon.fr/Beaba-Sac-%C3%A0-Langer-Angel/dp/B003MVFLQC/ref=sr_1_12/278-9553049-7630632?s=baby&ie=UTF8&qid=1423704132&sr=1-12
http://www.amazon.fr/Babymoov-Langer-Free-Taupe-Amande/dp/B00B188XCM/ref=sr_1_11/278-9553049-7630632?s=baby&ie=UTF8&qid=1423704132&sr=1-11
http://www.amazon.fr/Confort-exterieur-interieur-Interieur-Exterieur/dp/B005PUJFBK/ref=sr_1_19/278-9553049-7630632?s=baby&ie=UTF8&qid=1423704132&sr=1-19
http://www.amazon.fr/Babymoov-Langer-Baby-Style-Chic/dp/B005M0ITOM/ref=sr_1_2/278-9553049-7630632?s=baby&ie=UTF8&qid=1423704132&sr=1-2
http://www.amazon.fr/Sacs-Langer-Couches-Multifonctionnel-Maman/dp/B00GD4K8JA/ref=sr_1_6/278-9553049-7630632?s=baby&ie=UTF8&qid=1423704132&sr=1-6
http://www.amazon.fr/Babymoov-Langer-Free-Taupe-Hibiscus/dp/B00B188V9C/ref=sr_1_10/278-9553049-7630632?s=baby&ie=UTF8&qid=1423704132&sr=1-10
http://www.amazon.fr/Ludi-2829-Sac-A-Dodo/dp/B00BTWFW38/ref=sr_1_22/278-9553049-7630632?s=baby&ie=UTF8&qid=1423704132&sr=1-22
http://www.amazon.fr/dBb-Remond-Sac-Chic-Style/dp/B007OKDDUI/ref=sr_1_9/278-9553049-7630632?s=baby&ie=UTF8&qid=1423704132&sr=1-9
http://www.amazon.fr/Badabulle-Sac-%C3%A0-Langer-Citations/dp/B00AWJ70E8/ref=sr_1_15/278-9553049-7630632?s=baby&ie=UTF8&qid=1423704132&sr=1-15
http://www.amazon.fr/Badabulle-Sac-%C3%A0-Langer-Ellipses/dp/B00AWJ70KW/ref=sr_1_24/278-9553049-7630632?s=baby&ie=UTF8&qid=1423704132&sr=1-24
http://www.amazon.fr/Beaba-Sac-Sydney-Marron-Vert/dp/B004RAXVM8/ref=sr_1_21/278-9553049-7630632?s=baby&ie=UTF8&qid=1423704132&sr=1-21
http://www.amazon.fr/Babymoov-Langer-Free-Hand-Noir/dp/B00B188XCC/ref=sr_1_18/278-9553049-7630632?s=baby&ie=UTF8&qid=1423704132&sr=1-18
http://www.amazon.fr/Babymoov-Langer-Sport-Style-Amande/dp/B009M4PHS0/ref=sr_1_7/278-9553049-7630632?s=baby&ie=UTF8&qid=1423704132&sr=1-7
http://www.amazon.fr/Babymoov-Langer-Sport-Style-Hibiscus/dp/B009M4PHR6/ref=sr_1_5/278-9553049-7630632?s=baby&ie=UTF8&qid=1423704132&sr=1-5
http://www.amazon.fr/Ukamshop-Womens-%C3%A9paule-bandouli%C3%A8re-Satchel/dp/B00PL2TIL4/ref=sr_1_17/278-9553049-7630632?s=baby&ie=UTF8&qid=1423704132&sr=1-17
http://www.amazon.fr/Sacs-Langer-Couches-Multifonctionnel-Maman/dp/B006PAOV4A/ref=sr_1_8/278-9553049-7630632?s=baby&ie=UTF8&qid=1423704132&sr=1-8
http://www.amazon.fr/Badabulle-Sac-%C3%A0-Langer-Fleurs/dp/B00AWJ70W0/ref=sr_1_3/278-9553049-7630632?s=baby&ie=UTF8&qid=1423704132&sr=1-3
http://www.amazon.fr/SODIAL-exterieur-interieur-Interieur-Exterieur/dp/B00L124RWS/ref=sr_1_1/278-9553049-7630632?s=baby&ie=UTF8&qid=1423704132&sr=1-1
