http://www.amazon.fr/Recaro-Si%C3%A8ge-Auto-Groupe-Young/dp/B009SS6180/ref=sr_1_2/276-1967295-2916600?s=baby&ie=UTF8&qid=1423704142&sr=1-2
http://www.amazon.fr/Nania-Rehausseur-Dossier-Harnais-Groupe/dp/B00KV0XPLU/ref=sr_1_39/276-1967295-2916600?s=baby&ie=UTF8&qid=1423704143&sr=1-39
http://www.amazon.fr/Si%C3%A8ge-SATURN-I-Fix-Groupe-qualit%C3%A9/dp/B00EGDTBLG/ref=sr_1_5/276-1967295-2916600?s=baby&ie=UTF8&qid=1423704142&sr=1-5
http://www.amazon.fr/Cybex-Si%C3%A8ge-Auto-Pallas-FIX/dp/B005XASDY2/ref=sr_1_28/276-1967295-2916600?s=baby&ie=UTF8&qid=1423704143&sr=1-28
http://www.amazon.fr/Si%C3%A8ge-Auto-Cam-Travel-Evolution/dp/B00AGI2T78/ref=sr_1_42/276-1967295-2916600?s=baby&ie=UTF8&qid=1423704143&sr=1-42
http://www.amazon.fr/Kiwy-Si%C3%A8ge-Auto-pour-Enfants/dp/B0059IBZJI/ref=sr_1_65/276-1967295-2916600?s=baby&ie=UTF8&qid=1423704144&sr=1-65
http://www.amazon.fr/Nania-Si%C3%A8ge-Auto-Groupe-I-Max/dp/B00B4A5VZO/ref=sr_1_68/276-1967295-2916600?s=baby&ie=UTF8&qid=1423704144&sr=1-68
http://www.amazon.fr/Britax-Si%C3%A8ge-Auto-Groupe-Evolva/dp/B009O1P6TQ/ref=sr_1_44/276-1967295-2916600?s=baby&ie=UTF8&qid=1423704143&sr=1-44
http://www.amazon.fr/Disney-Rehausseur-Dossier-Harnais-Minnie/dp/B00K9VGWFC/ref=sr_1_58/276-1967295-2916600?s=baby&ie=UTF8&qid=1423704144&sr=1-58
http://www.amazon.fr/Cybex-Si%C3%A8ge-Auto-Pallas-Cobblestone/dp/B00M2O9YO0/ref=sr_1_9/276-1967295-2916600?s=baby&ie=UTF8&qid=1423704142&sr=1-9
http://www.amazon.fr/KIDDY-SIEGE-AUTO-GUARDIAN-NOIR/dp/B0031109L0/ref=sr_1_19/276-1967295-2916600?s=baby&ie=UTF8&qid=1423704142&sr=1-19
http://www.amazon.fr/KIDDY-Si%C3%A8ge-auto-guardianfix-groupe/dp/B00FG1IBAY/ref=sr_1_45/276-1967295-2916600?s=baby&ie=UTF8&qid=1423704143&sr=1-45
http://www.amazon.fr/KIDDY-Siege-guardianfix-phantom-groupe/dp/B009E2L892/ref=sr_1_51/276-1967295-2916600?s=baby&ie=UTF8&qid=1423704144&sr=1-51
http://www.amazon.fr/Disney-Rehausseur-Dossier-Harnais-Groupe/dp/B00G8WBEHM/ref=sr_1_13/276-1967295-2916600?s=baby&ie=UTF8&qid=1423704142&sr=1-13
http://www.amazon.fr/Cybex-Si%C3%A8ge-Auto-Pallas-Lapin/dp/B00M2O9PTY/ref=sr_1_21/276-1967295-2916600?s=baby&ie=UTF8&qid=1423704142&sr=1-21
http://www.amazon.fr/KIDDY-Siege-auto-guardianfix-groupe/dp/B009E3HMQ4/ref=sr_1_48/276-1967295-2916600?s=baby&ie=UTF8&qid=1423704143&sr=1-48
http://www.amazon.fr/Cosatto-Zoomi-enfant-dossier-Groupe/dp/B00LFQILTA/ref=sr_1_60/276-1967295-2916600?s=baby&ie=UTF8&qid=1423704144&sr=1-60
http://www.amazon.fr/Bambisol-CS515L-Si%C3%A8ge-AutoGroupe-3G123Lune/dp/B00IJEFX0G/ref=sr_1_63/276-1967295-2916600?s=baby&ie=UTF8&qid=1423704144&sr=1-63
http://www.amazon.fr/B%C3%A9b%C3%A9-Confort-Groupe-TRIANOS-Collection/dp/B003XMWJSI/ref=sr_1_15/276-1967295-2916600?s=baby&ie=UTF8&qid=1423704142&sr=1-15
http://www.amazon.fr/TecTake-Si%C3%A8ge-auto-Groupe-enfants/dp/B0077QYFEM/ref=sr_1_17/276-1967295-2916600?s=baby&ie=UTF8&qid=1423704142&sr=1-17
http://www.amazon.fr/CBX-Cybex-512106027-Groupe-anthracite/dp/B0060601A2/ref=sr_1_53/276-1967295-2916600?s=baby&ie=UTF8&qid=1423704144&sr=1-53
http://www.amazon.fr/Nania-Si%C3%A8ge-Auto-Groupe-I-Max/dp/B00B4A5X2U/ref=sr_1_52/276-1967295-2916600?s=baby&ie=UTF8&qid=1423704144&sr=1-52
http://www.amazon.fr/Jane-Si%C3%A8ge-Monte-Carlo-Groupe/dp/B00HHUV5N2/ref=sr_1_71/276-1967295-2916600?s=baby&ie=UTF8&qid=1423704144&sr=1-71
http://www.amazon.fr/KIDDY-Siege-auto-guardian-groupe/dp/B0050GWFTI/ref=sr_1_26/276-1967295-2916600?s=baby&ie=UTF8&qid=1423704143&sr=1-26
http://www.amazon.fr/Britax-Si%C3%A8ge-Auto-Groupe-Evolva/dp/B009O1P4B6/ref=sr_1_3/276-1967295-2916600?s=baby&ie=UTF8&qid=1423704142&sr=1-3
http://www.amazon.fr/Safety-1st-Si%C3%A8ge-Eversafe-Collection/dp/B00O511TEQ/ref=sr_1_37/276-1967295-2916600?s=baby&ie=UTF8&qid=1423704143&sr=1-37
http://www.amazon.fr/Kiddy-groupe-Guardian-bouclier-Sunshine/dp/B00FJKG2W6/ref=sr_1_36/276-1967295-2916600?s=baby&ie=UTF8&qid=1423704143&sr=1-36
http://www.amazon.fr/Vidaxl-80067-Si%C3%A8ge-Enfants-Groupe/dp/B00JHBN64K/ref=sr_1_70/276-1967295-2916600?s=baby&ie=UTF8&qid=1423704144&sr=1-70
http://www.amazon.fr/KIDDY-Siege-guardian-racing-groupe/dp/B009E2DT4O/ref=sr_1_55/276-1967295-2916600?s=baby&ie=UTF8&qid=1423704144&sr=1-55
http://www.amazon.fr/Kiwy-Si%C3%A8ge-Auto-pour-Enfants/dp/B0059K50YC/ref=sr_1_29/276-1967295-2916600?s=baby&ie=UTF8&qid=1423704143&sr=1-29
http://www.amazon.fr/Inspired-Products-Si%C3%A8ge-Tortue-Ninja/dp/B00JYJ4I0G/ref=sr_1_33/276-1967295-2916600?s=baby&ie=UTF8&qid=1423704143&sr=1-33
http://www.amazon.fr/Si%C3%A8ge-auto-enfants-Groupe-9-36kg/dp/B00BLYMN54/ref=sr_1_69/276-1967295-2916600?s=baby&ie=UTF8&qid=1423704144&sr=1-69
http://www.amazon.fr/Recaro-6202-21209-66-Si%C3%A8ge-Groupe-Shadow/dp/B009SS62SE/ref=sr_1_8/276-1967295-2916600?s=baby&ie=UTF8&qid=1423704142&sr=1-8
http://www.amazon.fr/Kiwy-Si%C3%A8ge-Auto-pour-Enfants/dp/B0059K3VZ2/ref=sr_1_49/276-1967295-2916600?s=baby&ie=UTF8&qid=1423704144&sr=1-49
http://www.amazon.fr/SIEGE-ENFANT-GROUPE-COLORIS-208/dp/B00EV14ETC/ref=sr_1_46/276-1967295-2916600?s=baby&ie=UTF8&qid=1423704143&sr=1-46
http://www.amazon.fr/Cybex-Si%C3%A8ge-Pallas-Pluie-Pourpre/dp/B00M2O9Q48/ref=sr_1_22/276-1967295-2916600?s=baby&ie=UTF8&qid=1423704142&sr=1-22
http://www.amazon.fr/Si%C3%A8ge-enfants-9-36kg-rouge-groupe/dp/B00BLYI2PO/ref=sr_1_12/276-1967295-2916600?s=baby&ie=UTF8&qid=1423704142&sr=1-12
http://www.amazon.fr/Si%C3%A8ge-%C3%A9volutif-Groupe-enfants-Coloris/dp/B00COLI1W2/ref=sr_1_59/276-1967295-2916600?s=baby&ie=UTF8&qid=1423704144&sr=1-59
http://www.amazon.fr/Bambisol-Si%C3%A8ge-AutoGroupe-3G124Noir-Anis/dp/B00IJEFX10/ref=sr_1_50/276-1967295-2916600?s=baby&ie=UTF8&qid=1423704144&sr=1-50
http://www.amazon.fr/Concord-Si%C3%A8ge-Auto-Groupe-Transformer/dp/B00G37WCHS/ref=sr_1_40/276-1967295-2916600?s=baby&ie=UTF8&qid=1423704143&sr=1-40
http://www.amazon.fr/Cybex-Si%C3%A8ge-Auto-Pallas-Spicy/dp/B00O48M5SY/ref=sr_1_64/276-1967295-2916600?s=baby&ie=UTF8&qid=1423704144&sr=1-64
http://www.amazon.fr/Safety-1st-Groupe-Trisafe-Collection/dp/B00EWB284Y/ref=sr_1_66/276-1967295-2916600?s=baby&ie=UTF8&qid=1423704144&sr=1-66
http://www.amazon.fr/TecTake-Si%C3%A8ge-auto-Groupe-enfants/dp/B002WTF2PA/ref=sr_1_23/276-1967295-2916600?s=baby&ie=UTF8&qid=1423704142&sr=1-23
http://www.amazon.fr/Nania-Rehausseur-Dossier-Harnais-ISOFIX/dp/B00KF8YTFE/ref=sr_1_24/276-1967295-2916600?s=baby&ie=UTF8&qid=1423704142&sr=1-24
http://www.amazon.fr/Concord-Si%C3%A8ge-Auto-Groupe-Transformer/dp/B00G37WVQA/ref=sr_1_57/276-1967295-2916600?s=baby&ie=UTF8&qid=1423704144&sr=1-57
http://www.amazon.fr/Si%C3%A8ge-Auto-SATURN-Groupe-9-36/dp/B007PG2MIU/ref=sr_1_4/276-1967295-2916600?s=baby&ie=UTF8&qid=1423704142&sr=1-4
http://www.amazon.fr/Nania-Rehausseur-Dossier-Harnais-Groupe/dp/B00PH6AAZW/ref=sr_1_7/276-1967295-2916600?s=baby&ie=UTF8&qid=1423704142&sr=1-7
http://www.amazon.fr/Concord-Si%C3%A8ge-Auto-Groupe-Transformer/dp/B00G37YJ7E/ref=sr_1_56/276-1967295-2916600?s=baby&ie=UTF8&qid=1423704144&sr=1-56
http://www.amazon.fr/Graco-Si%C3%A8ge-Nautilus-Couleur-Monaco/dp/B006Q61894/ref=sr_1_67/276-1967295-2916600?s=baby&ie=UTF8&qid=1423704144&sr=1-67
http://www.amazon.fr/Cybex-512107027-Isis-Fix-groupe-anthracite/dp/B006060076/ref=sr_1_31/276-1967295-2916600?s=baby&ie=UTF8&qid=1423704143&sr=1-31
http://www.amazon.fr/KIDDY-Siege-guardianfix-rumba-groupe/dp/B009E3FPVI/ref=sr_1_61/276-1967295-2916600?s=baby&ie=UTF8&qid=1423704144&sr=1-61
http://www.amazon.fr/Cybex-Pallas-Si%C3%A8ge-auto-Groupe/dp/B005PU3E12/ref=sr_1_10/276-1967295-2916600?s=baby&ie=UTF8&qid=1423704142&sr=1-10
http://www.amazon.fr/si%C3%A8ge-auto-enfant-Groupe-coloris-sp%C3%A9ciale/dp/B007UXPMSU/ref=sr_1_25/276-1967295-2916600?s=baby&ie=UTF8&qid=1423704143&sr=1-25
http://www.amazon.fr/Disney-Rehausseur-Dossier-Harnais-Groupe/dp/B00KF8YZ7Q/ref=sr_1_41/276-1967295-2916600?s=baby&ie=UTF8&qid=1423704143&sr=1-41
http://www.amazon.fr/Cybex-Siege-auto-Pallas-Fix/dp/B00FAO6KAA/ref=sr_1_32/276-1967295-2916600?s=baby&ie=UTF8&qid=1423704143&sr=1-32
http://www.amazon.fr/Nania-Rehausseur-Dossier-Harnais-Groupe/dp/B00PH6AAXO/ref=sr_1_27/276-1967295-2916600?s=baby&ie=UTF8&qid=1423704143&sr=1-27
http://www.amazon.fr/Si%C3%A8ge-auto-enfant-appui-t%C3%AAte-rembourr%C3%A9/dp/B0087ZGAX6/ref=sr_1_11/276-1967295-2916600?s=baby&ie=UTF8&qid=1423704142&sr=1-11
http://www.amazon.fr/Boulgom-Si%C3%A8ge-Auto-Groupe-3Kidconfort/dp/B00CYADIF8/ref=sr_1_54/276-1967295-2916600?s=baby&ie=UTF8&qid=1423704144&sr=1-54
http://www.amazon.fr/Britax-Si%C3%A8ge-Auto-Groupe-Evolva/dp/B009O1P5RO/ref=sr_1_43/276-1967295-2916600?s=baby&ie=UTF8&qid=1423704143&sr=1-43
http://www.amazon.fr/Recaro-Si%C3%A8ge-Groupe-Seatfix-Bouclier/dp/B009SS6CGG/ref=sr_1_16/276-1967295-2916600?s=baby&ie=UTF8&qid=1423704142&sr=1-16
http://www.amazon.fr/Bubble-Bum-Groupe-Rehausseur-gonflable/dp/B003GQ0LQ8/ref=sr_1_14/276-1967295-2916600?s=baby&ie=UTF8&qid=1423704142&sr=1-14
http://www.amazon.fr/Cybex-Si%C3%A8ge-Auto-Pallas-Pure/dp/B00M2O9YEU/ref=sr_1_20/276-1967295-2916600?s=baby&ie=UTF8&qid=1423704142&sr=1-20
http://www.amazon.fr/Ferrari-Si%C3%A8ge-Auto-Groupe-Rehausseur/dp/B00307RLTS/ref=sr_1_18/276-1967295-2916600?s=baby&ie=UTF8&qid=1423704142&sr=1-18
http://www.amazon.fr/Trottine-TT-Si%C3%A8ge-Auto-Jamaica/dp/B00CYADATW/ref=sr_1_38/276-1967295-2916600?s=baby&ie=UTF8&qid=1423704143&sr=1-38
http://www.amazon.fr/Chicco-Si%C3%A8ge-Groupe-Neptune-El%C3%A9gance/dp/B00EF0UMR2/ref=sr_1_34/276-1967295-2916600?s=baby&ie=UTF8&qid=1423704143&sr=1-34
http://www.amazon.fr/Britax-2000005758-Si%C3%A8ge-Groupe-Evolva/dp/B005S6DXZK/ref=sr_1_35/276-1967295-2916600?s=baby&ie=UTF8&qid=1423704143&sr=1-35
http://www.amazon.fr/TecTake-Si%C3%A8ge-auto-Groupe-enfants/dp/B003ZFY1RK/ref=sr_1_1/276-1967295-2916600?s=baby&ie=UTF8&qid=1423704142&sr=1-1
http://www.amazon.fr/TecTake-Si%C3%A8ge-auto-Groupe-enfants/dp/B0077R0HWK/ref=sr_1_6/276-1967295-2916600?s=baby&ie=UTF8&qid=1423704142&sr=1-6
http://www.amazon.fr/KIDDY-Siege-guardianfix-racing-groupe/dp/B009E3WPFM/ref=sr_1_30/276-1967295-2916600?s=baby&ie=UTF8&qid=1423704143&sr=1-30
http://www.amazon.fr/Kiddy-Si%C3%A8ge-Groupe-Guardianfix-bouclier/dp/B009E34PJQ/ref=sr_1_62/276-1967295-2916600?s=baby&ie=UTF8&qid=1423704144&sr=1-62
http://www.amazon.fr/Kiwy-Si%C3%A8ge-Auto-pour-Enfants/dp/B0059IA42C/ref=sr_1_47/276-1967295-2916600?s=baby&ie=UTF8&qid=1423704143&sr=1-47
http://www.amazon.fr/TecTake-400215-Si%C3%A8ge-Groupe-enfants/dp/B003TEN5OM/ref=sr_1_72/276-1967295-2916600?s=baby&ie=UTF8&qid=1423704144&sr=1-72
