http://www.amazon.fr/Tommee-Tippee-nouvelles-recharges-compatibles/dp/B006PEBH34/ref=sr_1_1/279-2600915-3847933?s=baby&ie=UTF8&qid=1423704108&sr=1-1
http://www.amazon.fr/Rotho-Babydesign-Poubelle-Couche-Top/dp/B000YEVVSC/ref=sr_1_47/279-2600915-3847933?s=baby&ie=UTF8&qid=1423704109&sr=1-47
http://www.amazon.fr/Junior-Joy-couches-couvercle-Jaune/dp/B00EXPBUMK/ref=sr_1_91/279-2600915-3847933?s=baby&ie=UTF8&qid=1423704111&sr=1-91
http://www.amazon.fr/Lessive-poudre-Potion-senteur-violette/dp/B00CLBXKWG/ref=sr_1_28/279-2600915-3847933?s=baby&ie=UTF8&qid=1423704109&sr=1-28
http://www.amazon.fr/Diaper-Champ-Poubelle-%C3%A0-Couches/dp/B000OKMORS/ref=sr_1_40/279-2600915-3847933?s=baby&ie=UTF8&qid=1423704109&sr=1-40
http://www.amazon.fr/RECHARGES-COMPATIBLES-ANGELCARE-POUBELLES-ANTI-ODEUR/dp/B00OHMHXTS/ref=sr_1_9/279-2600915-3847933?s=baby&ie=UTF8&qid=1423704108&sr=1-9
http://www.amazon.fr/Bambisol-Sas-04002-mi-Diaperchamp-Poubelle/dp/B000OKMOQE/ref=sr_1_120/279-2600915-3847933?s=baby&ie=UTF8&qid=1423704112&sr=1-120
http://www.amazon.fr/B%C3%A9b%C3%A9-jou-Langes-Mickey-Mouse-Anthracite/dp/B007425E9E/ref=sr_1_131/279-2600915-3847933?s=baby&ie=UTF8&qid=1423704114&sr=1-131
http://www.amazon.fr/Prince-Lionheart-Knot-Bo%C3%AEte-Recharges/dp/B000GL1E6M/ref=sr_1_134/279-2600915-3847933?s=baby&ie=UTF8&qid=1423704114&sr=1-134
http://www.amazon.fr/Korbell-Poubelles-%C3%A0-Couches-Plus/dp/B003AUM9S8/ref=sr_1_35/279-2600915-3847933?s=baby&ie=UTF8&qid=1423704109&sr=1-35
http://www.amazon.fr/Sangenic-Poubelle-%C3%A0-Couches-Blanche/dp/B004E9TTNM/ref=sr_1_3/279-2600915-3847933?s=baby&ie=UTF8&qid=1423704108&sr=1-3
http://www.amazon.fr/Nappy-Sacks-Fragranced-Baby-Product/dp/B000WHMT8W/ref=sr_1_52/279-2600915-3847933?s=baby&ie=UTF8&qid=1423704110&sr=1-52
http://www.amazon.fr/Sws-Siep-181530-Recharges-Multi/dp/B002GP7JTW/ref=sr_1_51/279-2600915-3847933?s=baby&ie=UTF8&qid=1423704110&sr=1-51
http://www.amazon.fr/Chicco-Poubelle-Couches-Nouveau-Design/dp/B00ARBQ9ZC/ref=sr_1_8/279-2600915-3847933?s=baby&ie=UTF8&qid=1423704108&sr=1-8
http://www.amazon.fr/Munchkin-011274-Poubelle-%C3%A0-Couches/dp/B004KKX77O/ref=sr_1_95/279-2600915-3847933?s=baby&ie=UTF8&qid=1423704111&sr=1-95
http://www.amazon.fr/Prince-Lionheart-Knot-Lot-Recharges/dp/B000GKU3QA/ref=sr_1_105/279-2600915-3847933?s=baby&ie=UTF8&qid=1423704112&sr=1-105
http://www.amazon.fr/Popolini-050296-00-Seau-%C3%A0-couches/dp/B005C3U7ZI/ref=sr_1_112/279-2600915-3847933?s=baby&ie=UTF8&qid=1423704112&sr=1-112
http://www.amazon.fr/Moin-Couches-Multifonctionnel-Fermeture-R%C3%A9utilisable/dp/B00SKW5S2K/ref=sr_1_55/279-2600915-3847933?s=baby&ie=UTF8&qid=1423704110&sr=1-55
http://www.amazon.fr/B%C3%A9b%C3%A9-jou-Seau-Langes-Pooh-Bear/dp/B004QTPDTE/ref=sr_1_101/279-2600915-3847933?s=baby&ie=UTF8&qid=1423704112&sr=1-101
http://www.amazon.fr/ROTHO-BABYDESIGN-couches-Bambina-poubelle/dp/B009IHUTGG/ref=sr_1_135/279-2600915-3847933?s=baby&ie=UTF8&qid=1423704114&sr=1-135
http://www.amazon.fr/Rotho-Babydesign-Poubelle-Couches-Gamme/dp/B00FVV26SW/ref=sr_1_97/279-2600915-3847933?s=baby&ie=UTF8&qid=1423704112&sr=1-97
http://www.amazon.fr/Playtex-Diaper-Genie-II-anti-odeur/dp/B004RPWL5G/ref=sr_1_142/279-2600915-3847933?s=baby&ie=UTF8&qid=1423704114&sr=1-142
http://www.amazon.fr/Playtex-Diaper-Disposal-System-Refills/dp/B001F0RBCY/ref=sr_1_107/279-2600915-3847933?s=baby&ie=UTF8&qid=1423704112&sr=1-107
http://www.amazon.fr/Rotho-Babydesign-Poubelle-Couches-Turquoise/dp/B00FS8LOHC/ref=sr_1_144/279-2600915-3847933?s=baby&ie=UTF8&qid=1423704114&sr=1-144
http://www.amazon.fr/SANGENIC-Multipack-recharges-poubelle-sangenic/dp/B00DDVI4RO/ref=sr_1_18/279-2600915-3847933?s=baby&ie=UTF8&qid=1423704108&sr=1-18
http://www.amazon.fr/N%C3%BBby-Couches-Jetables-Recharge-parfum%C3%A9s/dp/B0043E8WN6/ref=sr_1_39/279-2600915-3847933?s=baby&ie=UTF8&qid=1423704109&sr=1-39
http://www.amazon.fr/B%C3%A9b%C3%A9-jou-Seau-Langes-123-Blanc/dp/B00ASHW4PE/ref=sr_1_57/279-2600915-3847933?s=baby&ie=UTF8&qid=1423704110&sr=1-57
http://www.amazon.fr/Smellfree-recharges-Angelcare-Poubelle-gratuit/dp/B00O8061B0/ref=sr_1_6/279-2600915-3847933?s=baby&ie=UTF8&qid=1423704108&sr=1-6
http://www.amazon.fr/Rotho-Babydesign-Poubelle-Couches-Pomme/dp/B00FS8LV2U/ref=sr_1_119/279-2600915-3847933?s=baby&ie=UTF8&qid=1423704112&sr=1-119
http://www.amazon.fr/Sangenic-85023101-Poubelles-recharges-naissance/dp/B002L3TEP6/ref=sr_1_22/279-2600915-3847933?s=baby&ie=UTF8&qid=1423704108&sr=1-22
http://www.amazon.fr/B%C3%A9b%C3%A9-Jou-Easy-Bo%C3%AEte-lingettes-Wipe/dp/B00FMT8D7Q/ref=sr_1_104/279-2600915-3847933?s=baby&ie=UTF8&qid=1423704112&sr=1-104
http://www.amazon.fr/Angelcare-2500-Poubelle-%C3%A0-Couches/dp/B001QGLO1Q/ref=sr_1_12/279-2600915-3847933?s=baby&ie=UTF8&qid=1423704108&sr=1-12
http://www.amazon.fr/Diaper-Champ-Seau-couches-Medium/dp/B004VQR534/ref=sr_1_62/279-2600915-3847933?s=baby&ie=UTF8&qid=1423704110&sr=1-62
http://www.amazon.fr/Alvi-Matelas-Hygienique-80x40-cm/dp/B004KDVF7A/ref=sr_1_83/279-2600915-3847933?s=baby&ie=UTF8&qid=1423704111&sr=1-83
http://www.amazon.fr/RECHARGES-COMPATIBLES-SANGENIC-POUBELLES-COUCHES/dp/B00JJGHXE2/ref=sr_1_7/279-2600915-3847933?s=baby&ie=UTF8&qid=1423704108&sr=1-7
http://www.amazon.fr/B%C3%A9b%C3%A9-Jou-Easy-Bo%C3%AEte-lingettes-Cr%C3%A8me/dp/B00FMT8P9W/ref=sr_1_78/279-2600915-3847933?s=baby&ie=UTF8&qid=1423704111&sr=1-78
http://www.amazon.fr/Natineo-Poubelle-plastique-Orange-Marron/dp/B00DC1PA8Q/ref=sr_1_43/279-2600915-3847933?s=baby&ie=UTF8&qid=1423704109&sr=1-43
http://www.amazon.fr/B%C3%A9b%C3%A9-jou-Seau-Langes-Bibi-BoboPerle/dp/B007425H1E/ref=sr_1_125/279-2600915-3847933?s=baby&ie=UTF8&qid=1423704114&sr=1-125
http://www.amazon.fr/Rotho-Babydesign-Poubelle-Couches-S%C3%A9rigraphie/dp/B00G37JC30/ref=sr_1_49/279-2600915-3847933?s=baby&ie=UTF8&qid=1423704110&sr=1-49
http://www.amazon.fr/B%C3%A9b%C3%A9-jou-Poubelle-couches-Rose-p%C3%A2le/dp/B00ASHW5PI/ref=sr_1_37/279-2600915-3847933?s=baby&ie=UTF8&qid=1423704109&sr=1-37
http://www.amazon.fr/Sametic-Refill-Cassettes-Pack-Compatible/dp/B00E7595IW/ref=sr_1_26/279-2600915-3847933?s=baby&ie=UTF8&qid=1423704109&sr=1-26
http://www.amazon.fr/B%C3%A9b%C3%A9-Jou-Easy-Bo%C3%AEte-lingettes-Rose/dp/B00FMT8PBU/ref=sr_1_117/279-2600915-3847933?s=baby&ie=UTF8&qid=1423704112&sr=1-117
http://www.amazon.fr/Little-Natural-Mattress-Stokke-Sleepi/dp/B00L7MOJWU/ref=sr_1_24/279-2600915-3847933?s=baby&ie=UTF8&qid=1423704108&sr=1-24
http://www.amazon.fr/RECHARGES-COMPATIBLES-SANGENIC-POUBELLES-COUCHES/dp/B00Q8RLGUM/ref=sr_1_46/279-2600915-3847933?s=baby&ie=UTF8&qid=1423704109&sr=1-46
http://www.amazon.fr/B%C3%A9b%C3%A9-Jou-Bo%C3%AEte-lingettes-Motif-Humphrey/dp/B00FMT8I58/ref=sr_1_84/279-2600915-3847933?s=baby&ie=UTF8&qid=1423704111&sr=1-84
http://www.amazon.fr/Bambino-Mio-Miofresh-Lessive-poudre/dp/B00EHH73MA/ref=sr_1_38/279-2600915-3847933?s=baby&ie=UTF8&qid=1423704109&sr=1-38
http://www.amazon.fr/Rotho-Babydesign-Base-pour-Twister/dp/B00300HE06/ref=sr_1_17/279-2600915-3847933?s=baby&ie=UTF8&qid=1423704108&sr=1-17
http://www.amazon.fr/Rotho-Babydesign-Poubelle-Couches-Framboise/dp/B00FVV27JA/ref=sr_1_122/279-2600915-3847933?s=baby&ie=UTF8&qid=1423704114&sr=1-122
http://www.amazon.fr/Sangenic-75102621-Essentials-Recharges-cache-couche/dp/B00294KOXI/ref=sr_1_124/279-2600915-3847933?s=baby&ie=UTF8&qid=1423704114&sr=1-124
http://www.amazon.fr/Natineo-Poubelle-plastique-Grenouille-vert/dp/B00DC1O6I6/ref=sr_1_64/279-2600915-3847933?s=baby&ie=UTF8&qid=1423704110&sr=1-64
http://www.amazon.fr/B%C3%A9b%C3%A9-Jou-Easy-Bo%C3%AEte-lingettes-Argent/dp/B00FMT8P0Q/ref=sr_1_90/279-2600915-3847933?s=baby&ie=UTF8&qid=1423704111&sr=1-90
http://www.amazon.fr/M%C3%A9ga-recharges-poubelle-couche-Angelcare/dp/B007BPR9M4/ref=sr_1_68/279-2600915-3847933?s=baby&ie=UTF8&qid=1423704110&sr=1-68
http://www.amazon.fr/Rotho-Babydesign-Poubelle-Couches-S%C3%A9rigraphie/dp/B00763UR16/ref=sr_1_143/279-2600915-3847933?s=baby&ie=UTF8&qid=1423704114&sr=1-143
http://www.amazon.fr/B%C3%A9b%C3%A9-jou-Seau-Langes-Tigger-Blanc/dp/B004QTPDU8/ref=sr_1_130/279-2600915-3847933?s=baby&ie=UTF8&qid=1423704114&sr=1-130
http://www.amazon.fr/Tommee-Tippee-Poubelle-couches-Sangenic/dp/B002VKQD5S/ref=sr_1_44/279-2600915-3847933?s=baby&ie=UTF8&qid=1423704109&sr=1-44
http://www.amazon.fr/Chicco-Poubelle-Couches-Hygi%C3%A8ne-Propret%C3%A9/dp/B003U4BAKW/ref=sr_1_80/279-2600915-3847933?s=baby&ie=UTF8&qid=1423704111&sr=1-80
http://www.amazon.fr/Diaper-Champ-Seau-couches-Argent/dp/B004ME5O6K/ref=sr_1_32/279-2600915-3847933?s=baby&ie=UTF8&qid=1423704109&sr=1-32
http://www.amazon.fr/Rotho-Babydesign-Poubelle-Couche-Framboise/dp/B004S8ND4K/ref=sr_1_45/279-2600915-3847933?s=baby&ie=UTF8&qid=1423704109&sr=1-45
http://www.amazon.fr/Vital-Innovations-Recharge-Poubelle-Convenable/dp/B001BKX1UY/ref=sr_1_114/279-2600915-3847933?s=baby&ie=UTF8&qid=1423704112&sr=1-114
http://www.amazon.fr/Plastorex-Seau-%C3%A0-Langer-Hippo/dp/B00A2EYCR6/ref=sr_1_50/279-2600915-3847933?s=baby&ie=UTF8&qid=1423704110&sr=1-50
http://www.amazon.fr/Diaper-Champ-Poubelle-couches-capacite/dp/B004VQR56G/ref=sr_1_82/279-2600915-3847933?s=baby&ie=UTF8&qid=1423704111&sr=1-82
http://www.amazon.fr/Rotho-Babydesign-Poubelle-Couche-Style/dp/B003WG63VE/ref=sr_1_29/279-2600915-3847933?s=baby&ie=UTF8&qid=1423704109&sr=1-29
http://www.amazon.fr/Sangenic-25037-Recharges-Poubelles-Couches/dp/B002948PDO/ref=sr_1_102/279-2600915-3847933?s=baby&ie=UTF8&qid=1423704112&sr=1-102
http://www.amazon.fr/Rotho-Babydesign-Poubelle-Couche-Top/dp/B001N2RAMU/ref=sr_1_121/279-2600915-3847933?s=baby&ie=UTF8&qid=1423704114&sr=1-121
http://www.amazon.fr/Bibs-Stuff-Potette-Plus-Sacs/dp/B0026RMWJC/ref=sr_1_42/279-2600915-3847933?s=baby&ie=UTF8&qid=1423704109&sr=1-42
http://www.amazon.fr/Junior-Joy-Bambinex-Micro-Liner/dp/B006J6GNXW/ref=sr_1_93/279-2600915-3847933?s=baby&ie=UTF8&qid=1423704111&sr=1-93
http://www.amazon.fr/B%C3%A9b%C3%A9-Jou-Bo%C3%AEte-lingettes-Motif-Naturel/dp/B00FMT8LWI/ref=sr_1_115/279-2600915-3847933?s=baby&ie=UTF8&qid=1423704112&sr=1-115
http://www.amazon.fr/Sangenic-Wrap-Go-Distributeur-Recharges/dp/B007N4TK2U/ref=sr_1_15/279-2600915-3847933?s=baby&ie=UTF8&qid=1423704108&sr=1-15
http://www.amazon.fr/Rotho-Babydesign-Poubelle-Couche-Style/dp/B003WG8F6A/ref=sr_1_118/279-2600915-3847933?s=baby&ie=UTF8&qid=1423704112&sr=1-118
http://www.amazon.fr/B%C3%A9b%C3%A9-Jou-Bo%C3%AEte-lingettes-Motif-Humphrey/dp/B00FMT8LVE/ref=sr_1_103/279-2600915-3847933?s=baby&ie=UTF8&qid=1423704112&sr=1-103
http://www.amazon.fr/Inko-Baby-Poubelle-couches-odeurs/dp/B001GXR7JC/ref=sr_1_126/279-2600915-3847933?s=baby&ie=UTF8&qid=1423704114&sr=1-126
http://www.amazon.fr/Diaper-Champ-Poubelle-couche-capacite/dp/B00307PJFQ/ref=sr_1_132/279-2600915-3847933?s=baby&ie=UTF8&qid=1423704114&sr=1-132
http://www.amazon.fr/Rothobabydesign-20021-Poubelle-Couche-Bambina/dp/B002XLU8LA/ref=sr_1_123/279-2600915-3847933?s=baby&ie=UTF8&qid=1423704114&sr=1-123
http://www.amazon.fr/Inko-Baby-Poubelle-couches-odeurs/dp/B001GXR7JW/ref=sr_1_88/279-2600915-3847933?s=baby&ie=UTF8&qid=1423704111&sr=1-88
http://www.amazon.fr/B%C3%A9b%C3%A9-Jou-Easy-Bo%C3%AEte-lingettes-Turquoise/dp/B00FMT8SKS/ref=sr_1_108/279-2600915-3847933?s=baby&ie=UTF8&qid=1423704112&sr=1-108
http://www.amazon.fr/B%C3%A9b%C3%A9-Jou-Bo%C3%AEte-lingettes-Motif-Tigrou/dp/B00FMT8LU0/ref=sr_1_110/279-2600915-3847933?s=baby&ie=UTF8&qid=1423704112&sr=1-110
http://www.amazon.fr/SANGENIC-MULTIPACK-RECHARGES-MK4/dp/B002FABVEC/ref=sr_1_10/279-2600915-3847933?s=baby&ie=UTF8&qid=1423704108&sr=1-10
http://www.amazon.fr/Korbell-Recharges-poubelle-couches-Standard/dp/B003AUO6Z2/ref=sr_1_4/279-2600915-3847933?s=baby&ie=UTF8&qid=1423704108&sr=1-4
http://www.amazon.fr/Sangenic-Wrap-Go-Recharges-Sachets/dp/B007N4TKVG/ref=sr_1_13/279-2600915-3847933?s=baby&ie=UTF8&qid=1423704108&sr=1-13
http://www.amazon.fr/Geruchsdichter-Windeleimer-Diaper-regular-magenta/dp/B008YDTLL4/ref=sr_1_60/279-2600915-3847933?s=baby&ie=UTF8&qid=1423704110&sr=1-60
http://www.amazon.fr/Natineo-Poubelle-plastique-Panda-blanc/dp/B00DC1O5JQ/ref=sr_1_74/279-2600915-3847933?s=baby&ie=UTF8&qid=1423704111&sr=1-74
http://www.amazon.fr/Rotho-Babydesign-Poubelle-Couches-S%C3%A9rigraphie/dp/B00A77X5AI/ref=sr_1_85/279-2600915-3847933?s=baby&ie=UTF8&qid=1423704111&sr=1-85
http://www.amazon.fr/Rotho-Babydesign-Poubelle-Couches-Transparent/dp/B00FF4MLT4/ref=sr_1_79/279-2600915-3847933?s=baby&ie=UTF8&qid=1423704111&sr=1-79
http://www.amazon.fr/Korbell-Triple-recharge-poubelle-couches/dp/B0036Y75QE/ref=sr_1_41/279-2600915-3847933?s=baby&ie=UTF8&qid=1423704109&sr=1-41
http://www.amazon.fr/Sws-Siep-Sangenic-Nouvelle-Poubelle/dp/B002ALDMWA/ref=sr_1_98/279-2600915-3847933?s=baby&ie=UTF8&qid=1423704112&sr=1-98
http://www.amazon.fr/Angelcare-Pack-Recharges-Poubelle-Couches/dp/B00143XJ7I/ref=sr_1_2/279-2600915-3847933?s=baby&ie=UTF8&qid=1423704108&sr=1-2
http://www.amazon.fr/B%C3%A9b%C3%A9-Jou-Easy-Bo%C3%AEte-lingettes-Bleu/dp/B00FMT8SJE/ref=sr_1_75/279-2600915-3847933?s=baby&ie=UTF8&qid=1423704111&sr=1-75
http://www.amazon.fr/Bebe-Jou-Luma-Seau-pour-bain/dp/B00BSYEC1K/ref=sr_1_30/279-2600915-3847933?s=baby&ie=UTF8&qid=1423704109&sr=1-30
http://www.amazon.fr/TotsBots-Accessory-Bucket-Liners-Potion/dp/B004BR3FK0/ref=sr_1_63/279-2600915-3847933?s=baby&ie=UTF8&qid=1423704110&sr=1-63
http://www.amazon.fr/Nappy-Sacks-Fragranced-Baby-Product/dp/B003L53D82/ref=sr_1_54/279-2600915-3847933?s=baby&ie=UTF8&qid=1423704110&sr=1-54
http://www.amazon.fr/ANGELCARE-2-recharges-25-sacs/dp/B00BN6C242/ref=sr_1_89/279-2600915-3847933?s=baby&ie=UTF8&qid=1423704111&sr=1-89
http://www.amazon.fr/Rotho-Babydesign-Poubelle-Couches-S%C3%A9rigraphie/dp/B00G4CMY1Q/ref=sr_1_92/279-2600915-3847933?s=baby&ie=UTF8&qid=1423704111&sr=1-92
http://www.amazon.fr/Babymoov-Recharges-100-Sacs-Hygi%C3%A9niques/dp/B000VAI54W/ref=sr_1_14/279-2600915-3847933?s=baby&ie=UTF8&qid=1423704108&sr=1-14
http://www.amazon.fr/Korbell-Recharges-poubelle-couche-litres/dp/B00KAV6HII/ref=sr_1_34/279-2600915-3847933?s=baby&ie=UTF8&qid=1423704109&sr=1-34
http://www.amazon.fr/Rotho-Babydesign-Poubelle-Couches-Quartz/dp/B00A7ACMQI/ref=sr_1_27/279-2600915-3847933?s=baby&ie=UTF8&qid=1423704109&sr=1-27
http://www.amazon.fr/B%C3%A9b%C3%A9-Jou-Easy-Bo%C3%AEte-lingettes-Vert/dp/B00FMT8PEC/ref=sr_1_109/279-2600915-3847933?s=baby&ie=UTF8&qid=1423704112&sr=1-109
http://www.amazon.fr/Munchkin-011141-Recharges-Poubelle-Couches/dp/B004KKX77Y/ref=sr_1_71/279-2600915-3847933?s=baby&ie=UTF8&qid=1423704110&sr=1-71
http://www.amazon.fr/B%C3%A9b%C3%A9-jou-Seau-Langes-Rose-Clair/dp/B00ASHW3GY/ref=sr_1_141/279-2600915-3847933?s=baby&ie=UTF8&qid=1423704114&sr=1-141
http://www.amazon.fr/Korbell-Poubelles-%C3%A0-Couches-Standard/dp/B001NO9R2Y/ref=sr_1_11/279-2600915-3847933?s=baby&ie=UTF8&qid=1423704108&sr=1-11
http://www.amazon.fr/N%C3%BBby-Couches-Jetables-parfum%C3%A9s-d%C3%A9rouleur/dp/B0043E554K/ref=sr_1_25/279-2600915-3847933?s=baby&ie=UTF8&qid=1423704109&sr=1-25
http://www.amazon.fr/Plastorex-Seau-%C3%A0-Langer-Funny/dp/B00GSFC6TE/ref=sr_1_111/279-2600915-3847933?s=baby&ie=UTF8&qid=1423704112&sr=1-111
http://www.amazon.fr/Poubelle-neutralisant-Convient-plastiques-standard/dp/B0057D8LEM/ref=sr_1_73/279-2600915-3847933?s=baby&ie=UTF8&qid=1423704111&sr=1-73
http://www.amazon.fr/B%C3%A9b%C3%A9-Jou-Easy-Bo%C3%AEte-lingettes-123/dp/B00FMT8D8K/ref=sr_1_76/279-2600915-3847933?s=baby&ie=UTF8&qid=1423704111&sr=1-76
http://www.amazon.fr/Korbell-Poubelle-%C3%A0-Couche-100096/dp/B008KKR04G/ref=sr_1_48/279-2600915-3847933?s=baby&ie=UTF8&qid=1423704109&sr=1-48
http://www.amazon.fr/Korbell-KR280DR3B-Poubelles-Couches-Recharge/dp/B003VM7IPO/ref=sr_1_16/279-2600915-3847933?s=baby&ie=UTF8&qid=1423704108&sr=1-16
http://www.amazon.fr/Sangenic-Poubelle-%C3%A0-Couches-mois/dp/B000MPLC96/ref=sr_1_69/279-2600915-3847933?s=baby&ie=UTF8&qid=1423704110&sr=1-69
http://www.amazon.fr/Junior-Joy-Nappy-Couvercle-Cr%C3%A8me/dp/B004S22YO6/ref=sr_1_87/279-2600915-3847933?s=baby&ie=UTF8&qid=1423704111&sr=1-87
http://www.amazon.fr/Rothobabydesign-90500-Skipi-Hygi%C3%A9nique-Pi%C3%A8ces/dp/B0043QKJJ4/ref=sr_1_140/279-2600915-3847933?s=baby&ie=UTF8&qid=1423704114&sr=1-140
http://www.amazon.fr/B%C3%A9b%C3%A9-Jou-Bo%C3%AEte-lingettes-Motif-Bobbi/dp/B00FMT8I62/ref=sr_1_86/279-2600915-3847933?s=baby&ie=UTF8&qid=1423704111&sr=1-86
http://www.amazon.fr/Tommee-Tippee-Sangenic-Poubelle-couches/dp/B000HPU6NO/ref=sr_1_116/279-2600915-3847933?s=baby&ie=UTF8&qid=1423704112&sr=1-116
http://www.amazon.fr/B%C3%A9b%C3%A9-jou-Seau-%C3%A0-LangesTic-Tac/dp/B00I0LBBH2/ref=sr_1_138/279-2600915-3847933?s=baby&ie=UTF8&qid=1423704114&sr=1-138
http://www.amazon.fr/Ju-Be-Pochette-Tokidoki-Animalini/dp/B00PFZ4OI4/ref=sr_1_133/279-2600915-3847933?s=baby&ie=UTF8&qid=1423704114&sr=1-133
http://www.amazon.fr/recharges-multipack-Sangenic-6-24-mois/dp/B0018O487S/ref=sr_1_106/279-2600915-3847933?s=baby&ie=UTF8&qid=1423704112&sr=1-106
http://www.amazon.fr/Korbell-Recambios-Mod-250DR1B-Recharges/dp/B008KKR082/ref=sr_1_77/279-2600915-3847933?s=baby&ie=UTF8&qid=1423704111&sr=1-77
http://www.amazon.fr/Rotho-Babydesign-Poubelle-Couche-Top/dp/B002XLWB8I/ref=sr_1_139/279-2600915-3847933?s=baby&ie=UTF8&qid=1423704114&sr=1-139
http://www.amazon.fr/Sangenic-Pack-poubelle-couches-recharges/dp/B002L213KQ/ref=sr_1_5/279-2600915-3847933?s=baby&ie=UTF8&qid=1423704108&sr=1-5
http://www.amazon.fr/Rotho-Babydesign-Poubelle-Couche-Top/dp/B004S8ND2M/ref=sr_1_65/279-2600915-3847933?s=baby&ie=UTF8&qid=1423704110&sr=1-65
http://www.amazon.fr/Bambino-Mio-Nappy-Bucket-Litres/dp/B000X478E4/ref=sr_1_72/279-2600915-3847933?s=baby&ie=UTF8&qid=1423704110&sr=1-72
http://www.amazon.fr/Rotho-Babydesign-Poubelle-Couches-Transparent/dp/B00FF4UJPW/ref=sr_1_99/279-2600915-3847933?s=baby&ie=UTF8&qid=1423704112&sr=1-99
http://www.amazon.fr/TOMMEE-TIPPEE-SANGENIC-Poubelle-Recharges/dp/B00RZ9QGZC/ref=sr_1_20/279-2600915-3847933?s=baby&ie=UTF8&qid=1423704108&sr=1-20
http://www.amazon.fr/Plastorex-Seau-Langer-Disney-Minnie/dp/B00BM2A1T0/ref=sr_1_36/279-2600915-3847933?s=baby&ie=UTF8&qid=1423704109&sr=1-36
http://www.amazon.fr/JJ-Cole-Distributeur-couches-Anthracite/dp/B003ZUXQX0/ref=sr_1_94/279-2600915-3847933?s=baby&ie=UTF8&qid=1423704111&sr=1-94
http://www.amazon.fr/Tommee-Tippee-Poubelle-Couches-Blanche/dp/B00PY2I7FE/ref=sr_1_56/279-2600915-3847933?s=baby&ie=UTF8&qid=1423704110&sr=1-56
http://www.amazon.fr/RECHARGES-COMPATIBLES-ANGELCARE-POUBELLES-COUCHES/dp/B00PRVQTNY/ref=sr_1_96/279-2600915-3847933?s=baby&ie=UTF8&qid=1423704111&sr=1-96
http://www.amazon.fr/Korbell-Plus-sac-couche-Capacit%C3%A9/dp/B001GBLRC2/ref=sr_1_21/279-2600915-3847933?s=baby&ie=UTF8&qid=1423704108&sr=1-21
http://www.amazon.fr/Diono-Distributeur-Sacs-Jetables-Parfum%C3%A9s/dp/B005PK1DJM/ref=sr_1_67/279-2600915-3847933?s=baby&ie=UTF8&qid=1423704110&sr=1-67
http://www.amazon.fr/Angelcare-Poubelle-%C3%A0-Couches-Mini/dp/B00JGQEVL8/ref=sr_1_23/279-2600915-3847933?s=baby&ie=UTF8&qid=1423704108&sr=1-23
http://www.amazon.fr/Rotho-Babydesign-Poubelle-Couche-Style/dp/B004XLY8YQ/ref=sr_1_136/279-2600915-3847933?s=baby&ie=UTF8&qid=1423704114&sr=1-136
http://www.amazon.fr/Sangenic-Hygiene-plus-MK4/dp/B008QYR64U/ref=sr_1_70/279-2600915-3847933?s=baby&ie=UTF8&qid=1423704110&sr=1-70
http://www.amazon.fr/SANGENIC-PACK-POUBELLE-MK4-RECHARGES/dp/B005OV5CJ4/ref=sr_1_100/279-2600915-3847933?s=baby&ie=UTF8&qid=1423704112&sr=1-100
http://www.amazon.fr/Plastorex-Seau-Langer-Disney-Winnie/dp/B00BM29YUW/ref=sr_1_127/279-2600915-3847933?s=baby&ie=UTF8&qid=1423704114&sr=1-127
http://www.amazon.fr/Tommee-Tippee-Recharges-Poubelles-Couches/dp/B00S6EJSD2/ref=sr_1_59/279-2600915-3847933?s=baby&ie=UTF8&qid=1423704110&sr=1-59
http://www.amazon.fr/Plastorex-Langer-D%C3%A9cor%C3%A9-Blanc-D%C3%A9cor/dp/B00NSWHI2A/ref=sr_1_128/279-2600915-3847933?s=baby&ie=UTF8&qid=1423704114&sr=1-128
http://www.amazon.fr/Tommee-Tippee--Poubelle-Sangenic-Essentials/dp/B002L3TEOW/ref=sr_1_33/279-2600915-3847933?s=baby&ie=UTF8&qid=1423704109&sr=1-33
http://www.amazon.fr/Vital-Innovations-Recharge-Poubelle-Paquet/dp/B001BL2OHE/ref=sr_1_53/279-2600915-3847933?s=baby&ie=UTF8&qid=1423704110&sr=1-53
http://www.amazon.fr/Rotho-Babydesign-Poubelle-Couches-Taupe/dp/B00FPOPULA/ref=sr_1_66/279-2600915-3847933?s=baby&ie=UTF8&qid=1423704110&sr=1-66
http://www.amazon.fr/Compatibles-ANGELCARE-rechargeable-respectant-lenvironnement/dp/B004J3AUFY/ref=sr_1_19/279-2600915-3847933?s=baby&ie=UTF8&qid=1423704108&sr=1-19
http://www.amazon.fr/Matelas-langer-adaptable-comode-Lollipop/dp/B008K11C08/ref=sr_1_61/279-2600915-3847933?s=baby&ie=UTF8&qid=1423704110&sr=1-61
http://www.amazon.fr/B%C3%A9b%C3%A9-Jou-Easy-Bo%C3%AEte-lingettes-Orange/dp/B00FMT8PAG/ref=sr_1_137/279-2600915-3847933?s=baby&ie=UTF8&qid=1423704114&sr=1-137
http://www.amazon.fr/Sangenic-25032-0001-Poubelle-Couche/dp/B002949GVE/ref=sr_1_81/279-2600915-3847933?s=baby&ie=UTF8&qid=1423704111&sr=1-81
http://www.amazon.fr/Angelcare-180500-Angel-ANGELCARE-Poubelle/dp/B004E7PK9Q/ref=sr_1_58/279-2600915-3847933?s=baby&ie=UTF8&qid=1423704110&sr=1-58
http://www.amazon.fr/Tra%C3%BCmeland-Matelas-pour-Parc-100/dp/B004ZQ4ZC4/ref=sr_1_31/279-2600915-3847933?s=baby&ie=UTF8&qid=1423704109&sr=1-31
http://www.amazon.fr/B%C3%A9b%C3%A9-jou-Seau-couche-couvercle-nacr%C3%A9/dp/B007F99LGS/ref=sr_1_113/279-2600915-3847933?s=baby&ie=UTF8&qid=1423704112&sr=1-113
http://www.amazon.fr/B%C3%A9b%C3%A9-Jou-Bo%C3%AEte-lingettes-petites-souris/dp/B00FMT8HR2/ref=sr_1_129/279-2600915-3847933?s=baby&ie=UTF8&qid=1423704114&sr=1-129
