http://www.amazon.fr/dBb-Remond-Assiette-Garde-Couverts/dp/B001INFU12/ref=sr_1_49/278-4081297-7152119?s=toys&ie=UTF8&qid=1423704082&sr=1-49
http://www.amazon.fr/Gipsy-Doudou-Veilleuse-Pomme-Souris/dp/B00BBPJDI8/ref=sr_1_99/278-4081297-7152119?s=toys&ie=UTF8&qid=1423704085&sr=1-99
http://www.amazon.fr/Leapfrog-Eveil-Amie-Violette-refresh/dp/B003TJ9KLO/ref=sr_1_12/278-4081297-7152119?s=toys&ie=UTF8&qid=1423704080&sr=1-12
http://www.amazon.fr/Clementoni-Jouet-d%C3%A9veil-Minnie-Cajoler/dp/B00ECV52FQ/ref=sr_1_97/278-4081297-7152119?s=toys&ie=UTF8&qid=1423704085&sr=1-97
http://www.amazon.fr/Kaloo-Doudou-Lapin-Denim-16xcm/dp/B00D3M9SN2/ref=sr_1_249/278-4081297-7152119?s=toys&ie=UTF8&qid=1423704093&sr=1-249
http://www.amazon.fr/Bawi-Doudou-Mon-Petit-Dada/dp/B004KAOSQS/ref=sr_1_318/278-4081297-7152119?s=toys&ie=UTF8&qid=1423704097&sr=1-318
http://www.amazon.fr/Doudou-Compagnie-Pantin-Cheval-Modele/dp/B00GNO2FKK/ref=sr_1_204/278-4081297-7152119?s=toys&ie=UTF8&qid=1423704090&sr=1-204
http://www.amazon.fr/Lilliputiens-6686751-Walter-Peluche-Musicale/dp/B00140PXIO/ref=sr_1_112/278-4081297-7152119?s=toys&ie=UTF8&qid=1423704085&sr=1-112
http://www.amazon.fr/Histoire-dours-HO1259-Marionnette-Hippo/dp/B000Q6BRK0/ref=sr_1_157/278-4081297-7152119?s=toys&ie=UTF8&qid=1423704088&sr=1-157
http://www.amazon.fr/Fisher-Price-Jouet-D%C3%A9veil-musical/dp/B00K5O4XOU/ref=sr_1_240/278-4081297-7152119?s=toys&ie=UTF8&qid=1423704091&sr=1-240
http://www.amazon.fr/Doudou-Compagnie-Lapin-Bonbon-Modele/dp/B002BZV66O/ref=sr_1_73/278-4081297-7152119?s=toys&ie=UTF8&qid=1423704084&sr=1-73
http://www.amazon.fr/Greenlife-chaleur-dAnimal-peluche-Bruno/dp/B002P4BD0K/ref=sr_1_175/278-4081297-7152119?s=toys&ie=UTF8&qid=1423704089&sr=1-175
http://www.amazon.fr/Kaloo-Doudou-Blue-Patapouf-Clair/dp/B004USYJVO/ref=sr_1_331/278-4081297-7152119?s=toys&ie=UTF8&qid=1423704097&sr=1-331
http://www.amazon.fr/Peluche-chaton-22-assis-Marron/dp/B00HMFOVAG/ref=sr_1_295/278-4081297-7152119?s=toys&ie=UTF8&qid=1423704096&sr=1-295
http://www.amazon.fr/Jemini-Peluche-Accessoire-TChoupi-Escargot/dp/B0041G4WGW/ref=sr_1_124/278-4081297-7152119?s=toys&ie=UTF8&qid=1423704087&sr=1-124
http://www.amazon.fr/Peluche-Angry-Birds-30-Cochon/dp/B00SUG0QQE/ref=sr_1_190/278-4081297-7152119?s=toys&ie=UTF8&qid=1423704089&sr=1-190
http://www.amazon.fr/Simba-Toys-Doudou-Koala-Assis/dp/B004QWN0V4/ref=sr_1_154/278-4081297-7152119?s=toys&ie=UTF8&qid=1423704088&sr=1-154
http://www.amazon.fr/Disney-Doudou-plat-Winnie-lourson/dp/B007CJQV2S/ref=sr_1_283/278-4081297-7152119?s=toys&ie=UTF8&qid=1423704094&sr=1-283
http://www.amazon.fr/VTech-143605-Vtech-Balle-Coccinelle/dp/B009V9IWLK/ref=sr_1_238/278-4081297-7152119?s=toys&ie=UTF8&qid=1423704091&sr=1-238
http://www.amazon.fr/Petit-coeur-rouge-peluche-taime/dp/B0051F89QG/ref=sr_1_195/278-4081297-7152119?s=toys&ie=UTF8&qid=1423704090&sr=1-195
http://www.amazon.fr/Doudou-Compagnie-Marionnette-Nuage-Couleurs/dp/B003I664QW/ref=sr_1_278/278-4081297-7152119?s=toys&ie=UTF8&qid=1423704094&sr=1-278
http://www.amazon.fr/Label-Doudou-Etiquettes-Friends-Vache/dp/B008MWRN0S/ref=sr_1_43/278-4081297-7152119?s=toys&ie=UTF8&qid=1423704081&sr=1-43
http://www.amazon.fr/Ebulobo-Louloup-musical-louloup-punch/dp/B003549798/ref=sr_1_250/278-4081297-7152119?s=toys&ie=UTF8&qid=1423704093&sr=1-250
http://www.amazon.fr/Schtroumpfs-022165-Peluche-Ventouse/dp/B006Q5OV76/ref=sr_1_193/278-4081297-7152119?s=toys&ie=UTF8&qid=1423704090&sr=1-193
http://www.amazon.fr/Noukies-Peluche-Musicale-Dragon-Victor/dp/B005S0DBAS/ref=sr_1_296/278-4081297-7152119?s=toys&ie=UTF8&qid=1423704096&sr=1-296
http://www.amazon.fr/Doudou-Compagnie-Authentiques-Collection-Prestige/dp/B00900VO4W/ref=sr_1_22/278-4081297-7152119?s=toys&ie=UTF8&qid=1423704080&sr=1-22
http://www.amazon.fr/Doudou-Compagnie-Mouchoir-Bo%C3%AEte-Fleur/dp/B000HZ8QYA/ref=sr_1_44/278-4081297-7152119?s=toys&ie=UTF8&qid=1423704081&sr=1-44
http://www.amazon.fr/Doudou-Compagnie-Collector-Bleu-Tatoo/dp/B000OKI72E/ref=sr_1_95/278-4081297-7152119?s=toys&ie=UTF8&qid=1423704084&sr=1-95
http://www.amazon.fr/D%C3%A9glingos-Doudou-El%C3%A9phant-Baby-Sandykilos/dp/B0098G0L8I/ref=sr_1_181/278-4081297-7152119?s=toys&ie=UTF8&qid=1423704089&sr=1-181
http://www.amazon.fr/Disney-Doudou-Mickey-Core-25/dp/B00BP66NGI/ref=sr_1_63/278-4081297-7152119?s=toys&ie=UTF8&qid=1423704082&sr=1-63
http://www.amazon.fr/MGM-Carte-Dodo-Nounours-Koumai/dp/B008C0TSTY/ref=sr_1_188/278-4081297-7152119?s=toys&ie=UTF8&qid=1423704089&sr=1-188
http://www.amazon.fr/Doudou-Compagnie-Lapin-Celeste-Musique/dp/B00CDK5TAG/ref=sr_1_245/278-4081297-7152119?s=toys&ie=UTF8&qid=1423704093&sr=1-245
http://www.amazon.fr/Clementoni-14883-Tortue-Clemmy/dp/B008DVVTDU/ref=sr_1_262/278-4081297-7152119?s=toys&ie=UTF8&qid=1423704093&sr=1-262
http://www.amazon.fr/JoJo-Maman-B%C3%A9b%C3%A9-Doudou-Vache/dp/B00JL8ZV3I/ref=sr_1_314/278-4081297-7152119?s=toys&ie=UTF8&qid=1423704097&sr=1-314
http://www.amazon.fr/Kaloo-Doudou-Lilirose-Petit-Ourson/dp/B005A51T1E/ref=sr_1_128/278-4081297-7152119?s=toys&ie=UTF8&qid=1423704087&sr=1-128
http://www.amazon.fr/Maya-lAbeille-022036-Premier-Peluche/dp/B00533YFDM/ref=sr_1_66/278-4081297-7152119?s=toys&ie=UTF8&qid=1423704082&sr=1-66
http://www.amazon.fr/Ebulobo-Livre-Eveil-Louloup-30xcm/dp/B001JDAAGQ/ref=sr_1_288/278-4081297-7152119?s=toys&ie=UTF8&qid=1423704094&sr=1-288
http://www.amazon.fr/Disney-Rehausseur-Comfort-Hello-kitty/dp/B00HLZKN72/ref=sr_1_21/278-4081297-7152119?s=toys&ie=UTF8&qid=1423704080&sr=1-21
http://www.amazon.fr/Doudou-Compagnie-Celestine-Coffret-Prot%C3%A8ge/dp/B003FUMW76/ref=sr_1_37/278-4081297-7152119?s=toys&ie=UTF8&qid=1423704081&sr=1-37
http://www.amazon.fr/Jemini-21696-Peluche--Panth%C3%A8re-Rose/dp/B003C0WK4Y/ref=sr_1_101/278-4081297-7152119?s=toys&ie=UTF8&qid=1423704085&sr=1-101
http://www.amazon.fr/Disney-Peluche-Winnie-Brille-Dans/dp/B007HXS35M/ref=sr_1_25/278-4081297-7152119?s=toys&ie=UTF8&qid=1423704081&sr=1-25
http://www.amazon.fr/Clementoni-Minnie-Doudou-Lumineux-Musical/dp/B007W002WC/ref=sr_1_174/278-4081297-7152119?s=toys&ie=UTF8&qid=1423704089&sr=1-174
http://www.amazon.fr/Plaid-douceur-Blanc-Doudou-compagnie/dp/B007V2U910/ref=sr_1_325/278-4081297-7152119?s=toys&ie=UTF8&qid=1423704097&sr=1-325
http://www.amazon.fr/PELUCHE-POKEMON-TORTANK-BLASTOISE-30/dp/B00B4JPTCK/ref=sr_1_272/278-4081297-7152119?s=toys&ie=UTF8&qid=1423704094&sr=1-272
http://www.amazon.fr/Vulli-Doudou-Sophie-Girafe-Attache-sucette/dp/B0038JDAHU/ref=sr_1_149/278-4081297-7152119?s=toys&ie=UTF8&qid=1423704088&sr=1-149
http://www.amazon.fr/Peluche-eacute-Girafe-Doudou-Enfant/dp/B00OZOEU6W/ref=sr_1_259/278-4081297-7152119?s=toys&ie=UTF8&qid=1423704093&sr=1-259
http://www.amazon.fr/Vulli-Anneau-Dentition-Girafe-Peluche/dp/B00BEDAVGU/ref=sr_1_109/278-4081297-7152119?s=toys&ie=UTF8&qid=1423704085&sr=1-109
http://www.amazon.fr/NOUKIES-doudou-petite-vache-multicolore/dp/B007JO1Z3G/ref=sr_1_91/278-4081297-7152119?s=toys&ie=UTF8&qid=1423704084&sr=1-91
http://www.amazon.fr/LOOPING-PARC-90X90CM-BLACK-EMOTION/dp/B00496MOOQ/ref=sr_1_284/278-4081297-7152119?s=toys&ie=UTF8&qid=1423704094&sr=1-284
http://www.amazon.fr/AMTOYS-Doudou-tidou-victor-lucien/dp/B005S0D9XW/ref=sr_1_235/278-4081297-7152119?s=toys&ie=UTF8&qid=1423704091&sr=1-235
http://www.amazon.fr/Bellybutton-11712-90501-Peluche-Ours-Blanc/dp/B00EZGO89E/ref=sr_1_60/278-4081297-7152119?s=toys&ie=UTF8&qid=1423704082&sr=1-60
http://www.amazon.fr/Vulli-Coffret-Doudou-Anneaux-Dentition/dp/B00BEDAVVU/ref=sr_1_96/278-4081297-7152119?s=toys&ie=UTF8&qid=1423704084&sr=1-96
http://www.amazon.fr/Simba-Toys-Doudou-Assis-Billes/dp/B00E354KPO/ref=sr_1_255/278-4081297-7152119?s=toys&ie=UTF8&qid=1423704093&sr=1-255
http://www.amazon.fr/Vtech-129605-Premier-Apprend-shabiller/dp/B006LG6VPK/ref=sr_1_32/278-4081297-7152119?s=toys&ie=UTF8&qid=1423704081&sr=1-32
http://www.amazon.fr/Cabin-Max-roulettes-doreiller-voyager/dp/B008DRIP3Q/ref=sr_1_74/278-4081297-7152119?s=toys&ie=UTF8&qid=1423704084&sr=1-74
http://www.amazon.fr/Gipsy-Hochet-Smile-Chien-Bleu/dp/B00RMXA1L6/ref=sr_1_197/278-4081297-7152119?s=toys&ie=UTF8&qid=1423704090&sr=1-197
http://www.amazon.fr/Doudou-Compagnie-Lapin-Bonbon-Taupe/dp/B004VPSOMQ/ref=sr_1_36/278-4081297-7152119?s=toys&ie=UTF8&qid=1423704081&sr=1-36
http://www.amazon.fr/Corolle-Y3932-Doudou-Babicorolle-Fleur/dp/B00AGI9I7C/ref=sr_1_167/278-4081297-7152119?s=toys&ie=UTF8&qid=1423704088&sr=1-167
http://www.amazon.fr/Elli-Raff-Doudou-Girafe-peluche/dp/B004VWS55U/ref=sr_1_9/278-4081297-7152119?s=toys&ie=UTF8&qid=1423704080&sr=1-9
http://www.amazon.fr/Little-Bird-Told-Me-Papillon/dp/B003NQ3Y9M/ref=sr_1_156/278-4081297-7152119?s=toys&ie=UTF8&qid=1423704088&sr=1-156
http://www.amazon.fr/Playmobil-5490-Figurine-Femme-Chiots/dp/B00B3QT7JA/ref=sr_1_42/278-4081297-7152119?s=toys&ie=UTF8&qid=1423704081&sr=1-42
http://www.amazon.fr/Histoire-dours-HO1223-Marionnette-Ours/dp/B000Q6BRI2/ref=sr_1_191/278-4081297-7152119?s=toys&ie=UTF8&qid=1423704089&sr=1-191
http://www.amazon.fr/Moulin-Roty-Peluche-Musicale-Pachats/dp/B006C60U7Y/ref=sr_1_228/278-4081297-7152119?s=toys&ie=UTF8&qid=1423704091&sr=1-228
http://www.amazon.fr/Legs-Octopus-pink-violett-15cm/dp/B00HQDIK06/ref=sr_1_80/278-4081297-7152119?s=toys&ie=UTF8&qid=1423704084&sr=1-80
http://www.amazon.fr/Tomy-LC99473-Mon-Tapis-Rigoleau/dp/B004JUYUEY/ref=sr_1_155/278-4081297-7152119?s=toys&ie=UTF8&qid=1423704088&sr=1-155
http://www.amazon.fr/Corolle-M2221-Doudou-babi-Mademoiselle/dp/B0015CUQRE/ref=sr_1_115/278-4081297-7152119?s=toys&ie=UTF8&qid=1423704085&sr=1-115
http://www.amazon.fr/Noukies-Peluchette-El%C3%A9phant-Kali-15cm/dp/B003EMJQUG/ref=sr_1_332/278-4081297-7152119?s=toys&ie=UTF8&qid=1423704097&sr=1-332
http://www.amazon.fr/Together-pelnin014-Premier-Nintendo-Medium/dp/B005789LYG/ref=sr_1_88/278-4081297-7152119?s=toys&ie=UTF8&qid=1423704084&sr=1-88
http://www.amazon.fr/Corolle-Doudou-Babicorolle-Babipouce-Grenadine/dp/B00AGI9NOU/ref=sr_1_127/278-4081297-7152119?s=toys&ie=UTF8&qid=1423704087&sr=1-127
http://www.amazon.fr/D%C3%A9glingos-Peluche-Vache-Milkos-Original/dp/B002IJMSHE/ref=sr_1_280/278-4081297-7152119?s=toys&ie=UTF8&qid=1423704094&sr=1-280
http://www.amazon.fr/Vtech-Mon-Ourson-%C3%A0-Merveilles/dp/B009V9IPV2/ref=sr_1_2/278-4081297-7152119?s=toys&ie=UTF8&qid=1423704080&sr=1-2
http://www.amazon.fr/Ty-36035-Peanut-Elefant-15cm/dp/B004L0YV96/ref=sr_1_15/278-4081297-7152119?s=toys&ie=UTF8&qid=1423704080&sr=1-15
http://www.amazon.fr/Doudou-Compagnie-Poign%C3%A9e-Lapin-clair/dp/B00JTEMC18/ref=sr_1_279/278-4081297-7152119?s=toys&ie=UTF8&qid=1423704094&sr=1-279
http://www.amazon.fr/Ouaps-61019-Jouet-Premier-Cache/dp/B003Z6QHUI/ref=sr_1_69/278-4081297-7152119?s=toys&ie=UTF8&qid=1423704082&sr=1-69
http://www.amazon.fr/KOO-Interactive-Mouton-Peluche-Cadeau/dp/B003SZZ93M/ref=sr_1_111/278-4081297-7152119?s=toys&ie=UTF8&qid=1423704085&sr=1-111
http://www.amazon.fr/Clementoni-62287-0-Premier-Peluche-C%C3%A2lins/dp/B004HZYFKU/ref=sr_1_205/278-4081297-7152119?s=toys&ie=UTF8&qid=1423704090&sr=1-205
http://www.amazon.fr/Jemini-21878-Peluche-Hello-Kitty/dp/B003JTKUSQ/ref=sr_1_227/278-4081297-7152119?s=toys&ie=UTF8&qid=1423704091&sr=1-227
http://www.amazon.fr/Inatura-Doudou-Chauffant-Cherry-Belly/dp/B002G9TFKY/ref=sr_1_307/278-4081297-7152119?s=toys&ie=UTF8&qid=1423704096&sr=1-307
http://www.amazon.fr/Histoire-dours-Chine-Beige-Mod%C3%A8le/dp/B005TWI3V2/ref=sr_1_219/278-4081297-7152119?s=toys&ie=UTF8&qid=1423704091&sr=1-219
http://www.amazon.fr/Bubble-BUC06-Doudou-Teddy-Bear/dp/B00ER2E7WO/ref=sr_1_208/278-4081297-7152119?s=toys&ie=UTF8&qid=1423704090&sr=1-208
http://www.amazon.fr/John-Deere-Premier-Pousse-Tracteur/dp/B009PMLHDI/ref=sr_1_221/278-4081297-7152119?s=toys&ie=UTF8&qid=1423704091&sr=1-221
http://www.amazon.fr/Label-Doudou-Etiquettes-Friends-Z%C3%A8bre/dp/B008MWRN1W/ref=sr_1_81/278-4081297-7152119?s=toys&ie=UTF8&qid=1423704084&sr=1-81
http://www.amazon.fr/Looping-Chaise-Haute-T%C3%A9lescopique-Black/dp/B00DCQFHX4/ref=sr_1_79/278-4081297-7152119?s=toys&ie=UTF8&qid=1423704084&sr=1-79
http://www.amazon.fr/Doudou-Compagnie-Ours-Coton-20/dp/B005TWIK2Y/ref=sr_1_102/278-4081297-7152119?s=toys&ie=UTF8&qid=1423704085&sr=1-102
http://www.amazon.fr/Doudou-Compagnie-Pantin-Chouette-Brille/dp/B00IWCQRNC/ref=sr_1_40/278-4081297-7152119?s=toys&ie=UTF8&qid=1423704081&sr=1-40
http://www.amazon.fr/Doudou-et-Compagnie-Masque-Lion/dp/B009PPSNHS/ref=sr_1_223/278-4081297-7152119?s=toys&ie=UTF8&qid=1423704091&sr=1-223
http://www.amazon.fr/Histoire-dours-ZAnimoos-Lapin-Marius/dp/B0069121RY/ref=sr_1_110/278-4081297-7152119?s=toys&ie=UTF8&qid=1423704085&sr=1-110
http://www.amazon.fr/Tomy-Doudou-Toco-le-Toucan/dp/B00H9Y37QY/ref=sr_1_241/278-4081297-7152119?s=toys&ie=UTF8&qid=1423704093&sr=1-241
http://www.amazon.fr/G%C3%A9n%C3%A9rique-Le-Singe-Masqu%C3%A9-Volant/dp/B0015UU1V2/ref=sr_1_270/278-4081297-7152119?s=toys&ie=UTF8&qid=1423704094&sr=1-270
http://www.amazon.fr/Gipsy-Doudou-Veilleuse-Pomme-Chien/dp/B00BBPJDJW/ref=sr_1_172/278-4081297-7152119?s=toys&ie=UTF8&qid=1423704089&sr=1-172
http://www.amazon.fr/Doudou-Compagnie-BelOurs-Ivoire-25/dp/B00GMFWEY2/ref=sr_1_85/278-4081297-7152119?s=toys&ie=UTF8&qid=1423704084&sr=1-85
http://www.amazon.fr/Moulin-Roty-Doudou-Minoucha-Pachats/dp/B006C60SLC/ref=sr_1_120/278-4081297-7152119?s=toys&ie=UTF8&qid=1423704085&sr=1-120
http://www.amazon.fr/Disney-Planes-Exclusive-ISHANI-%C3%A9chelle/dp/B00D8DDKUS/ref=sr_1_243/278-4081297-7152119?s=toys&ie=UTF8&qid=1423704093&sr=1-243
http://www.amazon.fr/BABY-WALZ-Cheval-sauteur-sport-enfant/dp/B00005BAHT/ref=sr_1_103/278-4081297-7152119?s=toys&ie=UTF8&qid=1423704085&sr=1-103
http://www.amazon.fr/Tech-Deck-20042164-Accessoires-miniatures/dp/B0058UIUOK/ref=sr_1_135/278-4081297-7152119?s=toys&ie=UTF8&qid=1423704087&sr=1-135
http://www.amazon.fr/Disney-Tigrou-Peluche-Core-80/dp/B007NKCFVM/ref=sr_1_211/278-4081297-7152119?s=toys&ie=UTF8&qid=1423704090&sr=1-211
http://www.amazon.fr/Histoire-dours-CalinOurs-Beige-Grand/dp/B004BQDQQ4/ref=sr_1_277/278-4081297-7152119?s=toys&ie=UTF8&qid=1423704094&sr=1-277
http://www.amazon.fr/Jemini-021703-Peluche-Petit-Ours/dp/B002MASWQA/ref=sr_1_94/278-4081297-7152119?s=toys&ie=UTF8&qid=1423704084&sr=1-94
http://www.amazon.fr/KALOO-Peluche-Plume-Lapin-Indigo/dp/B007NNLIY4/ref=sr_1_92/278-4081297-7152119?s=toys&ie=UTF8&qid=1423704084&sr=1-92
http://www.amazon.fr/Disney-Doudou-MMCH-Core-Mickey/dp/B007Y32WSE/ref=sr_1_84/278-4081297-7152119?s=toys&ie=UTF8&qid=1423704084&sr=1-84
http://www.amazon.fr/Lamaze-LC27068-Capitaine-Calamar/dp/B002VWZU7S/ref=sr_1_7/278-4081297-7152119?s=toys&ie=UTF8&qid=1423704080&sr=1-7
http://www.amazon.fr/Zehui-marionnettes-doigt-Motif-animaux/dp/B00G42JF72/ref=sr_1_263/278-4081297-7152119?s=toys&ie=UTF8&qid=1423704093&sr=1-263
http://www.amazon.fr/Keel-Toys-65043-Premier-Peluche/dp/B008MVJ04Q/ref=sr_1_265/278-4081297-7152119?s=toys&ie=UTF8&qid=1423704094&sr=1-265
http://www.amazon.fr/PELUCHE-GEANTE-FROZEN-NEIGES-DISNEY/dp/B00L16QIYY/ref=sr_1_18/278-4081297-7152119?s=toys&ie=UTF8&qid=1423704080&sr=1-18
http://www.amazon.fr/Disney-5873662-Peluche-Frozen-Assis/dp/B00H7C3E5C/ref=sr_1_35/278-4081297-7152119?s=toys&ie=UTF8&qid=1423704081&sr=1-35
http://www.amazon.fr/Plants-Zombies-Talking-Peashooter-Peluche/dp/B00A8E5GI4/ref=sr_1_104/278-4081297-7152119?s=toys&ie=UTF8&qid=1423704085&sr=1-104
http://www.amazon.fr/Jellycat-Blossom-Bashful-Lapin-Peluche/dp/B004JFEQSO/ref=sr_1_237/278-4081297-7152119?s=toys&ie=UTF8&qid=1423704091&sr=1-237
http://www.amazon.fr/NOUKIES-doudou-dragon-Victoria-multicolore/dp/B007JO1URM/ref=sr_1_162/278-4081297-7152119?s=toys&ie=UTF8&qid=1423704088&sr=1-162
http://www.amazon.fr/Red-Kite-Twisty-Spiral-Activity/dp/B009G3KEYY/ref=sr_1_217/278-4081297-7152119?s=toys&ie=UTF8&qid=1423704091&sr=1-217
http://www.amazon.fr/Haba-3944-Poup%C3%83%C2%A9e-Clara/dp/B004HK39WU/ref=sr_1_268/278-4081297-7152119?s=toys&ie=UTF8&qid=1423704094&sr=1-268
http://www.amazon.fr/Disney-Fairies-Poup%C3%A9e-Mannequin-Zarina/dp/B00FG4AVCC/ref=sr_1_61/278-4081297-7152119?s=toys&ie=UTF8&qid=1423704082&sr=1-61
http://www.amazon.fr/Tomy-Forme-Couleur-Bella-Lapin/dp/B009Z4VYUC/ref=sr_1_123/278-4081297-7152119?s=toys&ie=UTF8&qid=1423704087&sr=1-123
http://www.amazon.fr/Playmaker-Toys-Grenouille-Volante-crie/dp/B000KK22SI/ref=sr_1_225/278-4081297-7152119?s=toys&ie=UTF8&qid=1423704091&sr=1-225
http://www.amazon.fr/Peppa-Maison-Poup%C3%A9e-Classe-Personnages/dp/B00B7H3L24/ref=sr_1_8/278-4081297-7152119?s=toys&ie=UTF8&qid=1423704080&sr=1-8
http://www.amazon.fr/Disney-Doudou-Cute-Minnie-23/dp/B00A7U05FS/ref=sr_1_68/278-4081297-7152119?s=toys&ie=UTF8&qid=1423704082&sr=1-68
http://www.amazon.fr/Disney-5873661-Peluche-Frozen-Debout/dp/B00H7CAO4G/ref=sr_1_87/278-4081297-7152119?s=toys&ie=UTF8&qid=1423704084&sr=1-87
http://www.amazon.fr/Chicco-000000906000000-Grenouille-Premi%C3%A8res-Activit%C3%A9s/dp/B004P4KNGI/ref=sr_1_216/278-4081297-7152119?s=toys&ie=UTF8&qid=1423704090&sr=1-216
http://www.amazon.fr/Lamaze-LC27026-Emilie-Mon-Amie/dp/B000I2Q0FO/ref=sr_1_33/278-4081297-7152119?s=toys&ie=UTF8&qid=1423704081&sr=1-33
http://www.amazon.fr/Disney-Tigrou-Peluche-Core-61/dp/B007Y32ULS/ref=sr_1_333/278-4081297-7152119?s=toys&ie=UTF8&qid=1423704097&sr=1-333
http://www.amazon.fr/Vtech-147255-Premier-Ourson-Personnaliser/dp/B00CM2HGOM/ref=sr_1_6/278-4081297-7152119?s=toys&ie=UTF8&qid=1423704080&sr=1-6
http://www.amazon.fr/Ty-Peppa-Grande-peluche-Papa/dp/B002TR0OZI/ref=sr_1_129/278-4081297-7152119?s=toys&ie=UTF8&qid=1423704087&sr=1-129
http://www.amazon.fr/Doudou-Compagnie-Lapin-Ecru-Marron/dp/B0084B0OXA/ref=sr_1_143/278-4081297-7152119?s=toys&ie=UTF8&qid=1423704087&sr=1-143
http://www.amazon.fr/Disney-Doudou-Mickey-Hint-Cord/dp/B00G2X2OG2/ref=sr_1_78/278-4081297-7152119?s=toys&ie=UTF8&qid=1423704084&sr=1-78
http://www.amazon.fr/D%C3%A9glingos-Doudou-Lapin-Baby-Lapinos/dp/B000WNLGIA/ref=sr_1_177/278-4081297-7152119?s=toys&ie=UTF8&qid=1423704089&sr=1-177
http://www.amazon.fr/Gipsy-Doudou-Baby-Bear-Rose/dp/B00BBPIY60/ref=sr_1_210/278-4081297-7152119?s=toys&ie=UTF8&qid=1423704090&sr=1-210
http://www.amazon.fr/Lamaze-Dee-le-Dragon/dp/B002VX0A40/ref=sr_1_50/278-4081297-7152119?s=toys&ie=UTF8&qid=1423704082&sr=1-50
http://www.amazon.fr/NOUKIES-doudou-Lucie-petite-jument/dp/B007JO1X7O/ref=sr_1_264/278-4081297-7152119?s=toys&ie=UTF8&qid=1423704093&sr=1-264
http://www.amazon.fr/Doudou-Compagnie-Nature-Ours/dp/B00FQPVUDK/ref=sr_1_252/278-4081297-7152119?s=toys&ie=UTF8&qid=1423704093&sr=1-252
http://www.amazon.fr/Doudou-souris-Jolis-Moulin-Roty/dp/B003IP6BJI/ref=sr_1_56/278-4081297-7152119?s=toys&ie=UTF8&qid=1423704082&sr=1-56
http://www.amazon.fr/Doudou-Compagnie-Chouette-Ca-Brille/dp/B0060AU3U6/ref=sr_1_118/278-4081297-7152119?s=toys&ie=UTF8&qid=1423704085&sr=1-118
http://www.amazon.fr/Kaloo-Doudou-Petit-Lapinou-Blanc/dp/B00BEHZMJ2/ref=sr_1_247/278-4081297-7152119?s=toys&ie=UTF8&qid=1423704093&sr=1-247
http://www.amazon.fr/Keel-Toys-Premier-Peluche-Labrador/dp/B0082PN2L4/ref=sr_1_199/278-4081297-7152119?s=toys&ie=UTF8&qid=1423704090&sr=1-199
http://www.amazon.fr/Doudou-Compagnie-C%C3%A9lestine-Album-Photos/dp/B005NHZH8K/ref=sr_1_299/278-4081297-7152119?s=toys&ie=UTF8&qid=1423704096&sr=1-299
http://www.amazon.fr/Legler-Chaufferette-%C2%ABSuricate%C2%BB/dp/B005UCVOBW/ref=sr_1_322/278-4081297-7152119?s=toys&ie=UTF8&qid=1423704097&sr=1-322
http://www.amazon.fr/Gipsy-Doudou-Petit-Musical-Souris/dp/B00BBPJ2LG/ref=sr_1_106/278-4081297-7152119?s=toys&ie=UTF8&qid=1423704085&sr=1-106
http://www.amazon.fr/Fisher-Price-BCG52-Monkey/dp/B00CN3RLNQ/ref=sr_1_144/278-4081297-7152119?s=toys&ie=UTF8&qid=1423704087&sr=1-144
http://www.amazon.fr/Corolle-Y3933-Doudou-Babicorolle-Grenadine/dp/B00B19XDL2/ref=sr_1_207/278-4081297-7152119?s=toys&ie=UTF8&qid=1423704090&sr=1-207
http://www.amazon.fr/LOiseau-Bateau-Luciole-princesse-Kimiko/dp/B009T8R2NC/ref=sr_1_261/278-4081297-7152119?s=toys&ie=UTF8&qid=1423704093&sr=1-261
http://www.amazon.fr/Teddy-peluche-T-Shirt-compris-manches/dp/B00O468P26/ref=sr_1_324/278-4081297-7152119?s=toys&ie=UTF8&qid=1423704097&sr=1-324
http://www.amazon.fr/Corolle-T4181-Doudou-Babicorolle-Babipouce/dp/B0032FPROO/ref=sr_1_168/278-4081297-7152119?s=toys&ie=UTF8&qid=1423704088&sr=1-168
http://www.amazon.fr/Lamaze-Cheery-le-Flamant-Rose/dp/B009Z4VR9K/ref=sr_1_141/278-4081297-7152119?s=toys&ie=UTF8&qid=1423704087&sr=1-141
http://www.amazon.fr/Simba-Toys-Doudou-Otarie-Beans/dp/B004R5QXWS/ref=sr_1_198/278-4081297-7152119?s=toys&ie=UTF8&qid=1423704090&sr=1-198
http://www.amazon.fr/Dodie-T%C3%A9tine-Col-Etroit-Deuxi%C3%A8me/dp/B00DW4NAT4/ref=sr_1_266/278-4081297-7152119?s=toys&ie=UTF8&qid=1423704094&sr=1-266
http://www.amazon.fr/Disney-Winnie-Peluche-Core-61/dp/B006R5FZPW/ref=sr_1_173/278-4081297-7152119?s=toys&ie=UTF8&qid=1423704089&sr=1-173
http://www.amazon.fr/Doudou-Compagnie-Collector-Peche-Menthe/dp/B00CDK5OP6/ref=sr_1_59/278-4081297-7152119?s=toys&ie=UTF8&qid=1423704082&sr=1-59
http://www.amazon.fr/Together-PELNIN005-Peluche-Nintendo-Bowser/dp/B004TS4N0W/ref=sr_1_117/278-4081297-7152119?s=toys&ie=UTF8&qid=1423704085&sr=1-117
http://www.amazon.fr/Aroma-Home-Bouillotte-amovible-Chouette/dp/B007PNV1Q2/ref=sr_1_72/278-4081297-7152119?s=toys&ie=UTF8&qid=1423704082&sr=1-72
http://www.amazon.fr/Lamaze-LC27142-Spirale-dactivit%C3%A9s/dp/B006I0R8II/ref=sr_1_62/278-4081297-7152119?s=toys&ie=UTF8&qid=1423704082&sr=1-62
http://www.amazon.fr/Moulin-Roty-Peluche-Musicale-Pachats/dp/B0091EW4CI/ref=sr_1_125/278-4081297-7152119?s=toys&ie=UTF8&qid=1423704087&sr=1-125
http://www.amazon.fr/Babymoov-A106301-Jungle-Doo-Singe/dp/B004A157ZI/ref=sr_1_328/278-4081297-7152119?s=toys&ie=UTF8&qid=1423704097&sr=1-328
http://www.amazon.fr/Vulli-Jeu-%C3%A9ducatif-premier-%C3%A2ge/dp/B0017XM41W/ref=sr_1_3/278-4081297-7152119?s=toys&ie=UTF8&qid=1423704080&sr=1-3
http://www.amazon.fr/Babyland-HOO-SNO-1-Intelex-Hooty-Snowy/dp/B0044FIH8E/ref=sr_1_147/278-4081297-7152119?s=toys&ie=UTF8&qid=1423704088&sr=1-147
http://www.amazon.fr/Looping-Transat-Balancelle-Arche-Black/dp/B00AYELYB6/ref=sr_1_196/278-4081297-7152119?s=toys&ie=UTF8&qid=1423704090&sr=1-196
http://www.amazon.fr/Vtech-136105-Mouton-1001-Chansons/dp/B007WBG8VA/ref=sr_1_293/278-4081297-7152119?s=toys&ie=UTF8&qid=1423704096&sr=1-293
http://www.amazon.fr/Chicco-Petit-Singe-Multi-Activit%C3%A9s/dp/B004P4O9AY/ref=sr_1_315/278-4081297-7152119?s=toys&ie=UTF8&qid=1423704097&sr=1-315
http://www.amazon.fr/Vulli-Doudou-Eyes-Touch-Sophie-Girafe/dp/B00GBVNXXS/ref=sr_1_194/278-4081297-7152119?s=toys&ie=UTF8&qid=1423704090&sr=1-194
http://www.amazon.fr/Clementoni-Mickey-Doudou-Lumineux-Musical/dp/B007W002LS/ref=sr_1_182/278-4081297-7152119?s=toys&ie=UTF8&qid=1423704089&sr=1-182
http://www.amazon.fr/Disney-5873660-Peluche-Frozen-Debout/dp/B00AHBUC8C/ref=sr_1_29/278-4081297-7152119?s=toys&ie=UTF8&qid=1423704081&sr=1-29
http://www.amazon.fr/Corolle-Y3938-Doudou-Babicorolle-Etoile/dp/B00AGI9L5Q/ref=sr_1_305/278-4081297-7152119?s=toys&ie=UTF8&qid=1423704096&sr=1-305
http://www.amazon.fr/D%C3%A9glingos-Doudou-Cochon-Baby-Jambonos/dp/B003EVGVQ4/ref=sr_1_90/278-4081297-7152119?s=toys&ie=UTF8&qid=1423704084&sr=1-90
http://www.amazon.fr/Peluche-bouillotte-micro-ondable-confortable-Lapin/dp/B00A41EDMG/ref=sr_1_130/278-4081297-7152119?s=toys&ie=UTF8&qid=1423704087&sr=1-130
http://www.amazon.fr/KALOO-Doudou-Plume-Lapin-Ciel/dp/B007EJ7J1I/ref=sr_1_107/278-4081297-7152119?s=toys&ie=UTF8&qid=1423704085&sr=1-107
http://www.amazon.fr/Inware-6200-Peluche-Licorne-Farah/dp/B00D1AWQ3K/ref=sr_1_297/278-4081297-7152119?s=toys&ie=UTF8&qid=1423704096&sr=1-297
http://www.amazon.fr/Doudou-Compagnie-Lapin-Celeste-DActivit%C3%A9s/dp/B00CDK5SJS/ref=sr_1_281/278-4081297-7152119?s=toys&ie=UTF8&qid=1423704094&sr=1-281
http://www.amazon.fr/Together-PELNIN004-Peluche-Nintendo-Mario/dp/B004TS4MVC/ref=sr_1_231/278-4081297-7152119?s=toys&ie=UTF8&qid=1423704091&sr=1-231
http://www.amazon.fr/Corolle-Doudou-Babicorolle-Grenadine-Couverture/dp/B00JA4TPJE/ref=sr_1_20/278-4081297-7152119?s=toys&ie=UTF8&qid=1423704080&sr=1-20
http://www.amazon.fr/Kaloo-Doudou-Lapin-Plume-Aqua/dp/B007EJ7J18/ref=sr_1_93/278-4081297-7152119?s=toys&ie=UTF8&qid=1423704084&sr=1-93
http://www.amazon.fr/Sauthon-Doudou-mouchoir-Lazare/dp/B00G7IMQ1A/ref=sr_1_213/278-4081297-7152119?s=toys&ie=UTF8&qid=1423704090&sr=1-213
http://www.amazon.fr/Disney-Planes-Exclusive-BULLDOG-%C3%A9chelle/dp/B00D8FQFV2/ref=sr_1_233/278-4081297-7152119?s=toys&ie=UTF8&qid=1423704091&sr=1-233
http://www.amazon.fr/JOUET-PELUCHE-ANIM%C3%89E-CHIEN-MARCHE/dp/B00CCCJ730/ref=sr_1_257/278-4081297-7152119?s=toys&ie=UTF8&qid=1423704093&sr=1-257
http://www.amazon.fr/Doudou-et-Compagnie-Marionnette-Cheval/dp/B00GWXS18C/ref=sr_1_86/278-4081297-7152119?s=toys&ie=UTF8&qid=1423704084&sr=1-86
http://www.amazon.fr/Doudou-Compagnie-Animaux-Graffitis-Violette/dp/B00IWCRKFG/ref=sr_1_273/278-4081297-7152119?s=toys&ie=UTF8&qid=1423704094&sr=1-273
http://www.amazon.fr/Disney-Doudou-Red-Dress-Minnie/dp/B00BLFXFA0/ref=sr_1_26/278-4081297-7152119?s=toys&ie=UTF8&qid=1423704081&sr=1-26
http://www.amazon.fr/Doudou-Compagnie-Ours-Collection-Marron/dp/B00900VLTU/ref=sr_1_138/278-4081297-7152119?s=toys&ie=UTF8&qid=1423704087&sr=1-138
http://www.amazon.fr/Doudou-Compagnie-Ours-Melis-Pantin/dp/B00IWCR95C/ref=sr_1_275/278-4081297-7152119?s=toys&ie=UTF8&qid=1423704094&sr=1-275
http://www.amazon.fr/Jemini-22050-Prot%C3%A8ge-Carnet-Sante/dp/B005FN2AO6/ref=sr_1_158/278-4081297-7152119?s=toys&ie=UTF8&qid=1423704088&sr=1-158
http://www.amazon.fr/Manhattan-Toy-Lanky-Cat-Mod%C3%A8le/dp/B000277ATA/ref=sr_1_48/278-4081297-7152119?s=toys&ie=UTF8&qid=1423704081&sr=1-48
http://www.amazon.fr/Aurora-Peluche-renard-20-cm/dp/B004T1MBSU/ref=sr_1_108/278-4081297-7152119?s=toys&ie=UTF8&qid=1423704085&sr=1-108
http://www.amazon.fr/Gipsy-Renard-Allonge-30-cm/dp/B005VMVZQ0/ref=sr_1_166/278-4081297-7152119?s=toys&ie=UTF8&qid=1423704088&sr=1-166
http://www.amazon.fr/Disney-Doudou-Minnie-G%C3%A9ante-127/dp/B00E35506C/ref=sr_1_334/278-4081297-7152119?s=toys&ie=UTF8&qid=1423704097&sr=1-334
http://www.amazon.fr/Gipsy-Carr%C3%A9-Doudou-Pomme-Fuchsia/dp/B00BBPJ1F8/ref=sr_1_65/278-4081297-7152119?s=toys&ie=UTF8&qid=1423704082&sr=1-65
http://www.amazon.fr/Tomy-LC27162-Doudou-Kalinou-Koalas/dp/B00H9Y8BGU/ref=sr_1_287/278-4081297-7152119?s=toys&ie=UTF8&qid=1423704094&sr=1-287
http://www.amazon.fr/PELUCHES-ELSA-REINE-NEIGES-FROZEN/dp/B00N9AHJR0/ref=sr_1_222/278-4081297-7152119?s=toys&ie=UTF8&qid=1423704091&sr=1-222
http://www.amazon.fr/Bawi-Doudou-Dada-de-Poche/dp/B00CPV95L2/ref=sr_1_161/278-4081297-7152119?s=toys&ie=UTF8&qid=1423704088&sr=1-161
http://www.amazon.fr/Titoutam-wz-TITTS0713A-Jungle-doudou-peluche/dp/B004UAF2Y0/ref=sr_1_301/278-4081297-7152119?s=toys&ie=UTF8&qid=1423704096&sr=1-301
http://www.amazon.fr/Noukies-William-Premi%C3%A8re-Couverture-Bleu/dp/B00F95FJ0M/ref=sr_1_321/278-4081297-7152119?s=toys&ie=UTF8&qid=1423704097&sr=1-321
http://www.amazon.fr/Jemini-21686-Peluche-Barbapapa/dp/B0041G4W4Y/ref=sr_1_292/278-4081297-7152119?s=toys&ie=UTF8&qid=1423704096&sr=1-292
http://www.amazon.fr/Souris-dent-de-lait-JPB/dp/B003EG71DQ/ref=sr_1_75/278-4081297-7152119?s=toys&ie=UTF8&qid=1423704084&sr=1-75
http://www.amazon.fr/Histoire-dours-Calinours-Marron-50/dp/B00441OSF4/ref=sr_1_313/278-4081297-7152119?s=toys&ie=UTF8&qid=1423704097&sr=1-313
http://www.amazon.fr/Manhattan-Toy-Fraggle-Rock-Peluche/dp/B003ESTV2I/ref=sr_1_189/278-4081297-7152119?s=toys&ie=UTF8&qid=1423704089&sr=1-189
http://www.amazon.fr/D%C3%A9glingos-Doudou-Chien-Baby-Nonos/dp/B002IJP72M/ref=sr_1_285/278-4081297-7152119?s=toys&ie=UTF8&qid=1423704094&sr=1-285
http://www.amazon.fr/Disney-I-889552m-D%C3%A9guisement-Classique-Storytime/dp/B00I9OGVNO/ref=sr_1_58/278-4081297-7152119?s=toys&ie=UTF8&qid=1423704082&sr=1-58
http://www.amazon.fr/Badabulle-B%C3%A9b%C3%A9-%C3%A0-Bord-Hibou/dp/B00BWKGOHA/ref=sr_1_31/278-4081297-7152119?s=toys&ie=UTF8&qid=1423704081&sr=1-31
http://www.amazon.fr/Disney-Veilleuse-Mickey-Glow-Dark/dp/B00DD3LA7S/ref=sr_1_34/278-4081297-7152119?s=toys&ie=UTF8&qid=1423704081&sr=1-34
http://www.amazon.fr/Skiphop-210209-Zoo-Sac-El%C3%A9phant/dp/B004U5FPXS/ref=sr_1_159/278-4081297-7152119?s=toys&ie=UTF8&qid=1423704088&sr=1-159
http://www.amazon.fr/Aurora-Peluche-lapin-20-cm/dp/B004T1MCDO/ref=sr_1_214/278-4081297-7152119?s=toys&ie=UTF8&qid=1423704090&sr=1-214
http://www.amazon.fr/Gipsy-Carr%C3%A9-Doudou-Pomme-Turquoise/dp/B00BBPJ1H6/ref=sr_1_54/278-4081297-7152119?s=toys&ie=UTF8&qid=1423704082&sr=1-54
http://www.amazon.fr/Pinky-Buddy-Schleiereule-pink-Large/dp/B00CM6Y1ZK/ref=sr_1_179/278-4081297-7152119?s=toys&ie=UTF8&qid=1423704089&sr=1-179
http://www.amazon.fr/Fisher-Price-Jouet-Bateau-Rigolo/dp/B00IYFBBP6/ref=sr_1_89/278-4081297-7152119?s=toys&ie=UTF8&qid=1423704084&sr=1-89
http://www.amazon.fr/Gipsy-Titus-Chien-%C3%A0-Fonction/dp/B005VMWYRO/ref=sr_1_165/278-4081297-7152119?s=toys&ie=UTF8&qid=1423704088&sr=1-165
http://www.amazon.fr/Doudou-Disney-Roi-Lion-Simba/dp/B005G48APW/ref=sr_1_230/278-4081297-7152119?s=toys&ie=UTF8&qid=1423704091&sr=1-230
http://www.amazon.fr/Doudou-et-Compagnie-Celestine/dp/B003FNIAO2/ref=sr_1_17/278-4081297-7152119?s=toys&ie=UTF8&qid=1423704080&sr=1-17
http://www.amazon.fr/Petit-jour-EL300B-Peluche-Elmer/dp/B0000XO2IS/ref=sr_1_70/278-4081297-7152119?s=toys&ie=UTF8&qid=1423704082&sr=1-70
http://www.amazon.fr/Jemini-Peluche-Petit-Ours-Brun/dp/B002J0NLTG/ref=sr_1_13/278-4081297-7152119?s=toys&ie=UTF8&qid=1423704080&sr=1-13
http://www.amazon.fr/Lilliputiens-Doudou-Marionnette-Hippopotame-Arnold/dp/B004S5TMLQ/ref=sr_1_242/278-4081297-7152119?s=toys&ie=UTF8&qid=1423704093&sr=1-242
http://www.amazon.fr/M%C3%A9chant-Minion-Licorne-Coussin-Peluche/dp/B00C2N7G1E/ref=sr_1_1/278-4081297-7152119?s=toys&ie=UTF8&qid=1423704080&sr=1-1
http://www.amazon.fr/Doudou-Compagnie-Lapin-Bonbon-Modele/dp/B00IWCR06U/ref=sr_1_30/278-4081297-7152119?s=toys&ie=UTF8&qid=1423704081&sr=1-30
http://www.amazon.fr/Hermann-Teddy-Collection-Peluche-90686/dp/B006QYL5G2/ref=sr_1_153/278-4081297-7152119?s=toys&ie=UTF8&qid=1423704088&sr=1-153
http://www.amazon.fr/Disney-Peluche-Minnie-Pretty-Pink/dp/B00G2X2MYG/ref=sr_1_209/278-4081297-7152119?s=toys&ie=UTF8&qid=1423704090&sr=1-209
http://www.amazon.fr/MOULIN-coffret-doudou-senteur-P%C3%A2querette/dp/B00FF5RKR6/ref=sr_1_142/278-4081297-7152119?s=toys&ie=UTF8&qid=1423704087&sr=1-142
http://www.amazon.fr/Tech-Deck-6013059-Premier-Starter/dp/B002BWDLT2/ref=sr_1_71/278-4081297-7152119?s=toys&ie=UTF8&qid=1423704082&sr=1-71
http://www.amazon.fr/Gipsy-Doudou-Noeud-Ours-Bleu/dp/B00BBPJ09U/ref=sr_1_323/278-4081297-7152119?s=toys&ie=UTF8&qid=1423704097&sr=1-323
http://www.amazon.fr/Plants-Zombies-Talking-Sunflower-Peluche/dp/B00A8E5GGG/ref=sr_1_326/278-4081297-7152119?s=toys&ie=UTF8&qid=1423704097&sr=1-326
http://www.amazon.fr/D%C3%A9glingos-Peluche-Hippopotame-Hippipos-Original/dp/B00BVSIMAK/ref=sr_1_160/278-4081297-7152119?s=toys&ie=UTF8&qid=1423704088&sr=1-160
http://www.amazon.fr/Gipsy-Carr%C3%A9-Doudou-Pomme-Souris/dp/B00BBPJ1GM/ref=sr_1_47/278-4081297-7152119?s=toys&ie=UTF8&qid=1423704081&sr=1-47
http://www.amazon.fr/Doudou-Compagnie-Mobile-Musical-C%C3%A9lestine/dp/B004UAF858/ref=sr_1_202/278-4081297-7152119?s=toys&ie=UTF8&qid=1423704090&sr=1-202
http://www.amazon.fr/Vtech-Jouet-1er-Age-Merveilles/dp/B00143YDX2/ref=sr_1_5/278-4081297-7152119?s=toys&ie=UTF8&qid=1423704080&sr=1-5
http://www.amazon.fr/Badabulle-B033006-Doudou-Fut/dp/B006J48UO4/ref=sr_1_320/278-4081297-7152119?s=toys&ie=UTF8&qid=1423704097&sr=1-320
http://www.amazon.fr/Fisher-Price-Doudou-Petit-Hippoclampe-Rose/dp/B002ECE5IU/ref=sr_1_16/278-4081297-7152119?s=toys&ie=UTF8&qid=1423704080&sr=1-16
http://www.amazon.fr/Trousselier-Ange-Lapin-Ivoire-30Cm/dp/B00864QHHC/ref=sr_1_218/278-4081297-7152119?s=toys&ie=UTF8&qid=1423704091&sr=1-218
http://www.amazon.fr/Vulli-Eveil-Sophie-Girafe-Peluche/dp/B002VDRZKW/ref=sr_1_39/278-4081297-7152119?s=toys&ie=UTF8&qid=1423704081&sr=1-39
http://www.amazon.fr/Peluche-Chat-23-Blanc-roux/dp/B00GLSWI1O/ref=sr_1_309/278-4081297-7152119?s=toys&ie=UTF8&qid=1423704096&sr=1-309
http://www.amazon.fr/Gipsy-Carr%C3%A9-Doudou-Pomme-Chien/dp/B00BBPJ0A4/ref=sr_1_304/278-4081297-7152119?s=toys&ie=UTF8&qid=1423704096&sr=1-304
http://www.amazon.fr/Doudou-Compagnie-Marionnette-Lapin-C%C3%A9lestine/dp/B0042L116A/ref=sr_1_53/278-4081297-7152119?s=toys&ie=UTF8&qid=1423704082&sr=1-53
http://www.amazon.fr/Corolle-Accessoire-Babicorolle-Anneau-Grenadine/dp/B00JA4TP26/ref=sr_1_23/278-4081297-7152119?s=toys&ie=UTF8&qid=1423704080&sr=1-23
http://www.amazon.fr/Disney-Doudou-Cute-Minnie-Musical/dp/B00A7U05H6/ref=sr_1_226/278-4081297-7152119?s=toys&ie=UTF8&qid=1423704091&sr=1-226
http://www.amazon.fr/Gipsy-Doudou-Baby-Bear-Bleu/dp/B00BBPIY5Q/ref=sr_1_239/278-4081297-7152119?s=toys&ie=UTF8&qid=1423704091&sr=1-239
http://www.amazon.fr/Gipsy-Carr%C3%A9-Doudou-Pomme-Ours/dp/B00BBPJ1HQ/ref=sr_1_100/278-4081297-7152119?s=toys&ie=UTF8&qid=1423704085&sr=1-100
http://www.amazon.fr/B%C3%A9b%C3%A9-Confort-34000135-B%C3%A9b%C3%A9confort-Peluche/dp/B00EWB1WTQ/ref=sr_1_133/278-4081297-7152119?s=toys&ie=UTF8&qid=1423704087&sr=1-133
http://www.amazon.fr/Kaloo-Doudou-Lilirose-Patapouf-Soleil/dp/B005A51STC/ref=sr_1_271/278-4081297-7152119?s=toys&ie=UTF8&qid=1423704094&sr=1-271
http://www.amazon.fr/Inware-7790-Jouet-Poussette-Spirale/dp/B00DN1B8TU/ref=sr_1_290/278-4081297-7152119?s=toys&ie=UTF8&qid=1423704096&sr=1-290
http://www.amazon.fr/Furreal-Friends-361221480-Jouet-deveil/dp/B0095T536I/ref=sr_1_187/278-4081297-7152119?s=toys&ie=UTF8&qid=1423704089&sr=1-187
http://www.amazon.fr/Bouillotte-s%C3%A8che-Peluche-Hibou-Rose/dp/B0089C1NA2/ref=sr_1_19/278-4081297-7152119?s=toys&ie=UTF8&qid=1423704080&sr=1-19
http://www.amazon.fr/NATTOU-doudou-Aliz%C3%A9e-multicolore/dp/B00HVXJC9E/ref=sr_1_258/278-4081297-7152119?s=toys&ie=UTF8&qid=1423704093&sr=1-258
http://www.amazon.fr/D%C3%A9glingos-Doudou-Hippopotame-Baby-Hippipos/dp/B00BVSIO44/ref=sr_1_253/278-4081297-7152119?s=toys&ie=UTF8&qid=1423704093&sr=1-253
http://www.amazon.fr/Trousselier-Lapin-Musical-Fleurs-Rouge/dp/B00AF9RX7O/ref=sr_1_267/278-4081297-7152119?s=toys&ie=UTF8&qid=1423704094&sr=1-267
http://www.amazon.fr/Disney-Doudou-Winnie-avec-Coussin/dp/B00DD3LD4S/ref=sr_1_134/278-4081297-7152119?s=toys&ie=UTF8&qid=1423704087&sr=1-134
http://www.amazon.fr/Figurine-Monsieur-Madame-Peluche-Princesse/dp/B009HI92IC/ref=sr_1_276/278-4081297-7152119?s=toys&ie=UTF8&qid=1423704094&sr=1-276
http://www.amazon.fr/Doudou-Compagnie-Marionnette-Pinou-Lapin/dp/B0016A029M/ref=sr_1_303/278-4081297-7152119?s=toys&ie=UTF8&qid=1423704096&sr=1-303
http://www.amazon.fr/Moi-Moche-M%C3%A9chant-Minion-Peluche/dp/B00JGPJ1IM/ref=sr_1_77/278-4081297-7152119?s=toys&ie=UTF8&qid=1423704084&sr=1-77
http://www.amazon.fr/Doudou-Compagnie-Chaussons-Cl%C3%A9mentine-Souris/dp/B00IWCR6NW/ref=sr_1_150/278-4081297-7152119?s=toys&ie=UTF8&qid=1423704088&sr=1-150
http://www.amazon.fr/Jemini-021708-Peluche-Petit-Ours/dp/B0046Y3DRS/ref=sr_1_184/278-4081297-7152119?s=toys&ie=UTF8&qid=1423704089&sr=1-184
http://www.amazon.fr/Trudi-22272-Husky-Marcus/dp/B000TR1KEO/ref=sr_1_310/278-4081297-7152119?s=toys&ie=UTF8&qid=1423704096&sr=1-310
http://www.amazon.fr/Disney-Doudou-MMCH-Core-Mickey/dp/B007Y32WOI/ref=sr_1_11/278-4081297-7152119?s=toys&ie=UTF8&qid=1423704080&sr=1-11
http://www.amazon.fr/Doudou-Compagnie-El%C3%A9phant-14-Cm/dp/B001FAWPFC/ref=sr_1_185/278-4081297-7152119?s=toys&ie=UTF8&qid=1423704089&sr=1-185
http://www.amazon.fr/Doudou-Compagnie-Agneau-Boite-Musique/dp/B00CDK19OQ/ref=sr_1_274/278-4081297-7152119?s=toys&ie=UTF8&qid=1423704094&sr=1-274
http://www.amazon.fr/Disney-Winnie-Peluche-Core-25/dp/B00BP66NCC/ref=sr_1_122/278-4081297-7152119?s=toys&ie=UTF8&qid=1423704087&sr=1-122
http://www.amazon.fr/Histoire-dours-Les-ZAnimoos-Pingouin/dp/B0069122DM/ref=sr_1_164/278-4081297-7152119?s=toys&ie=UTF8&qid=1423704088&sr=1-164
http://www.amazon.fr/Ebulobo-Doudou-R%C3%83%C2%A9versible-Louloup-Chaperon/dp/B004C9MN8C/ref=sr_1_317/278-4081297-7152119?s=toys&ie=UTF8&qid=1423704097&sr=1-317
http://www.amazon.fr/Manhattan-Toy-Fraggle-Rock-Peluche/dp/B003ET0E7I/ref=sr_1_152/278-4081297-7152119?s=toys&ie=UTF8&qid=1423704088&sr=1-152
http://www.amazon.fr/Fisher-Price-Doudou-Accroche-T%C3%A9tine-Lion/dp/B0081Z1QUE/ref=sr_1_224/278-4081297-7152119?s=toys&ie=UTF8&qid=1423704091&sr=1-224
http://www.amazon.fr/Gipsy-Accroche-T%C3%A9tine-Smile-Rouge/dp/B00RD2MTFW/ref=sr_1_176/278-4081297-7152119?s=toys&ie=UTF8&qid=1423704089&sr=1-176
http://www.amazon.fr/Au-Sycomore-MAST304-Coffret-Cochons/dp/B0057Y00AE/ref=sr_1_220/278-4081297-7152119?s=toys&ie=UTF8&qid=1423704091&sr=1-220
http://www.amazon.fr/Kaloo-Doudou-B%C3%A9b%C3%A9-Corail-Pochette/dp/B00BEHZPHQ/ref=sr_1_163/278-4081297-7152119?s=toys&ie=UTF8&qid=1423704088&sr=1-163
http://www.amazon.fr/Fisher-Price-Chiot-rires-%C3%A9veil-Puppy/dp/B000NJLTBW/ref=sr_1_113/278-4081297-7152119?s=toys&ie=UTF8&qid=1423704085&sr=1-113
http://www.amazon.fr/Baby-Nat-Doudou-Bazile-22/dp/B00B31UHOO/ref=sr_1_137/278-4081297-7152119?s=toys&ie=UTF8&qid=1423704087&sr=1-137
http://www.amazon.fr/Doudou-Compagnie-Boite-Musique-Blanc/dp/B007B7EGPK/ref=sr_1_27/278-4081297-7152119?s=toys&ie=UTF8&qid=1423704081&sr=1-27
http://www.amazon.fr/Disney-Doudou-MMCH-Core-Minnie/dp/B007Y32WQQ/ref=sr_1_52/278-4081297-7152119?s=toys&ie=UTF8&qid=1423704082&sr=1-52
http://www.amazon.fr/D%C3%A9glingos-Doudou-Chat-Baby-Charlos/dp/B00IPXL64I/ref=sr_1_151/278-4081297-7152119?s=toys&ie=UTF8&qid=1423704088&sr=1-151
http://www.amazon.fr/Doudou-Compagnie-PapouillOurs-Papouill-Agneau/dp/B00900VMTO/ref=sr_1_114/278-4081297-7152119?s=toys&ie=UTF8&qid=1423704085&sr=1-114
http://www.amazon.fr/Peluche-Marsupilami-Bibi-Bobo-Bibu-18/dp/B00CQLUTGG/ref=sr_1_201/278-4081297-7152119?s=toys&ie=UTF8&qid=1423704090&sr=1-201
http://www.amazon.fr/Sauthon-line-Maya-Doudous-Mouchoirs/dp/B00IF3XJGQ/ref=sr_1_282/278-4081297-7152119?s=toys&ie=UTF8&qid=1423704094&sr=1-282
http://www.amazon.fr/Manhattan-Toy-My-Snuggly-Patches/dp/B004QA1Y64/ref=sr_1_330/278-4081297-7152119?s=toys&ie=UTF8&qid=1423704097&sr=1-330
http://www.amazon.fr/TopPeppa-cochon-peluche-famille-George/dp/B00ONTAXUG/ref=sr_1_82/278-4081297-7152119?s=toys&ie=UTF8&qid=1423704084&sr=1-82
http://www.amazon.fr/Lamaze-LC27072-Prince-le-Poney/dp/B002VX3RCW/ref=sr_1_83/278-4081297-7152119?s=toys&ie=UTF8&qid=1423704084&sr=1-83
http://www.amazon.fr/Disney-5874771-Doudou-Minnie-Coussin/dp/B009F9MMYY/ref=sr_1_148/278-4081297-7152119?s=toys&ie=UTF8&qid=1423704088&sr=1-148
http://www.amazon.fr/Doudou-Compagnie-Lapin-Mouchoir-Bo%C3%AEte/dp/B000HZ8QYK/ref=sr_1_10/278-4081297-7152119?s=toys&ie=UTF8&qid=1423704080&sr=1-10
http://www.amazon.fr/Doudou-Broder-Point-Hochet-Coloris/dp/B00QAGBAAW/ref=sr_1_306/278-4081297-7152119?s=toys&ie=UTF8&qid=1423704096&sr=1-306
http://www.amazon.fr/Gund-Peluche-Tristan-tyrannosaure-35/dp/B00336EPTU/ref=sr_1_180/278-4081297-7152119?s=toys&ie=UTF8&qid=1423704089&sr=1-180
http://www.amazon.fr/Moi-Moche-M%C3%A9chant-Minion-Peluche/dp/B00JGPJ1I2/ref=sr_1_294/278-4081297-7152119?s=toys&ie=UTF8&qid=1423704096&sr=1-294
http://www.amazon.fr/Lilliputiens-Doudou-marionnette-Ecodoux-Clara/dp/B005F75DLE/ref=sr_1_316/278-4081297-7152119?s=toys&ie=UTF8&qid=1423704097&sr=1-316
http://www.amazon.fr/Kaloo-Plume-B%C3%A9b%C3%A9-Doudou-Naturel/dp/B007EJ7J4U/ref=sr_1_51/278-4081297-7152119?s=toys&ie=UTF8&qid=1423704082&sr=1-51
http://www.amazon.fr/Lilliputiens-Calendrier-Temps-Mauve-4747xcm/dp/B005UE55WO/ref=sr_1_121/278-4081297-7152119?s=toys&ie=UTF8&qid=1423704087&sr=1-121
http://www.amazon.fr/aden-anais-Doudou-Vache-Moonlight/dp/B00FED8XNY/ref=sr_1_170/278-4081297-7152119?s=toys&ie=UTF8&qid=1423704089&sr=1-170
http://www.amazon.fr/Vtech-166005-Peluche-Jos%C3%A9phine-C%C3%A2line/dp/B00QLPKZB2/ref=sr_1_105/278-4081297-7152119?s=toys&ie=UTF8&qid=1423704085&sr=1-105
http://www.amazon.fr/Tomy-Peluche-Doudou-Horace-Pirate/dp/B00HXBKTZK/ref=sr_1_234/278-4081297-7152119?s=toys&ie=UTF8&qid=1423704091&sr=1-234
http://www.amazon.fr/Gipsy-Doggy-Petit-Coeur-20/dp/B005VMVZ9M/ref=sr_1_169/278-4081297-7152119?s=toys&ie=UTF8&qid=1423704089&sr=1-169
http://www.amazon.fr/Noukies-Henry-Peluche-Medium-Orange/dp/B00F95FET8/ref=sr_1_302/278-4081297-7152119?s=toys&ie=UTF8&qid=1423704096&sr=1-302
http://www.amazon.fr/Fisher-Price-M8581-Doudou-Hippoclampe/dp/B00143UZCA/ref=sr_1_41/278-4081297-7152119?s=toys&ie=UTF8&qid=1423704081&sr=1-41
http://www.amazon.fr/Peluche-Barbapapa-Barbouille-18-cm/dp/B00IIPJEEM/ref=sr_1_256/278-4081297-7152119?s=toys&ie=UTF8&qid=1423704093&sr=1-256
http://www.amazon.fr/Pok%C3%A9mon-T71791-Premier-Peluche-Pikachu/dp/B005ZE8FDK/ref=sr_1_286/278-4081297-7152119?s=toys&ie=UTF8&qid=1423704094&sr=1-286
http://www.amazon.fr/KALOO-Peluche-Plume-Lapin-Lilas/dp/B007PKPOD6/ref=sr_1_260/278-4081297-7152119?s=toys&ie=UTF8&qid=1423704093&sr=1-260
http://www.amazon.fr/Kaloo-Doudou-Ours-Plume-Rose/dp/B007EJ7J3Q/ref=sr_1_269/278-4081297-7152119?s=toys&ie=UTF8&qid=1423704094&sr=1-269
http://www.amazon.fr/Doudou-Compagnie-Hippo-23-Cm/dp/B000VPNJ8O/ref=sr_1_64/278-4081297-7152119?s=toys&ie=UTF8&qid=1423704082&sr=1-64
http://www.amazon.fr/TChoupi-022067-Premier-Habillage-Ecolier/dp/B00533ZHK2/ref=sr_1_132/278-4081297-7152119?s=toys&ie=UTF8&qid=1423704087&sr=1-132
http://www.amazon.fr/dBb-Remond-R%C3%A9gulAir-Nouveau-N%C3%A9-Silicone/dp/B00AHEVST6/ref=sr_1_186/278-4081297-7152119?s=toys&ie=UTF8&qid=1423704089&sr=1-186
http://www.amazon.fr/Gipsy-Doudou-Bo%C3%AEte-Musique-Souris/dp/B00BBPJ5MM/ref=sr_1_298/278-4081297-7152119?s=toys&ie=UTF8&qid=1423704096&sr=1-298
http://www.amazon.fr/Cheri-Lot-Assortiment-marionnette-animales-doudoune/dp/B00FEAPM40/ref=sr_1_4/278-4081297-7152119?s=toys&ie=UTF8&qid=1423704080&sr=1-4
http://www.amazon.fr/Jemini-Peluche-Lapins-Cr%C3%A9tins-Bouche/dp/B0041G4WGC/ref=sr_1_244/278-4081297-7152119?s=toys&ie=UTF8&qid=1423704093&sr=1-244
http://www.amazon.fr/Disney-Doudou-Red-Dress-Minnie/dp/B00BXL08LG/ref=sr_1_46/278-4081297-7152119?s=toys&ie=UTF8&qid=1423704081&sr=1-46
http://www.amazon.fr/Babysun-Linge-Toilette-Chaussons-glisse/dp/B007GG8XCS/ref=sr_1_145/278-4081297-7152119?s=toys&ie=UTF8&qid=1423704088&sr=1-145
http://www.amazon.fr/Moulin-Roty-Doudou-Mouton-Jolis/dp/B00BKIY0VG/ref=sr_1_232/278-4081297-7152119?s=toys&ie=UTF8&qid=1423704091&sr=1-232
http://www.amazon.fr/aden-anais-Doudou-El%C3%A9phant-Moonlight/dp/B00FED8WIA/ref=sr_1_300/278-4081297-7152119?s=toys&ie=UTF8&qid=1423704096&sr=1-300
http://www.amazon.fr/Disney-Peluche-Comforter-Dress-Minnie/dp/B00BXFW4FA/ref=sr_1_131/278-4081297-7152119?s=toys&ie=UTF8&qid=1423704087&sr=1-131
http://www.amazon.fr/Doudou-Compagnie-Activit%C3%A9s-d%C3%A9veil-Coffret/dp/B004T1CO64/ref=sr_1_254/278-4081297-7152119?s=toys&ie=UTF8&qid=1423704093&sr=1-254
http://www.amazon.fr/AMTOYS-Prot%C3%A8ge-carnet-sant%C3%A9-victoria/dp/B007P60TD0/ref=sr_1_171/278-4081297-7152119?s=toys&ie=UTF8&qid=1423704089&sr=1-171
http://www.amazon.fr/Doudou-Compagnie-Marionnette-Ours-Fraise/dp/B000VPT7LC/ref=sr_1_291/278-4081297-7152119?s=toys&ie=UTF8&qid=1423704096&sr=1-291
http://www.amazon.fr/Chicco-00005317000000-Carillon-H%C3%A9risson/dp/B00AR92F8O/ref=sr_1_178/278-4081297-7152119?s=toys&ie=UTF8&qid=1423704089&sr=1-178
http://www.amazon.fr/Disney-Ensemble-figurines-Neiges-Kristoff/dp/B00FEQ3VFG/ref=sr_1_38/278-4081297-7152119?s=toys&ie=UTF8&qid=1423704081&sr=1-38
http://www.amazon.fr/Pioupiou-Merveilles-dEveil-Tableau-dActivit%C3%A9s/dp/B00ITDUVKO/ref=sr_1_327/278-4081297-7152119?s=toys&ie=UTF8&qid=1423704097&sr=1-327
http://www.amazon.fr/D%C3%A9glingos-Doudou-Baby-jambonos-cochon/dp/B003AO4A86/ref=sr_1_308/278-4081297-7152119?s=toys&ie=UTF8&qid=1423704096&sr=1-308
http://www.amazon.fr/Lamaze-Cube-%C3%A0-Poign%C3%A9e-Tissus/dp/B002WN2AMY/ref=sr_1_119/278-4081297-7152119?s=toys&ie=UTF8&qid=1423704085&sr=1-119
http://www.amazon.fr/Moulin-Roty-Doudou-Chien-Jolis/dp/B005MSMXMI/ref=sr_1_140/278-4081297-7152119?s=toys&ie=UTF8&qid=1423704087&sr=1-140
http://www.amazon.fr/Doudou-Compagnie-Tatoo-Lutin-Rose/dp/B00IWCQKRU/ref=sr_1_229/278-4081297-7152119?s=toys&ie=UTF8&qid=1423704091&sr=1-229
http://www.amazon.fr/Disney-5878553-Doudou-Sac-%C3%A0-Dos-Mickey/dp/B00AEULYPG/ref=sr_1_45/278-4081297-7152119?s=toys&ie=UTF8&qid=1423704081&sr=1-45
http://www.amazon.fr/Lamaze-LC27612-Cheery-lautruche/dp/B009Z4VRJA/ref=sr_1_57/278-4081297-7152119?s=toys&ie=UTF8&qid=1423704082&sr=1-57
http://www.amazon.fr/Lilliputiens-Rom%C3%A9o-Le-Crapaud-MangeTout/dp/B002ABAHHI/ref=sr_1_246/278-4081297-7152119?s=toys&ie=UTF8&qid=1423704093&sr=1-246
http://www.amazon.fr/Doudou-Cie-Jouet-Premier-Catchou/dp/B001E37NDO/ref=sr_1_251/278-4081297-7152119?s=toys&ie=UTF8&qid=1423704093&sr=1-251
http://www.amazon.fr/Vulli-Doudou-Mordiller-Sophie-Girafe/dp/B00BEDAY0I/ref=sr_1_248/278-4081297-7152119?s=toys&ie=UTF8&qid=1423704093&sr=1-248
http://www.amazon.fr/Anima-Peluche-Chinchilla-25-25xcm/dp/B00D484KOC/ref=sr_1_336/278-4081297-7152119?s=toys&ie=UTF8&qid=1423704097&sr=1-336
http://www.amazon.fr/Kaloo-Peluche-Petit-Plume-P%C3%AAche/dp/B00802LHK2/ref=sr_1_203/278-4081297-7152119?s=toys&ie=UTF8&qid=1423704090&sr=1-203
http://www.amazon.fr/Splash-Toys-30941-Peluche-Magicalin/dp/B00LGW51AK/ref=sr_1_14/278-4081297-7152119?s=toys&ie=UTF8&qid=1423704080&sr=1-14
http://www.amazon.fr/Pouf-enfants-Bambia-forme-dours/dp/B002YDZLKK/ref=sr_1_126/278-4081297-7152119?s=toys&ie=UTF8&qid=1423704087&sr=1-126
http://www.amazon.fr/VTech-80-118722-Vtech-Lapin-Cache-Cache/dp/B004DTSGOQ/ref=sr_1_139/278-4081297-7152119?s=toys&ie=UTF8&qid=1423704087&sr=1-139
http://www.amazon.fr/Lilliputiens-Doudou-Marionnette-Liz-21xcm/dp/B00FRTNKJC/ref=sr_1_289/278-4081297-7152119?s=toys&ie=UTF8&qid=1423704096&sr=1-289
http://www.amazon.fr/Lilliputiens-86245-Simon-H%C3%A9risson-D%C3%A9couverte/dp/B005UE5BNC/ref=sr_1_192/278-4081297-7152119?s=toys&ie=UTF8&qid=1423704089&sr=1-192
http://www.amazon.fr/Lamaze-LC27013A-Jacques-le-Paon/dp/B000I2MRLK/ref=sr_1_24/278-4081297-7152119?s=toys&ie=UTF8&qid=1423704080&sr=1-24
http://www.amazon.fr/Disney-Bourriquet-Peluche-Core-61/dp/B007Y32UMC/ref=sr_1_76/278-4081297-7152119?s=toys&ie=UTF8&qid=1423704084&sr=1-76
http://www.amazon.fr/Corolle-BKD23-Doudou-Babicorolle-Etoile/dp/B00IS93YTY/ref=sr_1_116/278-4081297-7152119?s=toys&ie=UTF8&qid=1423704085&sr=1-116
http://www.amazon.fr/Disney-Doudou-Winnie-Gid-15/dp/B00DD3LBM2/ref=sr_1_67/278-4081297-7152119?s=toys&ie=UTF8&qid=1423704082&sr=1-67
http://www.amazon.fr/Disney-Doudou-Peluche-Nemo-25/dp/B0093KZ05S/ref=sr_1_335/278-4081297-7152119?s=toys&ie=UTF8&qid=1423704097&sr=1-335
http://www.amazon.fr/Keel-Toys-65059-Premier-Peluche/dp/B0082LJESS/ref=sr_1_28/278-4081297-7152119?s=toys&ie=UTF8&qid=1423704081&sr=1-28
http://www.amazon.fr/Keel-Toys-Premier-Peluche-Westie/dp/B0082P3480/ref=sr_1_215/278-4081297-7152119?s=toys&ie=UTF8&qid=1423704090&sr=1-215
http://www.amazon.fr/Noukies-N1272-19-Doudou-Pieuvre-Calypso/dp/B009FVOLPU/ref=sr_1_146/278-4081297-7152119?s=toys&ie=UTF8&qid=1423704088&sr=1-146
http://www.amazon.fr/GLOBE-TROTOYS-45500-Mistinguettes-Paulette/dp/B00FAMTUUY/ref=sr_1_236/278-4081297-7152119?s=toys&ie=UTF8&qid=1423704091&sr=1-236
http://www.amazon.fr/Ty-Beanie-Owliver-Hibou-Peluche/dp/B00L392QKE/ref=sr_1_136/278-4081297-7152119?s=toys&ie=UTF8&qid=1423704087&sr=1-136
http://www.amazon.fr/Doudou-Compagnie-Pantin-Agneau-Modele/dp/B00CDK198C/ref=sr_1_183/278-4081297-7152119?s=toys&ie=UTF8&qid=1423704089&sr=1-183
http://www.amazon.fr/Rainbow-Designs-RD0685-Enorme-crocodile/dp/B002BITIKM/ref=sr_1_319/278-4081297-7152119?s=toys&ie=UTF8&qid=1423704097&sr=1-319
http://www.amazon.fr/Disney-Peluche-Doc-McStuffin-50/dp/B00BLFXD8O/ref=sr_1_55/278-4081297-7152119?s=toys&ie=UTF8&qid=1423704082&sr=1-55
http://www.amazon.fr/Gipsy-Doudou-Noeud-Ours-Blanc/dp/B00BBPJ0E0/ref=sr_1_312/278-4081297-7152119?s=toys&ie=UTF8&qid=1423704096&sr=1-312
http://www.amazon.fr/ABSORBA-PUERICULTURE-Peluche-Octave-Absorba/dp/B00O800UWG/ref=sr_1_206/278-4081297-7152119?s=toys&ie=UTF8&qid=1423704090&sr=1-206
http://www.amazon.fr/Disney-Dumbo-Peluche-Mini-Doudou/dp/B00AEULQ3Q/ref=sr_1_98/278-4081297-7152119?s=toys&ie=UTF8&qid=1423704085&sr=1-98
http://www.amazon.fr/Lilliputiens-86138-Doudou-Marionnette-Clara/dp/B005S17MFC/ref=sr_1_200/278-4081297-7152119?s=toys&ie=UTF8&qid=1423704090&sr=1-200
http://www.amazon.fr/Babynat-Doudous-Peluches-Pantin-mouchoir/dp/B00FLWD8XS/ref=sr_1_329/278-4081297-7152119?s=toys&ie=UTF8&qid=1423704097&sr=1-329
http://www.amazon.fr/Vulli-Doudou-Althir-le-Compagnon/dp/B00DGVNGG0/ref=sr_1_212/278-4081297-7152119?s=toys&ie=UTF8&qid=1423704090&sr=1-212
http://www.amazon.fr/Disney-5871700-Doudou-Rembourr%C3%A9-Bambi/dp/B004V6V36E/ref=sr_1_311/278-4081297-7152119?s=toys&ie=UTF8&qid=1423704096&sr=1-311
