http://www.amazon.fr/Babymoov-Recharges-100-Sacs-Hygi%C3%A9niques/dp/B000VAI54W/ref=sr_1_10/277-8904350-6057341?s=baby&ie=UTF8&qid=1423704106&sr=1-10
http://www.amazon.fr/Bellemont-Pot-dapprentissage-Rouge-Framboise/dp/B009YDKWPC/ref=sr_1_40/277-8904350-6057341?s=baby&ie=UTF8&qid=1423704107&sr=1-40
http://www.amazon.fr/Beaba-Pot-B%C3%A9b%C3%A9-Poudr%C3%A9-Bleu/dp/B003781LVE/ref=sr_1_5/277-8904350-6057341?s=baby&ie=UTF8&qid=1423704106&sr=1-5
http://www.amazon.fr/Jane-Inc-40306-Pot-Musical/dp/B004UCG3Q4/ref=sr_1_13/277-8904350-6057341?s=baby&ie=UTF8&qid=1423704106&sr=1-13
http://www.amazon.fr/BABY-WALZ-pour-enfant-SITZFRITZ-toilettes/dp/B00J234TAI/ref=sr_1_35/277-8904350-6057341?s=baby&ie=UTF8&qid=1423704107&sr=1-35
http://www.amazon.fr/COUVERCLE-ANTI-ODEUR-TRANSPORT-SATISFAIT-REMBOURS%C3%89/dp/B00IGRMB3I/ref=sr_1_46/277-8904350-6057341?s=baby&ie=UTF8&qid=1423704107&sr=1-46
http://www.amazon.fr/COUVERCLE-ANTI-ODEUR-TRANSPORT-SATISFAIT-REMBOURS%C3%89/dp/B00IGRMAQQ/ref=sr_1_12/277-8904350-6057341?s=baby&ie=UTF8&qid=1423704106&sr=1-12
http://www.amazon.fr/Babysun-Nursery-%C3%A9volutif-Toily-Bleu/dp/B002FABGIS/ref=sr_1_29/277-8904350-6057341?s=baby&ie=UTF8&qid=1423704107&sr=1-29
http://www.amazon.fr/Fisher-Price-Toilette-b%C3%A9b%C3%A9-Royal-Estrade/dp/B000YS05AI/ref=sr_1_47/277-8904350-6057341?s=baby&ie=UTF8&qid=1423704107&sr=1-47
http://www.amazon.fr/Babysun-Nursery-Pot-Evolutif-Toily/dp/B006QWKHGI/ref=sr_1_19/277-8904350-6057341?s=baby&ie=UTF8&qid=1423704106&sr=1-19
http://www.amazon.fr/Reer-Toilette-B%C3%A9b%C3%A9-Enfant-Marine/dp/B002R5ABM8/ref=sr_1_6/277-8904350-6057341?s=baby&ie=UTF8&qid=1423704106&sr=1-6
http://www.amazon.fr/Plastorex-Pot-Pieds-Antid%C3%A9rapants-D%C3%A9cor/dp/B0076E93M4/ref=sr_1_33/277-8904350-6057341?s=baby&ie=UTF8&qid=1423704107&sr=1-33
http://www.amazon.fr/Piso-Pot-R%C3%A9ducteur-de-Si%C3%A8ge/dp/B00JOH9YGG/ref=sr_1_45/277-8904350-6057341?s=baby&ie=UTF8&qid=1423704107&sr=1-45
http://www.amazon.fr/Tigex-Collexion-Anatomy-Chaudron-Cuvette/dp/B00H8LC24Q/ref=sr_1_22/277-8904350-6057341?s=baby&ie=UTF8&qid=1423704106&sr=1-22
http://www.amazon.fr/BabyBj%C3%B6rn-55125-Babybj%C3%B6rn-Fauteuil-Gris/dp/B005LFLMGA/ref=sr_1_4/277-8904350-6057341?s=baby&ie=UTF8&qid=1423704106&sr=1-4
http://www.amazon.fr/Rotho-Babydesign-Pot-S%C3%A9rigraphie-Gamme/dp/B00G4CNFA0/ref=sr_1_36/277-8904350-6057341?s=baby&ie=UTF8&qid=1423704107&sr=1-36
http://www.amazon.fr/Dotbaby-Pot-B%C3%A9b%C3%A9-Dot-pot-Gris/dp/B0073QI4T8/ref=sr_1_38/277-8904350-6057341?s=baby&ie=UTF8&qid=1423704107&sr=1-38
http://www.amazon.fr/Tomy-Y9908-Minnie-Mouse-Potty/dp/B0089WL3FM/ref=sr_1_2/277-8904350-6057341?s=baby&ie=UTF8&qid=1423704106&sr=1-2
http://www.amazon.fr/ComfyDo-Portable-Voyage-Toilette-Oc%C3%A9an/dp/B00BEF9DU8/ref=sr_1_31/277-8904350-6057341?s=baby&ie=UTF8&qid=1423704107&sr=1-31
http://www.amazon.fr/Tippitoes-PV3-Si%C3%A8ge-Toilette-Blanc/dp/B0099KDK0Y/ref=sr_1_43/277-8904350-6057341?s=baby&ie=UTF8&qid=1423704107&sr=1-43
http://www.amazon.fr/Fisher-Price-Petit-Pot-Canard/dp/B003TO2CC8/ref=sr_1_24/277-8904350-6057341?s=baby&ie=UTF8&qid=1423704106&sr=1-24
http://www.amazon.fr/Vital-Innovation-Si%C3%A8ge-pot-de-Luxe/dp/B003TW5858/ref=sr_1_1/277-8904350-6057341?s=baby&ie=UTF8&qid=1423704106&sr=1-1
http://www.amazon.fr/Fisher-Price-P4326-0-Pot-premi%C3%A8res-Toilettes/dp/B001KQ0UI0/ref=sr_1_20/277-8904350-6057341?s=baby&ie=UTF8&qid=1423704106&sr=1-20
http://www.amazon.fr/Babysun-Nursery-Baby-Amovible-Taupe/dp/B009Y67MGG/ref=sr_1_44/277-8904350-6057341?s=baby&ie=UTF8&qid=1423704107&sr=1-44
http://www.amazon.fr/COUVERCLE-ANTI-ODEUR-RESERVOIR-DETACHABLE-SATISFAIT/dp/B00JY8RV7O/ref=sr_1_16/277-8904350-6057341?s=baby&ie=UTF8&qid=1423704106&sr=1-16
http://www.amazon.fr/Plastorex-Vase-Nuit-Pieds-Antid%C3%A9rapants/dp/B005IYIGR2/ref=sr_1_23/277-8904350-6057341?s=baby&ie=UTF8&qid=1423704106&sr=1-23
http://www.amazon.fr/Plastorex-Pot-Antid%C3%A9rapant-D%C3%A9cor%C3%A9-Rouge/dp/B00OW5F87Y/ref=sr_1_34/277-8904350-6057341?s=baby&ie=UTF8&qid=1423704107&sr=1-34
http://www.amazon.fr/Vital-Innovation-Pot-Luxe-Argent/dp/B002CI1DDG/ref=sr_1_7/277-8904350-6057341?s=baby&ie=UTF8&qid=1423704106&sr=1-7
http://www.amazon.fr/B%C3%A9b%C3%A9-Confort-Multi-confort-Sweet-Sorbet/dp/B002FA97HU/ref=sr_1_8/277-8904350-6057341?s=baby&ie=UTF8&qid=1423704106&sr=1-8
http://www.amazon.fr/Reer-Toilette-B%C3%A9b%C3%A9-Enfant-Mauve/dp/B002R5ABMI/ref=sr_1_9/277-8904350-6057341?s=baby&ie=UTF8&qid=1423704106&sr=1-9
http://www.amazon.fr/B%C3%A9b%C3%A9-jou-Potty-Trainer-Petit-Hauteurs/dp/B00ASHX5W0/ref=sr_1_42/277-8904350-6057341?s=baby&ie=UTF8&qid=1423704107&sr=1-42
http://www.amazon.fr/Pourty-P1W-Pot-hygi%C3%A9nique-Blanc/dp/B0038JZBH2/ref=sr_1_25/277-8904350-6057341?s=baby&ie=UTF8&qid=1423704107&sr=1-25
http://www.amazon.fr/Babycalin-Pot-B%C3%A9b%C3%A9-Ecru-29/dp/B00FYJ3QWG/ref=sr_1_39/277-8904350-6057341?s=baby&ie=UTF8&qid=1423704107&sr=1-39
http://www.amazon.fr/Potette-Plus-Pot-Plu-Lin-sachets-portatif/dp/B004KAAPHY/ref=sr_1_48/277-8904350-6057341?s=baby&ie=UTF8&qid=1423704107&sr=1-48
http://www.amazon.fr/dBb-Remond-B%C3%A9b%C3%A9-%C3%89ducatif-Musical/dp/B001IZ23VK/ref=sr_1_41/277-8904350-6057341?s=baby&ie=UTF8&qid=1423704107&sr=1-41
http://www.amazon.fr/Reer-Toilette-B%C3%A9b%C3%A9-Enfant-Blanc/dp/B002R5ABLY/ref=sr_1_28/277-8904350-6057341?s=baby&ie=UTF8&qid=1423704107&sr=1-28
http://www.amazon.fr/COUVERCLE-ANTI-ODEUR-RESERVOIR-DETACHABLE-SATISFAIT/dp/B00JYAH8Z2/ref=sr_1_21/277-8904350-6057341?s=baby&ie=UTF8&qid=1423704106&sr=1-21
http://www.amazon.fr/Plastorex-Pot-Antid%C3%A9rapants-Disney-Minnie/dp/B00BM2A0HI/ref=sr_1_30/277-8904350-6057341?s=baby&ie=UTF8&qid=1423704107&sr=1-30
http://www.amazon.fr/dBb-Remond-B%C3%A9b%C3%A9-avec-Volant/dp/B0035RQUQS/ref=sr_1_32/277-8904350-6057341?s=baby&ie=UTF8&qid=1423704107&sr=1-32
http://www.amazon.fr/BabyBj%C3%B6rn-51025-Babybj%C3%B6rn-Smart-Gris/dp/B005LFLMNI/ref=sr_1_11/277-8904350-6057341?s=baby&ie=UTF8&qid=1423704106&sr=1-11
http://www.amazon.fr/Chaise-chambre-Disney-Dimension-Plastique/dp/B006H6YOPI/ref=sr_1_27/277-8904350-6057341?s=baby&ie=UTF8&qid=1423704107&sr=1-27
http://www.amazon.fr/Plastorex-Pot-Antid%C3%A9rapants-Disney-Mickey/dp/B00CEBZZPI/ref=sr_1_14/277-8904350-6057341?s=baby&ie=UTF8&qid=1423704106&sr=1-14
http://www.amazon.fr/Fisher-Price-P4324-Pot/dp/B001QCY4LC/ref=sr_1_18/277-8904350-6057341?s=baby&ie=UTF8&qid=1423704106&sr=1-18
http://www.amazon.fr/BABY-WALZ-Si%C3%A8ge-Deluxe-Grenouille-toilettes/dp/B003IBLBF6/ref=sr_1_17/277-8904350-6057341?s=baby&ie=UTF8&qid=1423704106&sr=1-17
http://www.amazon.fr/Tigex-Pots-Conservation-Lait-Maternel/dp/B004DZODJM/ref=sr_1_26/277-8904350-6057341?s=baby&ie=UTF8&qid=1423704107&sr=1-26
http://www.amazon.fr/Tomy-First-Years-Sonore-Mickey/dp/B008HRJKEU/ref=sr_1_3/277-8904350-6057341?s=baby&ie=UTF8&qid=1423704106&sr=1-3
http://www.amazon.fr/MCP-Apprentissage-Propret%C3%A9-Pot-Voyage-Carry-Potty/dp/B00MBFUXIQ/ref=sr_1_37/277-8904350-6057341?s=baby&ie=UTF8&qid=1423704107&sr=1-37
http://www.amazon.fr/Tomy-Sonore-Nouvelle-G%C3%A9n%C3%A9ration-Jaune/dp/B008QFXO1S/ref=sr_1_15/277-8904350-6057341?s=baby&ie=UTF8&qid=1423704106&sr=1-15
