http://www.amazon.fr/B%C3%A9b%C3%A9-Confort-Thermometre-Tortue-Positives/dp/B009ETBKEI/ref=sr_1_11/277-8650144-3879110?s=baby&ie=UTF8&qid=1423704198&sr=1-11
http://www.amazon.fr/Babymoov-A037403-Thermom%C3%A8tre-Hygrom%C3%A8tre/dp/B005M0ISG6/ref=sr_1_6/277-8650144-3879110?s=baby&ie=UTF8&qid=1423704198&sr=1-6
http://www.amazon.fr/Tommee-Tippee-Thermom%C3%A8tre-Auriculaire-Num%C3%A9rique/dp/B005K7KQD4/ref=sr_1_20/277-8650144-3879110?s=baby&ie=UTF8&qid=1423704198&sr=1-20
http://www.amazon.fr/Beaba-Thermom%C3%A8tre-Bain-Lotus-Poudr%C3%A9/dp/B00E9RUQJU/ref=sr_1_4/277-8650144-3879110?s=baby&ie=UTF8&qid=1423704198&sr=1-4
http://www.amazon.fr/Safety-1st-Thermometre-De-Douche/dp/B009ETBPFC/ref=sr_1_7/277-8650144-3879110?s=baby&ie=UTF8&qid=1423704198&sr=1-7
http://www.amazon.fr/Reer-Thermom%C3%A8tre-Bain-Forme-Grenouille/dp/B00133FDKK/ref=sr_1_15/277-8650144-3879110?s=baby&ie=UTF8&qid=1423704198&sr=1-15
http://www.amazon.fr/Thermom%C3%A8tre-bain-poisson-bleu-King/dp/B00CUCLJL0/ref=sr_1_23/277-8650144-3879110?s=baby&ie=UTF8&qid=1423704198&sr=1-23
http://www.amazon.fr/Beaba-Mini-Thermom%C3%A8tre-Infrarouge-Multifonctions/dp/B00G6DBWUW/ref=sr_1_9/277-8650144-3879110?s=baby&ie=UTF8&qid=1423704198&sr=1-9
http://www.amazon.fr/B%C3%A9b%C3%A9-Confort-Thermometre-Electronique-Grenouille/dp/B003XMWILQ/ref=sr_1_13/277-8650144-3879110?s=baby&ie=UTF8&qid=1423704198&sr=1-13
http://www.amazon.fr/Beaba-Thermom%C3%A8tre-Bain-Poudr%C3%A9-Rose/dp/B00E9RUGGI/ref=sr_1_10/277-8650144-3879110?s=baby&ie=UTF8&qid=1423704198&sr=1-10
http://www.amazon.fr/Tigex-Collexion-Thermom%C3%A8tre-de-Douche/dp/B00H8MW0LA/ref=sr_1_21/277-8650144-3879110?s=baby&ie=UTF8&qid=1423704198&sr=1-21
http://www.amazon.fr/thermometre-poisson-marque-alteximex-coloris/dp/B007SGVX14/ref=sr_1_16/277-8650144-3879110?s=baby&ie=UTF8&qid=1423704198&sr=1-16
http://www.amazon.fr/Tigex-Thermom%C3%A8tre-de-Bain-Dauphins/dp/B000NN1SJQ/ref=sr_1_1/277-8650144-3879110?s=baby&ie=UTF8&qid=1423704198&sr=1-1
http://www.amazon.fr/Badabulle-Thermom%C3%A8tre-de-Bain-Hibou/dp/B00I2M36OK/ref=sr_1_2/277-8650144-3879110?s=baby&ie=UTF8&qid=1423704198&sr=1-2
http://www.amazon.fr/SODIAL-Thermometre-forme-tigre-Orange/dp/B005CTJ26W/ref=sr_1_12/277-8650144-3879110?s=baby&ie=UTF8&qid=1423704198&sr=1-12
http://www.amazon.fr/dBb-Remond-Thermom%C3%A8tre-Bain-Poisson/dp/B000WH1ASM/ref=sr_1_14/277-8650144-3879110?s=baby&ie=UTF8&qid=1423704198&sr=1-14
http://www.amazon.fr/Reer-2498-Thermom%C3%A8tre-Forme-Grenouille/dp/B00133L0EI/ref=sr_1_22/277-8650144-3879110?s=baby&ie=UTF8&qid=1423704198&sr=1-22
http://www.amazon.fr/Vulli-Pu%C3%A9riculture-Thermom%C3%A8tre-Sophie-Girafe/dp/B0017XM40S/ref=sr_1_8/277-8650144-3879110?s=baby&ie=UTF8&qid=1423704198&sr=1-8
http://www.amazon.fr/Philips-Avent-Thermom%C3%A8tre-Num%C3%A9rique-Chambre-Norme/dp/B000279W00/ref=sr_1_3/277-8650144-3879110?s=baby&ie=UTF8&qid=1423704198&sr=1-3
http://www.amazon.fr/B%C3%A9b%C3%A9-Confort-Thermometre-Tortue-Positives/dp/B009ETBJUS/ref=sr_1_5/277-8650144-3879110?s=baby&ie=UTF8&qid=1423704198&sr=1-5
http://www.amazon.fr/Tigex-101255-Thermom%C3%A8tre-de-Bain/dp/B000NJWPKG/ref=sr_1_24/277-8650144-3879110?s=baby&ie=UTF8&qid=1423704198&sr=1-24
http://www.amazon.fr/LBS-Medical-comprenant-Thermometre-Electronique/dp/B001MSWWOQ/ref=sr_1_18/277-8650144-3879110?s=baby&ie=UTF8&qid=1423704198&sr=1-18
http://www.amazon.fr/TopCom-Baby-Bath-Thermometer-200/dp/B006O7C006/ref=sr_1_19/277-8650144-3879110?s=baby&ie=UTF8&qid=1423704198&sr=1-19
http://www.amazon.fr/Luma-OL220-01-Thermom%C3%A8tre-de-Bain/dp/B004WZGHGA/ref=sr_1_17/277-8650144-3879110?s=baby&ie=UTF8&qid=1423704198&sr=1-17
