http://www.amazon.fr/B%C3%A9b%C3%A9-M%C3%A9langeur-Pour-Pr%C3%A9parer-Repas/dp/B00ID4MQM0/ref=sr_1_146/275-9671868-1230208?s=baby&ie=UTF8&qid=1423701341&sr=1-146
http://www.amazon.fr/B%C3%A9aba-912121-Beaba-Babycook--Balance/dp/B003O99NVG/ref=sr_1_50/275-9671868-1230208?s=baby&ie=UTF8&qid=1423701337&sr=1-50
http://www.amazon.fr/D%C3%A9lices-Fromage-blanc-nature-4x100g/dp/B00D3TZ2T4/ref=sr_1_157/275-9671868-1230208?s=baby&ie=UTF8&qid=1423701341&sr=1-157
http://www.amazon.fr/Robot-cuiseur-B%C3%A9b%C3%A9d%C3%A9lice-babymoov-limited/dp/B00118THB8/ref=sr_1_183/275-9671868-1230208?s=baby&ie=UTF8&qid=1423701342&sr=1-183
http://www.amazon.fr/Reer-1911-Mini-Mixer-Fruity/dp/B002BDU8UG/ref=sr_1_163/275-9671868-1230208?s=baby&ie=UTF8&qid=1423701341&sr=1-163
http://www.amazon.fr/Beaba-Robot-Babycook-Prune-Rose/dp/B00BG1KVPG/ref=sr_1_132/275-9671868-1230208?s=baby&ie=UTF8&qid=1423701340&sr=1-132
http://www.amazon.fr/Natural-Touch-St%C3%A9rilisateurs-St%C3%A9rilisateur-chauffe/dp/B009NI6HHA/ref=sr_1_18/275-9671868-1230208?s=baby&ie=UTF8&qid=1423701335&sr=1-18
http://www.amazon.fr/Beaba-Babycook-Balance-Coloris-Assortis/dp/B00381YTH8/ref=sr_1_62/275-9671868-1230208?s=baby&ie=UTF8&qid=1423701337&sr=1-62
http://www.amazon.fr/Beaba-Robot-Babycook-Original-Taupe/dp/B00BG1KTEE/ref=sr_1_138/275-9671868-1230208?s=baby&ie=UTF8&qid=1423701340&sr=1-138
http://www.amazon.fr/Beaba-Robot-Babycook-Original-Taupe/dp/B00BG1KRMS/ref=sr_1_136/275-9671868-1230208?s=baby&ie=UTF8&qid=1423701340&sr=1-136
http://www.amazon.fr/Beaba-Coffret-Accessoires-Babycook-Sorbet/dp/B003WVEE7E/ref=sr_1_13/275-9671868-1230208?s=baby&ie=UTF8&qid=1423701335&sr=1-13
http://www.amazon.fr/Olympia-Chauffe-Bib%C3%A9ron-Maison-Voiture/dp/B00DIAJZNW/ref=sr_1_53/275-9671868-1230208?s=baby&ie=UTF8&qid=1423701337&sr=1-53
http://www.amazon.fr/Delta-RP28900-Spray-Assembl-e-Chrome/dp/B001AHX252/ref=sr_1_106/275-9671868-1230208?s=baby&ie=UTF8&qid=1423701339&sr=1-106
http://www.amazon.fr/Homog%C3%A9n%C3%A9isateur-et-mixeur-b%C3%A9b%C3%A9-JC-229/dp/B00B5FA7B6/ref=sr_1_68/275-9671868-1230208?s=baby&ie=UTF8&qid=1423701337&sr=1-68
http://www.amazon.fr/B%C3%A9aba-Beaba-Babycook-Bag/dp/B00CIUM422/ref=sr_1_127/275-9671868-1230208?s=baby&ie=UTF8&qid=1423701340&sr=1-127
http://www.amazon.fr/Reer-3410-Chauffe-petits-pots-NewGen/dp/B00447G4QY/ref=sr_1_30/275-9671868-1230208?s=baby&ie=UTF8&qid=1423701336&sr=1-30
http://www.amazon.fr/Saro-ROBOT-MINI-CHEF/dp/B009IPU3PU/ref=sr_1_116/275-9671868-1230208?s=baby&ie=UTF8&qid=1423701339&sr=1-116
http://www.amazon.fr/Chicco-chicco-baby-meal-rouge/dp/B0057JF2ZW/ref=sr_1_148/275-9671868-1230208?s=baby&ie=UTF8&qid=1423701341&sr=1-148
http://www.amazon.fr/MINILAND-Robot-cuiseur-Chefy-5/dp/B00CTPR9YO/ref=sr_1_41/275-9671868-1230208?s=baby&ie=UTF8&qid=1423701336&sr=1-41
http://www.amazon.fr/Nuk-Chauffe-Biberon-Thermo-Rapid/dp/B0024FFSB0/ref=sr_1_17/275-9671868-1230208?s=baby&ie=UTF8&qid=1423701335&sr=1-17
http://www.amazon.fr/Thermobaby-Chauffe-biberons-Blanc-Jaune/dp/B00F59BA0U/ref=sr_1_189/275-9671868-1230208?s=baby&ie=UTF8&qid=1423701342&sr=1-189
http://www.amazon.fr/Petits-conservation-verre-TEFAL-DISNEY/dp/B004V93API/ref=sr_1_75/275-9671868-1230208?s=baby&ie=UTF8&qid=1423701338&sr=1-75
http://www.amazon.fr/Opella-90188-inoxydable-bouchon-amande/dp/B002YJ1OF0/ref=sr_1_178/275-9671868-1230208?s=baby&ie=UTF8&qid=1423701342&sr=1-178
http://www.amazon.fr/Mebby-Mixeur-Cuiseur-Multifonctions-Orange/dp/B004R968H4/ref=sr_1_27/275-9671868-1230208?s=baby&ie=UTF8&qid=1423701336&sr=1-27
http://www.amazon.fr/Momma-21002-3003-mOmma-Chauffe-Plat/dp/B006WL9PHA/ref=sr_1_67/275-9671868-1230208?s=baby&ie=UTF8&qid=1423701337&sr=1-67
http://www.amazon.fr/Beaba-Babycook-Original-Coloris-choix/dp/B003AM7MD8/ref=sr_1_1/275-9671868-1230208?s=baby&ie=UTF8&qid=1423701335&sr=1-1
http://www.amazon.fr/Beaba-Robot-Babycook-Original-Prune/dp/B00BG1KOW6/ref=sr_1_135/275-9671868-1230208?s=baby&ie=UTF8&qid=1423701340&sr=1-135
http://www.amazon.fr/CHICCO-BABY-PAPPA-0%25-BPA/dp/B0041OI26A/ref=sr_1_149/275-9671868-1230208?s=baby&ie=UTF8&qid=1423701341&sr=1-149
http://www.amazon.fr/Yoomi-Y1W-R%C3%A9chauffeur/dp/B004XYBUKS/ref=sr_1_49/275-9671868-1230208?s=baby&ie=UTF8&qid=1423701337&sr=1-49
http://www.amazon.fr/Opella-90150-Polymer-d-vier-polaire/dp/B0012QMODM/ref=sr_1_173/275-9671868-1230208?s=baby&ie=UTF8&qid=1423701342&sr=1-173
http://www.amazon.fr/Chicco-Electrom%C3%A9nager-Cuiseur-Vapeur-Mixeur/dp/B001U9M256/ref=sr_1_74/275-9671868-1230208?s=baby&ie=UTF8&qid=1423701338&sr=1-74
http://www.amazon.fr/Beaba-Babycook-Cooker-Coloris-Assortis/dp/B003RWT52C/ref=sr_1_35/275-9671868-1230208?s=baby&ie=UTF8&qid=1423701336&sr=1-35
http://www.amazon.fr/Beaba-Babycook-Duo-Poudr%C3%A9-Rose/dp/B00637IW18/ref=sr_1_7/275-9671868-1230208?s=baby&ie=UTF8&qid=1423701335&sr=1-7
http://www.amazon.fr/Beaba-M%C3%A9langeur-Anti-Grumeaux-Coloris-Assortis/dp/B003CRH1FU/ref=sr_1_51/275-9671868-1230208?s=baby&ie=UTF8&qid=1423701337&sr=1-51
http://www.amazon.fr/Beaba-912161-Babycook-Bag-Vert/dp/B003WV5A3G/ref=sr_1_85/275-9671868-1230208?s=baby&ie=UTF8&qid=1423701338&sr=1-85
http://www.amazon.fr/Beaba-Robot-Babycook-Original-Prune/dp/B00BG1KQTM/ref=sr_1_134/275-9671868-1230208?s=baby&ie=UTF8&qid=1423701340&sr=1-134
http://www.amazon.fr/Contenant-isotherme-biberon-petits-Beige/dp/B00473XCYC/ref=sr_1_93/275-9671868-1230208?s=baby&ie=UTF8&qid=1423701338&sr=1-93
http://www.amazon.fr/Reer-3513-St%C3%A9rilisateur-r%C3%A9chaud-Multimax-Travel/dp/B00331DCOO/ref=sr_1_31/275-9671868-1230208?s=baby&ie=UTF8&qid=1423701336&sr=1-31
http://www.amazon.fr/BEABA-912195-Babycook-Limit%C3%A9e-Argent/dp/B003XT666C/ref=sr_1_60/275-9671868-1230208?s=baby&ie=UTF8&qid=1423701337&sr=1-60
http://www.amazon.fr/B%C3%A9aba-Recettes-Babycook-Espagnol-603265/dp/B00J9G0HO0/ref=sr_1_145/275-9671868-1230208?s=baby&ie=UTF8&qid=1423701341&sr=1-145
http://www.amazon.fr/Rommelsbacher-BW-100/dp/B001BC93EK/ref=sr_1_99/275-9671868-1230208?s=baby&ie=UTF8&qid=1423701339&sr=1-99
http://www.amazon.fr/Joycare-JC-223-Chauffe-biberon-rapide/dp/B00B01CI7Q/ref=sr_1_52/275-9671868-1230208?s=baby&ie=UTF8&qid=1423701337&sr=1-52
http://www.amazon.fr/THERMOBABY-Bol-Micro-Ondes-Prune/dp/B00T7DG72G/ref=sr_1_118/275-9671868-1230208?s=baby&ie=UTF8&qid=1423701339&sr=1-118
http://www.amazon.fr/Opella-90066-Universal-Cr-pine-Biscuit/dp/B00GPBLC78/ref=sr_1_171/275-9671868-1230208?s=baby&ie=UTF8&qid=1423701342&sr=1-171
http://www.amazon.fr/Mixeur-Multifonction-Brevi-Cuocipappa-Vivalapappa/dp/B00B26UBH8/ref=sr_1_113/275-9671868-1230208?s=baby&ie=UTF8&qid=1423701339&sr=1-113
http://www.amazon.fr/D%C3%A9lices-Cr%C3%A8me-dessert-Cacao-4x100g/dp/B00D3TZ4C4/ref=sr_1_155/275-9671868-1230208?s=baby&ie=UTF8&qid=1423701341&sr=1-155
http://www.amazon.fr/Babymoov-Ensemble-B%C3%A9b%C3%A9delice-Babybol-glacier/dp/B00BG1IKKE/ref=sr_1_124/275-9671868-1230208?s=baby&ie=UTF8&qid=1423701340&sr=1-124
http://www.amazon.fr/Chicco-Cuiseur-Vapeur-Mixeur-recettes/dp/B004DLXE28/ref=sr_1_150/275-9671868-1230208?s=baby&ie=UTF8&qid=1423701341&sr=1-150
http://www.amazon.fr/Infantino-cuit-vapeur-presse-pur%C3%A9e/dp/B009IWGXE8/ref=sr_1_37/275-9671868-1230208?s=baby&ie=UTF8&qid=1423701336&sr=1-37
http://www.amazon.fr/Polar-Gear-Sac-D%C3%A9jeuner-Tout-Petit/dp/B0034SYQD2/ref=sr_1_22/275-9671868-1230208?s=baby&ie=UTF8&qid=1423701335&sr=1-22
http://www.amazon.fr/Zisaline-Babykostw%C3%A4rmer-Hotmeal/dp/B00447ATDI/ref=sr_1_96/275-9671868-1230208?s=baby&ie=UTF8&qid=1423701338&sr=1-96
http://www.amazon.fr/B%C3%A9aba-BabyCook-II-BEABA-sorbet/dp/B004UE2XWA/ref=sr_1_78/275-9671868-1230208?s=baby&ie=UTF8&qid=1423701338&sr=1-78
http://www.amazon.fr/Philips-AVENT-SCF870-20-Philips-Avent/dp/B002EIJTDK/ref=sr_1_25/275-9671868-1230208?s=baby&ie=UTF8&qid=1423701336&sr=1-25
http://www.amazon.fr/Robot-multifonction-pour-repas-JC-221/dp/B00B0AS2Z4/ref=sr_1_90/275-9671868-1230208?s=baby&ie=UTF8&qid=1423701338&sr=1-90
http://www.amazon.fr/Philips-AVENT-philips-avent-easypappa/dp/B004S9T906/ref=sr_1_181/275-9671868-1230208?s=baby&ie=UTF8&qid=1423701342&sr=1-181
http://www.amazon.fr/Chauffe-biberon-thermos-voiture-JC-215G/dp/B009P0OX9A/ref=sr_1_48/275-9671868-1230208?s=baby&ie=UTF8&qid=1423701336&sr=1-48
http://www.amazon.fr/Reer-7805-9-Backofen-T%C3%BCrstopp-universal/dp/B000R58GJU/ref=sr_1_97/275-9671868-1230208?s=baby&ie=UTF8&qid=1423701339&sr=1-97
http://www.amazon.fr/Opella-90055-045-Universal-Passoire-inoxydable/dp/B0038FEL0O/ref=sr_1_168/275-9671868-1230208?s=baby&ie=UTF8&qid=1423701341&sr=1-168
http://www.amazon.fr/Babyruf-Chauffe-petit-pots-b%C3%A9b%C3%A9-%C3%A9lectronique/dp/B001PCOQC0/ref=sr_1_40/275-9671868-1230208?s=baby&ie=UTF8&qid=1423701336&sr=1-40
http://www.amazon.fr/Opella-90055-046-Universal-Passoire-inoxydable/dp/B0038FRVQU/ref=sr_1_169/275-9671868-1230208?s=baby&ie=UTF8&qid=1423701342&sr=1-169
http://www.amazon.fr/Cuiseur-%C3%A0-pates-%C3%A9lectrique-paniers/dp/B000X38FE2/ref=sr_1_102/275-9671868-1230208?s=baby&ie=UTF8&qid=1423701339&sr=1-102
http://www.amazon.fr/Bartscher-Cuiseur-%C3%A0-pates-%C3%A9lectrique/dp/B001C3Y4BK/ref=sr_1_101/275-9671868-1230208?s=baby&ie=UTF8&qid=1423701339&sr=1-101
http://www.amazon.fr/Philips-Avent-Blender-Conservation-Livret-Recettes/dp/B004MW3G8K/ref=sr_1_19/275-9671868-1230208?s=baby&ie=UTF8&qid=1423701335&sr=1-19
http://www.amazon.fr/D%C3%A9lices-Cr%C3%A8me-dessert-Vanille-4x100g/dp/B00D3TZ3HK/ref=sr_1_156/275-9671868-1230208?s=baby&ie=UTF8&qid=1423701341&sr=1-156
http://www.amazon.fr/Philips-AVENT-SCF870-Combine-Cuiseur/dp/B003MAJ5OC/ref=sr_1_42/275-9671868-1230208?s=baby&ie=UTF8&qid=1423701336&sr=1-42
http://www.amazon.fr/Reer-3595-0-Babykostw%C3%A4rmer-classic-wss/dp/B000R56MZU/ref=sr_1_95/275-9671868-1230208?s=baby&ie=UTF8&qid=1423701338&sr=1-95
http://www.amazon.fr/Beaba-cuiseur-mixeur-Babycook-Original-accessoires/dp/B004MV6YE4/ref=sr_1_142/275-9671868-1230208?s=baby&ie=UTF8&qid=1423701340&sr=1-142
http://www.amazon.fr/Delta-72011-SS-bride-Filtres-Bar-Prep/dp/B000KQ1TWC/ref=sr_1_152/275-9671868-1230208?s=baby&ie=UTF8&qid=1423701341&sr=1-152
http://www.amazon.fr/Infantino-Moulin-presse-aliments-haute-performance/dp/B009IWGVZO/ref=sr_1_71/275-9671868-1230208?s=baby&ie=UTF8&qid=1423701337&sr=1-71
http://www.amazon.fr/Chicco-Cuiseur-Vapeur-Coloris-Chocolat/dp/B005THJEVU/ref=sr_1_28/275-9671868-1230208?s=baby&ie=UTF8&qid=1423701336&sr=1-28
http://www.amazon.fr/Thermobaby-Chauffe-biberons-Voiture/dp/B00F9QTH36/ref=sr_1_191/275-9671868-1230208?s=baby&ie=UTF8&qid=1423701342&sr=1-191
http://www.amazon.fr/Safety-1st-38001720-Pare-soleil-Deluxe/dp/B00187VII2/ref=sr_1_82/275-9671868-1230208?s=baby&ie=UTF8&qid=1423701338&sr=1-82
http://www.amazon.fr/NScessity-NSTBW-205CP-chauffe-biberon-allume/dp/B004C23EZK/ref=sr_1_115/275-9671868-1230208?s=baby&ie=UTF8&qid=1423701339&sr=1-115
http://www.amazon.fr/Beaba-912160-Cooker-Babycook-Orange/dp/B0043XYIA8/ref=sr_1_70/275-9671868-1230208?s=baby&ie=UTF8&qid=1423701337&sr=1-70
http://www.amazon.fr/Fisher-Price-Pack-Chauffe-Plats-pour/dp/B001D2OASM/ref=sr_1_109/275-9671868-1230208?s=baby&ie=UTF8&qid=1423701339&sr=1-109
http://www.amazon.fr/Beaba-912108-Babycook-Cooking-Limit%C3%A9e/dp/B002GP7J2O/ref=sr_1_126/275-9671868-1230208?s=baby&ie=UTF8&qid=1423701340&sr=1-126
http://www.amazon.fr/Petit-Terraillon-10821-Gourmet-Vert/dp/B005JYYAJ4/ref=sr_1_44/275-9671868-1230208?s=baby&ie=UTF8&qid=1423701336&sr=1-44
http://www.amazon.fr/Philips-AVENT-limit%C3%A9e-Saveurs-SCF870/dp/B004P5O6OC/ref=sr_1_45/275-9671868-1230208?s=baby&ie=UTF8&qid=1423701336&sr=1-45
http://www.amazon.fr/Beaba-Babycook-Original-Coffret-accessoires/dp/B0083YJF1U/ref=sr_1_140/275-9671868-1230208?s=baby&ie=UTF8&qid=1423701340&sr=1-140
http://www.amazon.fr/Makeridea-makeridea-homog%C3%A9n%C3%A9isateur-baby-chopper/dp/B004S9W7IW/ref=sr_1_162/275-9671868-1230208?s=baby&ie=UTF8&qid=1423701341&sr=1-162
http://www.amazon.fr/Babymoov-A001017-B%C3%A9b%C3%A9d%C3%A9lice-Taupe-Abricot/dp/B00BSQJI30/ref=sr_1_6/275-9671868-1230208?s=baby&ie=UTF8&qid=1423701335&sr=1-6
http://www.amazon.fr/Tigex-Collexion-Cuiseur-Vapeur-Chaudron/dp/B009X84K0G/ref=sr_1_16/275-9671868-1230208?s=baby&ie=UTF8&qid=1423701335&sr=1-16
http://www.amazon.fr/Chicco-Cuiseur-Mixeur-Multifonction-Delonghi/dp/B005THJEW4/ref=sr_1_20/275-9671868-1230208?s=baby&ie=UTF8&qid=1423701335&sr=1-20
http://www.amazon.fr/Beaba-Mixeur-Cuiseur-Babycook-Caramel/dp/B000MN42FY/ref=sr_1_55/275-9671868-1230208?s=baby&ie=UTF8&qid=1423701337&sr=1-55
http://www.amazon.fr/Chicco-Robot-cuiseur-multifonction-DeLonghi/dp/B00F9QSSLI/ref=sr_1_151/275-9671868-1230208?s=baby&ie=UTF8&qid=1423701341&sr=1-151
http://www.amazon.fr/ALECTO-BW-70-Alecto-Flaschenw%C3%A4rmer/dp/B005632ARW/ref=sr_1_92/275-9671868-1230208?s=baby&ie=UTF8&qid=1423701338&sr=1-92
http://www.amazon.fr/Madelcar-Mini-mixeur-mousseur-lait-13733MD/dp/B00ET9VU8Y/ref=sr_1_161/275-9671868-1230208?s=baby&ie=UTF8&qid=1423701341&sr=1-161
http://www.amazon.fr/Beaba-cooker-babycook-original-poudre/dp/B008Z3WKA2/ref=sr_1_63/275-9671868-1230208?s=baby&ie=UTF8&qid=1423701337&sr=1-63
http://www.amazon.fr/Delta-RP152-Vis-pour-mitigeur/dp/B00084Q3YA/ref=sr_1_14/275-9671868-1230208?s=baby&ie=UTF8&qid=1423701335&sr=1-14
http://www.amazon.fr/Ultramaxx-Mixeur-Nutritional-Extractor/dp/B00NWAPHSU/ref=sr_1_114/275-9671868-1230208?s=baby&ie=UTF8&qid=1423701339&sr=1-114
http://www.amazon.fr/Beaba-Babycook-Original-Coffret-accessoires/dp/B0083YJFE2/ref=sr_1_139/275-9671868-1230208?s=baby&ie=UTF8&qid=1423701340&sr=1-139
http://www.amazon.fr/Beaba-Bibbain-Marie-Maison-Voiture-Evolution/dp/B003787HMG/ref=sr_1_64/275-9671868-1230208?s=baby&ie=UTF8&qid=1423701337&sr=1-64
http://www.amazon.fr/Ldr--rateur-pivotant-500-2180-Pack/dp/B001FOMC42/ref=sr_1_160/275-9671868-1230208?s=baby&ie=UTF8&qid=1423701341&sr=1-160
http://www.amazon.fr/Opella-90188-inoxydable-bouchon-Biscuit/dp/B00GPBAYG8/ref=sr_1_177/275-9671868-1230208?s=baby&ie=UTF8&qid=1423701342&sr=1-177
http://www.amazon.fr/Infantino-Squeeze-Station-Pressoir-pur%C3%A9es/dp/B009IVKY7Q/ref=sr_1_5/275-9671868-1230208?s=baby&ie=UTF8&qid=1423701335&sr=1-5
http://www.amazon.fr/Infantino-conservation-pressoir-Squeeze-station/dp/B009IWNPXK/ref=sr_1_11/275-9671868-1230208?s=baby&ie=UTF8&qid=1423701335&sr=1-11
http://www.amazon.fr/Chauffe-biberons-petits-Simply-accessoires-repas/dp/B00EZPROC8/ref=sr_1_34/275-9671868-1230208?s=baby&ie=UTF8&qid=1423701336&sr=1-34
http://www.amazon.fr/Petit-Terraillon-Assiettes-Preparateur-Culinaire/dp/B000TGIMFA/ref=sr_1_56/275-9671868-1230208?s=baby&ie=UTF8&qid=1423701337&sr=1-56
http://www.amazon.fr/B%C3%A9aba-Babycook-bag-mauve-Beaba/dp/B0044XF496/ref=sr_1_84/275-9671868-1230208?s=baby&ie=UTF8&qid=1423701338&sr=1-84
http://www.amazon.fr/Opella-90150-Polymer-d-vier-Brillant/dp/B00084J4QY/ref=sr_1_174/275-9671868-1230208?s=baby&ie=UTF8&qid=1423701342&sr=1-174
http://www.amazon.fr/Chicco-Recettes-Aventures-Piccolino-Pr%C3%A9sentoir/dp/B0093YBO5O/ref=sr_1_121/275-9671868-1230208?s=baby&ie=UTF8&qid=1423701340&sr=1-121
http://www.amazon.fr/B%C3%A9aba-912307-Beaba-Babycook-Solo/dp/B007HMVID2/ref=sr_1_3/275-9671868-1230208?s=baby&ie=UTF8&qid=1423701335&sr=1-3
http://www.amazon.fr/Philips-AVENT-SCF860-24-Minimixeur/dp/B0063BH9CW/ref=sr_1_123/275-9671868-1230208?s=baby&ie=UTF8&qid=1423701340&sr=1-123
http://www.amazon.fr/Brevi-Robot-cuiseur-multifonctions-Vivalapappa/dp/B002KFBLQK/ref=sr_1_143/275-9671868-1230208?s=baby&ie=UTF8&qid=1423701340&sr=1-143
http://www.amazon.fr/Lovi-19-220-Sac-isotherme/dp/B006AZEUVY/ref=sr_1_110/275-9671868-1230208?s=baby&ie=UTF8&qid=1423701339&sr=1-110
http://www.amazon.fr/Emide-FW-530-Chauffe-biberons-Blanc/dp/B002FFZ2JC/ref=sr_1_158/275-9671868-1230208?s=baby&ie=UTF8&qid=1423701341&sr=1-158
http://www.amazon.fr/Reer-Chauffe-biberon-nourriture-pour-voiture/dp/B000NO41Y4/ref=sr_1_69/275-9671868-1230208?s=baby&ie=UTF8&qid=1423701337&sr=1-69
http://www.amazon.fr/Opella-panier-pr-filtre-blanc-polaire/dp/B00084G1DI/ref=sr_1_166/275-9671868-1230208?s=baby&ie=UTF8&qid=1423701341&sr=1-166
http://www.amazon.fr/Babymoov-A001010-B%C3%A9b%C3%A9d%C3%A9lice-Rouge-Gris/dp/B002RZZSJE/ref=sr_1_32/275-9671868-1230208?s=baby&ie=UTF8&qid=1423701336&sr=1-32
http://www.amazon.fr/Beaba-Robot-Babycook-Coffret-accessoires/dp/B00BG1KNTK/ref=sr_1_130/275-9671868-1230208?s=baby&ie=UTF8&qid=1423701340&sr=1-130
http://www.amazon.fr/Beaba-M%C3%A9langeur-Onctuo-Poudr%C3%A9-Bleu/dp/B00BK2NIBK/ref=sr_1_8/275-9671868-1230208?s=baby&ie=UTF8&qid=1423701335&sr=1-8
http://www.amazon.fr/Beaba-Robot-Babycook-Coffret-accessoires/dp/B00BG1KN0Y/ref=sr_1_129/275-9671868-1230208?s=baby&ie=UTF8&qid=1423701340&sr=1-129
http://www.amazon.fr/Thermobaby-Chauffe-biberons-Maison-Voiture/dp/B00F9QTHD6/ref=sr_1_190/275-9671868-1230208?s=baby&ie=UTF8&qid=1423701342&sr=1-190
http://www.amazon.fr/Rommelsbacher-BW-812/dp/B000ONNTAQ/ref=sr_1_144/275-9671868-1230208?s=baby&ie=UTF8&qid=1423701340&sr=1-144
http://www.amazon.fr/Visiomed-Baby-Cuiseur-Vapeur-Micro-Ondes/dp/B009W20K2A/ref=sr_1_24/275-9671868-1230208?s=baby&ie=UTF8&qid=1423701335&sr=1-24
http://www.amazon.fr/LBS-Robot-cuiseur-vapeur-Cuistot/dp/B00BZ7ILY4/ref=sr_1_159/275-9671868-1230208?s=baby&ie=UTF8&qid=1423701341&sr=1-159
http://www.amazon.fr/Opella-90066-Universal-Cr-pine-noir/dp/B00GPBLJ80/ref=sr_1_170/275-9671868-1230208?s=baby&ie=UTF8&qid=1423701342&sr=1-170
http://www.amazon.fr/Babymoov-B%C3%A9b%C3%A9d%C3%A9lice-Rouge-cr%C3%A8me-A001004/dp/B002APLROG/ref=sr_1_23/275-9671868-1230208?s=baby&ie=UTF8&qid=1423701335&sr=1-23
http://www.amazon.fr/Tescoma-T643690-Multi-mixeur-manuel/dp/B004I8V2HA/ref=sr_1_83/275-9671868-1230208?s=baby&ie=UTF8&qid=1423701338&sr=1-83
http://www.amazon.fr/Tigex-Collexion-Cuiseur-Vapeur-Gourmet/dp/B009GX8WZC/ref=sr_1_91/275-9671868-1230208?s=baby&ie=UTF8&qid=1423701338&sr=1-91
http://www.amazon.fr/Beaba-Robot-Babycook-Original-Prune/dp/B00BG1KPPW/ref=sr_1_133/275-9671868-1230208?s=baby&ie=UTF8&qid=1423701340&sr=1-133
http://www.amazon.fr/Opella-14107-045-Universal-Mount-10/dp/B001BPWMUY/ref=sr_1_165/275-9671868-1230208?s=baby&ie=UTF8&qid=1423701341&sr=1-165
http://www.amazon.fr/Beaba-Mixeur-Cuiseur-Babycook-Sorbet/dp/B000MN42GI/ref=sr_1_26/275-9671868-1230208?s=baby&ie=UTF8&qid=1423701336&sr=1-26
http://www.amazon.fr/B%C3%A9aba-Babycook-Solo-BEABA-rouge/dp/B00OV2BCEG/ref=sr_1_21/275-9671868-1230208?s=baby&ie=UTF8&qid=1423701335&sr=1-21
http://www.amazon.fr/Delta-72020-AR-Cuisine-lArctique-inoxydable/dp/B00477L1PK/ref=sr_1_104/275-9671868-1230208?s=baby&ie=UTF8&qid=1423701339&sr=1-104
http://www.amazon.fr/Beaba-Robot-Babycook-Prune-Bleu/dp/B00BG1KUVQ/ref=sr_1_87/275-9671868-1230208?s=baby&ie=UTF8&qid=1423701338&sr=1-87
http://www.amazon.fr/Cuiseur-Vapeur-Chicco-Mixeur-pappa/dp/B00K1BY68U/ref=sr_1_100/275-9671868-1230208?s=baby&ie=UTF8&qid=1423701339&sr=1-100
http://www.amazon.fr/Beaba-Pasta-cooker-babycook-original/dp/B008Z3VYRC/ref=sr_1_61/275-9671868-1230208?s=baby&ie=UTF8&qid=1423701337&sr=1-61
http://www.amazon.fr/Terraillon-Mixeur-Cuiseur-Petit-Gourmet/dp/B00F5VXT0M/ref=sr_1_38/275-9671868-1230208?s=baby&ie=UTF8&qid=1423701336&sr=1-38
http://www.amazon.fr/Delta-RP8230-manettes-C-ramique-printemps/dp/B001D0HOZU/ref=sr_1_107/275-9671868-1230208?s=baby&ie=UTF8&qid=1423701339&sr=1-107
http://www.amazon.fr/D%C3%A9lices-lait-Cr%C3%A8me-4x100g-mois/dp/B00D3TZ5GE/ref=sr_1_154/275-9671868-1230208?s=baby&ie=UTF8&qid=1423701341&sr=1-154
http://www.amazon.fr/Philips-Avent-Cuiseur-Mixeur-Robot-Maxisaveur/dp/B007WKC8ZQ/ref=sr_1_4/275-9671868-1230208?s=baby&ie=UTF8&qid=1423701335&sr=1-4
http://www.amazon.fr/Robot-Nutribaby-zen-Rouge-Babymoov/dp/B006COFMHE/ref=sr_1_185/275-9671868-1230208?s=baby&ie=UTF8&qid=1423701342&sr=1-185
http://www.amazon.fr/Babymoov-Cuiseur-Mixeur-Nutribaby-Abricot/dp/B00BOWJ2Z2/ref=sr_1_2/275-9671868-1230208?s=baby&ie=UTF8&qid=1423701335&sr=1-2
http://www.amazon.fr/Tigex-Cuiseur-Mixeur-B%C3%A9b%C3%A9-Gourmet/dp/B004DZODLA/ref=sr_1_58/275-9671868-1230208?s=baby&ie=UTF8&qid=1423701337&sr=1-58
http://www.amazon.fr/Multi-portions-silicone-Vert-Beaba/dp/B007JTDI90/ref=sr_1_80/275-9671868-1230208?s=baby&ie=UTF8&qid=1423701338&sr=1-80
http://www.amazon.fr/Munchkin-011045-Broyeur-dAliments-pour/dp/B003WVPQF8/ref=sr_1_65/275-9671868-1230208?s=baby&ie=UTF8&qid=1423701337&sr=1-65
http://www.amazon.fr/B%C3%A9aba-Babycook-Classic-gipsy-Beaba/dp/B007JTDJ3A/ref=sr_1_77/275-9671868-1230208?s=baby&ie=UTF8&qid=1423701338&sr=1-77
http://www.amazon.fr/Thermobaby-Chauffe-biberons-Blanc-Bleu/dp/B00F0W881Q/ref=sr_1_188/275-9671868-1230208?s=baby&ie=UTF8&qid=1423701342&sr=1-188
http://www.amazon.fr/BEABA-Robot-Babycook-Duo-Gipsy/dp/B00K0KMOBS/ref=sr_1_98/275-9671868-1230208?s=baby&ie=UTF8&qid=1423701339&sr=1-98
http://www.amazon.fr/Opella-90188-Bride-bouchon-broyeur/dp/B002YIYJWG/ref=sr_1_175/275-9671868-1230208?s=baby&ie=UTF8&qid=1423701342&sr=1-175
http://www.amazon.fr/Beaba-Robot-Babycook-Original-Taupe/dp/B00BG1KSLI/ref=sr_1_137/275-9671868-1230208?s=baby&ie=UTF8&qid=1423701340&sr=1-137
http://www.amazon.fr/Tefal-cuiseur-fonctions-spatule-recettes/dp/B004E0FEGW/ref=sr_1_36/275-9671868-1230208?s=baby&ie=UTF8&qid=1423701336&sr=1-36
http://www.amazon.fr/B%C3%A9aba-911184-Beaba-M%C3%A9langeur-Grumeaux/dp/B001RUEALC/ref=sr_1_86/275-9671868-1230208?s=baby&ie=UTF8&qid=1423701338&sr=1-86
http://www.amazon.fr/Beaba-Pasta-Cooker-Babycook-Original/dp/B00AGFJ98I/ref=sr_1_10/275-9671868-1230208?s=baby&ie=UTF8&qid=1423701335&sr=1-10
http://www.amazon.fr/THERMOBABY-Bol-Micro-Ondes-Vert/dp/B00T7DIARG/ref=sr_1_120/275-9671868-1230208?s=baby&ie=UTF8&qid=1423701339&sr=1-120
http://www.amazon.fr/Tommee-Tippee-Petits-pots-conservation/dp/B008JVXBDA/ref=sr_1_89/275-9671868-1230208?s=baby&ie=UTF8&qid=1423701338&sr=1-89
http://www.amazon.fr/THERMOBABY-Bol-Micro-Ondes-Turquoise/dp/B00T7DI74M/ref=sr_1_119/275-9671868-1230208?s=baby&ie=UTF8&qid=1423701339&sr=1-119
http://www.amazon.fr/First-Years-Mixeur-Cuiseur-Vapeur/dp/B002WN2B82/ref=sr_1_108/275-9671868-1230208?s=baby&ie=UTF8&qid=1423701339&sr=1-108
http://www.amazon.fr/Rotho-Babydesign-Pochette-Biberons-Isotherme/dp/B0072GNQZG/ref=sr_1_81/275-9671868-1230208?s=baby&ie=UTF8&qid=1423701338&sr=1-81
http://www.amazon.fr/Tefal-Mixeur-cuiseur-multifonctions-pour/dp/B000ZY2DJ2/ref=sr_1_187/275-9671868-1230208?s=baby&ie=UTF8&qid=1423701342&sr=1-187
http://www.amazon.fr/Plastorex-Top-Com-Kidzzz-Cuiseur/dp/B006O7BZYS/ref=sr_1_29/275-9671868-1230208?s=baby&ie=UTF8&qid=1423701336&sr=1-29
http://www.amazon.fr/-Jou-Water-Plate-Dinkey-Zebra/dp/B00ASHX9LM/ref=sr_1_94/275-9671868-1230208?s=baby&ie=UTF8&qid=1423701338&sr=1-94
http://www.amazon.fr/Avent-Robot-Cuiseur-Vapeur-Mixeur/dp/B006LPK9HC/ref=sr_1_76/275-9671868-1230208?s=baby&ie=UTF8&qid=1423701338&sr=1-76
http://www.amazon.fr/BEABA-RECHAUFFE-PETIT-MICRO-ONDES/dp/B0011DX53Y/ref=sr_1_128/275-9671868-1230208?s=baby&ie=UTF8&qid=1423701340&sr=1-128
http://www.amazon.fr/Chicco-chicco-baby-meal-bleu/dp/B0057ZQ5IO/ref=sr_1_147/275-9671868-1230208?s=baby&ie=UTF8&qid=1423701341&sr=1-147
http://www.amazon.fr/Babymoov-Ensemble-Robot-Nutribaby-Babybol/dp/B00BG1IIX8/ref=sr_1_79/275-9671868-1230208?s=baby&ie=UTF8&qid=1423701338&sr=1-79
http://www.amazon.fr/Old-Dutch-767-Cuivre-massif/dp/B00005Q5G0/ref=sr_1_164/275-9671868-1230208?s=baby&ie=UTF8&qid=1423701341&sr=1-164
http://www.amazon.fr/Beaba-Robot-Babycook-Prune-Gipsy/dp/B00BG1KU70/ref=sr_1_131/275-9671868-1230208?s=baby&ie=UTF8&qid=1423701340&sr=1-131
http://www.amazon.fr/PHI-SCF-860-20-Standmixer/dp/B00175H7DK/ref=sr_1_180/275-9671868-1230208?s=baby&ie=UTF8&qid=1423701342&sr=1-180
http://www.amazon.fr/smileBaby-sb240-SmileBaby-Chauffe-biberons/dp/B00HLHR670/ref=sr_1_186/275-9671868-1230208?s=baby&ie=UTF8&qid=1423701342&sr=1-186
http://www.amazon.fr/Beaba-Coffret-Accessoires-Babycook-Solo/dp/B00637IQE6/ref=sr_1_15/275-9671868-1230208?s=baby&ie=UTF8&qid=1423701335&sr=1-15
http://www.amazon.fr/Beaba-M%C3%A9langeur-Anti-Grumeaux-Coloris-Assortis/dp/B003RWT4Y6/ref=sr_1_54/275-9671868-1230208?s=baby&ie=UTF8&qid=1423701337&sr=1-54
http://www.amazon.fr/Babymoov-A001009-B%C3%A9b%C3%A9d%C3%A9lice-Glacier-Prune/dp/B002RZUE9S/ref=sr_1_43/275-9671868-1230208?s=baby&ie=UTF8&qid=1423701336&sr=1-43
http://www.amazon.fr/Badabulle-B001002-B%C3%A9b%C3%A9-Station-Blanc/dp/B004S9AQFI/ref=sr_1_47/275-9671868-1230208?s=baby&ie=UTF8&qid=1423701336&sr=1-47
http://www.amazon.fr/Beaba-Babycook-Book-Kid-Cook/dp/B00HHY1PJ2/ref=sr_1_73/275-9671868-1230208?s=baby&ie=UTF8&qid=1423701338&sr=1-73
http://www.amazon.fr/Delta-RP11096--pais-montage-g-n-ralis-e/dp/B00084Q21O/ref=sr_1_153/275-9671868-1230208?s=baby&ie=UTF8&qid=1423701341&sr=1-153
http://www.amazon.fr/Cuiseur-pates-%C3%A9lectrique-avec-cuve/dp/B000X3UI9C/ref=sr_1_103/275-9671868-1230208?s=baby&ie=UTF8&qid=1423701339&sr=1-103
http://www.amazon.fr/Blender-tommee-tippe-explora-angleterre/dp/B006PEBH5M/ref=sr_1_66/275-9671868-1230208?s=baby&ie=UTF8&qid=1423701337&sr=1-66
http://www.amazon.fr/Petit-Terraillon-BALANCE-CULINAIRE-MAXIMALE/dp/B007HG2SXW/ref=sr_1_179/275-9671868-1230208?s=baby&ie=UTF8&qid=1423701342&sr=1-179
http://www.amazon.fr/Babymoov-A001101-Nutribaby-Coloris-Orange/dp/B006IL6UZE/ref=sr_1_72/275-9671868-1230208?s=baby&ie=UTF8&qid=1423701337&sr=1-72
http://www.amazon.fr/Babymoov-Ensemble-Robot-B%C3%A9b%C3%A9delice-Babybol/dp/B00BG1IJQO/ref=sr_1_125/275-9671868-1230208?s=baby&ie=UTF8&qid=1423701340&sr=1-125
http://www.amazon.fr/Opella-90188-acier-inoxydable-bouchon/dp/B002A28ZQM/ref=sr_1_176/275-9671868-1230208?s=baby&ie=UTF8&qid=1423701342&sr=1-176
http://www.amazon.fr/Beaba-Babycook-Original-Coffret-accessoires/dp/B0083YJF5Q/ref=sr_1_141/275-9671868-1230208?s=baby&ie=UTF8&qid=1423701340&sr=1-141
http://www.amazon.fr/Robot-cuiseur-saveurs-Philips-avent/dp/B0064YQ3EI/ref=sr_1_184/275-9671868-1230208?s=baby&ie=UTF8&qid=1423701342&sr=1-184
http://www.amazon.fr/Chicco-Cuiseur-Mixeur-Recettes-Piccolino/dp/8890499303/ref=sr_1_57/275-9671868-1230208?s=baby&ie=UTF8&qid=1423701337&sr=1-57
http://www.amazon.fr/B%C3%A9aba-912132-Beaba-Babycook-Poudr%C3%A9/dp/B003CGVY68/ref=sr_1_39/275-9671868-1230208?s=baby&ie=UTF8&qid=1423701336&sr=1-39
http://www.amazon.fr/Opella-90066-Universal-Cr-pine-amande/dp/B00407YV4A/ref=sr_1_172/275-9671868-1230208?s=baby&ie=UTF8&qid=1423701342&sr=1-172
http://www.amazon.fr/Opella-Commander-remplacement-inoxydable-bross-/dp/B0008483VQ/ref=sr_1_167/275-9671868-1230208?s=baby&ie=UTF8&qid=1423701341&sr=1-167
http://www.amazon.fr/Petit-Terraillon-11234-Gourmet-Prune/dp/B005JYYADK/ref=sr_1_59/275-9671868-1230208?s=baby&ie=UTF8&qid=1423701337&sr=1-59
http://www.amazon.fr/Petit-Terraillon-BALANCE-CULINAIRE-MAXIMALE/dp/B005LVIZ3W/ref=sr_1_88/275-9671868-1230208?s=baby&ie=UTF8&qid=1423701338&sr=1-88
http://www.amazon.fr/Philips-Avent-Mini-Mixeur-Aliment/dp/B000WDUXRA/ref=sr_1_182/275-9671868-1230208?s=baby&ie=UTF8&qid=1423701342&sr=1-182
http://www.amazon.fr/Tigex-Collexion-Cuiseur-Vapeur-Naturel/dp/B009X84N9E/ref=sr_1_33/275-9671868-1230208?s=baby&ie=UTF8&qid=1423701336&sr=1-33
http://www.amazon.fr/dBb-Remond-Multi-Chef-Blanc/dp/B00GC5KWB4/ref=sr_1_12/275-9671868-1230208?s=baby&ie=UTF8&qid=1423701335&sr=1-12
http://www.amazon.fr/Delta-RP23336-Grand-O-Ring-Monitor/dp/B001D0HOQE/ref=sr_1_105/275-9671868-1230208?s=baby&ie=UTF8&qid=1423701339&sr=1-105
http://www.amazon.fr/suavinex-robot-de-cuisine-link/dp/B00IS0HW8M/ref=sr_1_117/275-9671868-1230208?s=baby&ie=UTF8&qid=1423701339&sr=1-117
http://www.amazon.fr/Badabulle-Mixer-Blanc-Gris-Vert/dp/B004QQP0XG/ref=sr_1_9/275-9671868-1230208?s=baby&ie=UTF8&qid=1423701335&sr=1-9
http://www.amazon.fr/Mixeur-Multifonction-Brevi-Cuocipappa-Vivalapappa/dp/B00B26UARY/ref=sr_1_112/275-9671868-1230208?s=baby&ie=UTF8&qid=1423701339&sr=1-112
